\relax 
\@writefile{toc}{\contentsline {section}{\numberline {1}Statement of the problem}{1}}
\newlabel{1}{{1}{1}}
\newlabel{2}{{2}{1}}
\newlabel{2.1}{{3}{1}}
\newlabel{3}{{4}{1}}
\newlabel{4}{{5}{1}}
\newlabel{5}{{6}{2}}
\newlabel{6}{{7}{2}}
\newlabel{7}{{8}{2}}
\newlabel{7.1}{{9}{2}}
\newlabel{8}{{10}{2}}
\newlabel{8.1}{{11}{2}}
\newlabel{9}{{12}{2}}
\newlabel{10}{{13}{2}}
\newlabel{12}{{14}{3}}
\newlabel{12.1}{{15}{3}}
\newlabel{12.2}{{16}{3}}
\newlabel{12.3}{{17}{3}}
\newlabel{14}{{18}{3}}
\newlabel{15}{{19}{3}}
\newlabel{16}{{20}{3}}
\newlabel{17}{{21}{3}}
\newlabel{18}{{22}{3}}
\newlabel{18.1}{{23}{4}}
\newlabel{19}{{24}{4}}
\newlabel{20}{{25}{4}}
\newlabel{21}{{26}{4}}
\newlabel{22}{{27}{4}}
\newlabel{23}{{28}{5}}
\@writefile{toc}{\contentsline {section}{\numberline {2}Expresssions for force and torque in terms of potential}{5}}
\newlabel{e1}{{29}{5}}
\newlabel{e2}{{30}{5}}
\newlabel{e2.1}{{31}{5}}
\newlabel{e3}{{32}{5}}
\newlabel{e3.1}{{33}{5}}
\newlabel{e4}{{34}{6}}
\newlabel{e5}{{35}{6}}
\newlabel{e6}{{36}{6}}
\newlabel{e6.1}{{37}{6}}
\newlabel{e7}{{38}{6}}
\newlabel{e8}{{39}{6}}
\newlabel{e9}{{40}{6}}
\newlabel{e10}{{41}{7}}
\newlabel{e11}{{42}{7}}
\newlabel{e12}{{43}{7}}
\newlabel{e14}{{44}{7}}
\newlabel{e15}{{45}{7}}
\newlabel{e16}{{46}{7}}
\newlabel{e17}{{47}{7}}
\newlabel{e18}{{48}{7}}
\@writefile{toc}{\contentsline {section}{\numberline {3}Equations for particle dynamics}{8}}
\newlabel{p1}{{49}{8}}
\newlabel{p2}{{50}{8}}
\newlabel{p3}{{51}{8}}
\newlabel{p4}{{52}{8}}
\newlabel{p5}{{53}{8}}
\newlabel{p6}{{54}{8}}
\newlabel{p7}{{55}{8}}
\@writefile{toc}{\contentsline {section}{\numberline {4}Boundary conditions and the boundary integral equations}{8}}
\newlabel{p8}{{56}{8}}
\newlabel{p9}{{57}{9}}
\newlabel{p10}{{58}{9}}
\newlabel{p11}{{59}{9}}
\newlabel{p12}{{60}{9}}
\newlabel{p14}{{61}{9}}
\newlabel{p15}{{62}{9}}
\newlabel{p16}{{63}{10}}
\newlabel{p17}{{64}{10}}
\newlabel{p18}{{65}{10}}
\newlabel{p19}{{66}{10}}
\newlabel{p20}{{67}{10}}
\newlabel{p21}{{68}{10}}
\@writefile{toc}{\contentsline {section}{\numberline {5}Time marching}{11}}
\newlabel{tm1}{{69}{11}}
\newlabel{tm2}{{70}{12}}
\newlabel{tm3}{{71}{12}}
\newlabel{tm3.1}{{72}{12}}
\newlabel{tm4}{{73}{12}}
\newlabel{tm5}{{74}{12}}
\newlabel{tm6}{{75}{13}}
\newlabel{tm7}{{76}{13}}
\newlabel{tm8}{{77}{13}}
\newlabel{tm9}{{78}{13}}
\newlabel{tm10}{{79}{13}}
\newlabel{tm11}{{80}{13}}
\newlabel{tm12}{{81}{14}}
