%!PS-Adobe-3.0 EPSF-3.0
%%Creator: MATLAB, The Mathworks, Inc. Version 7.7.0.471 (R2008b). Operating System: Microsoft Windows Vista.
%%Title: D:\Научная деятельность\Report BEM [12.04.2016]\d_4_to_10_Bc.eps
%%CreationDate: 04/14/2016  17:34:52
%%DocumentNeededFonts: Helvetica
%%DocumentProcessColors: Cyan Magenta Yellow Black
%%LanguageLevel: 2
%%Pages: 1
%%BoundingBox:  -214   167   811   675
%%EndComments

%%BeginProlog
% MathWorks dictionary
/MathWorks 160 dict begin
% definition operators
/bdef {bind def} bind def
/ldef {load def} bind def
/xdef {exch def} bdef
/xstore {exch store} bdef
% operator abbreviations
/c  /clip ldef
/cc /concat ldef
/cp /closepath ldef
/gr /grestore ldef
/gs /gsave ldef
/mt /moveto ldef
/np /newpath ldef
/cm /currentmatrix ldef
/sm /setmatrix ldef
/rm /rmoveto ldef
/rl /rlineto ldef
/s {show newpath} bdef
/sc {setcmykcolor} bdef
/sr /setrgbcolor ldef
/sg /setgray ldef
/w /setlinewidth ldef
/j /setlinejoin ldef
/cap /setlinecap ldef
/rc {rectclip} bdef
/rf {rectfill} bdef
% page state control
/pgsv () def
/bpage {/pgsv save def} bdef
/epage {pgsv restore} bdef
/bplot /gsave ldef
/eplot {stroke grestore} bdef
% orientation switch
/portraitMode 0 def /landscapeMode 1 def /rotateMode 2 def
% coordinate system mappings
/dpi2point 0 def
% font control
/FontSize 0 def
/FMS {/FontSize xstore findfont [FontSize 0 0 FontSize neg 0 0]
  makefont setfont} bdef
/ISOLatin1Encoding where {pop /WindowsLatin1Encoding 256 array bdef
ISOLatin1Encoding WindowsLatin1Encoding copy pop
/.notdef/.notdef/quotesinglbase/florin/quotedblbase/ellipsis/dagger
/daggerdbl/circumflex/perthousand/Scaron/guilsinglleft/OE/.notdef/.notdef
/.notdef/.notdef/quoteleft/quoteright/quotedblleft/quotedblright/bullet
/endash/emdash/tilde/trademark/scaron/guilsinglright/oe/.notdef/.notdef
/Ydieresis WindowsLatin1Encoding 128 32 getinterval astore pop}
{/WindowsLatin1Encoding StandardEncoding bdef} ifelse
/reencode {exch dup where {pop load} {pop StandardEncoding} ifelse
  exch dup 3 1 roll findfont dup length dict begin
  { 1 index /FID ne {def}{pop pop} ifelse } forall
  /Encoding exch def currentdict end definefont pop} bdef
/isroman {findfont /CharStrings get /Agrave known} bdef
/FMSR {3 1 roll 1 index dup isroman {reencode} {pop pop} ifelse
  exch FMS} bdef
/csm {1 dpi2point div -1 dpi2point div scale neg translate
 dup landscapeMode eq {pop -90 rotate}
  {rotateMode eq {90 rotate} if} ifelse} bdef
% line types: solid, dotted, dashed, dotdash
/SO { [] 0 setdash } bdef
/DO { [.5 dpi2point mul 4 dpi2point mul] 0 setdash } bdef
/DA { [6 dpi2point mul] 0 setdash } bdef
/DD { [.5 dpi2point mul 4 dpi2point mul 6 dpi2point mul 4
  dpi2point mul] 0 setdash } bdef
% macros for lines and objects
/L {lineto stroke} bdef
/MP {3 1 roll moveto 1 sub {rlineto} repeat} bdef
/AP {{rlineto} repeat} bdef
/PDlw -1 def
/W {/PDlw currentlinewidth def setlinewidth} def
/PP {closepath eofill} bdef
/DP {closepath stroke} bdef
/MR {4 -2 roll moveto dup  0 exch rlineto exch 0 rlineto
  neg 0 exch rlineto closepath} bdef
/FR {MR stroke} bdef
/PR {MR fill} bdef
/L1i {{currentfile picstr readhexstring pop} image} bdef
/tMatrix matrix def
/MakeOval {newpath tMatrix currentmatrix pop translate scale
0 0 1 0 360 arc tMatrix setmatrix} bdef
/FO {MakeOval stroke} bdef
/PO {MakeOval fill} bdef
/PD {currentlinewidth 2 div 0 360 arc fill
   PDlw -1 eq not {PDlw w /PDlw -1 def} if} def
/FA {newpath tMatrix currentmatrix pop translate scale
  0 0 1 5 -2 roll arc tMatrix setmatrix stroke} bdef
/PA {newpath tMatrix currentmatrix pop	translate 0 0 moveto scale
  0 0 1 5 -2 roll arc closepath tMatrix setmatrix fill} bdef
/FAn {newpath tMatrix currentmatrix pop translate scale
  0 0 1 5 -2 roll arcn tMatrix setmatrix stroke} bdef
/PAn {newpath tMatrix currentmatrix pop translate 0 0 moveto scale
  0 0 1 5 -2 roll arcn closepath tMatrix setmatrix fill} bdef
/vradius 0 def /hradius 0 def /lry 0 def
/lrx 0 def /uly 0 def /ulx 0 def /rad 0 def
/MRR {/vradius xdef /hradius xdef /lry xdef /lrx xdef /uly xdef
  /ulx xdef newpath tMatrix currentmatrix pop ulx hradius add uly
  vradius add translate hradius vradius scale 0 0 1 180 270 arc 
  tMatrix setmatrix lrx hradius sub uly vradius add translate
  hradius vradius scale 0 0 1 270 360 arc tMatrix setmatrix
  lrx hradius sub lry vradius sub translate hradius vradius scale
  0 0 1 0 90 arc tMatrix setmatrix ulx hradius add lry vradius sub
  translate hradius vradius scale 0 0 1 90 180 arc tMatrix setmatrix
  closepath} bdef
/FRR {MRR stroke } bdef
/PRR {MRR fill } bdef
/MlrRR {/lry xdef /lrx xdef /uly xdef /ulx xdef /rad lry uly sub 2 div def
  newpath tMatrix currentmatrix pop ulx rad add uly rad add translate
  rad rad scale 0 0 1 90 270 arc tMatrix setmatrix lrx rad sub lry rad
  sub translate rad rad scale 0 0 1 270 90 arc tMatrix setmatrix
  closepath} bdef
/FlrRR {MlrRR stroke } bdef
/PlrRR {MlrRR fill } bdef
/MtbRR {/lry xdef /lrx xdef /uly xdef /ulx xdef /rad lrx ulx sub 2 div def
  newpath tMatrix currentmatrix pop ulx rad add uly rad add translate
  rad rad scale 0 0 1 180 360 arc tMatrix setmatrix lrx rad sub lry rad
  sub translate rad rad scale 0 0 1 0 180 arc tMatrix setmatrix
  closepath} bdef
/FtbRR {MtbRR stroke } bdef
/PtbRR {MtbRR fill } bdef
/stri 6 array def /dtri 6 array def
/smat 6 array def /dmat 6 array def
/tmat1 6 array def /tmat2 6 array def /dif 3 array def
/asub {/ind2 exch def /ind1 exch def dup dup
  ind1 get exch ind2 get sub exch } bdef
/tri_to_matrix {
  2 0 asub 3 1 asub 4 0 asub 5 1 asub
  dup 0 get exch 1 get 7 -1 roll astore } bdef
/compute_transform {
  dmat dtri tri_to_matrix tmat1 invertmatrix 
  smat stri tri_to_matrix tmat2 concatmatrix } bdef
/ds {stri astore pop} bdef
/dt {dtri astore pop} bdef
/db {2 copy /cols xdef /rows xdef mul dup 3 mul string
  currentfile 
  3 index 0 eq {/ASCIIHexDecode filter}
  {/ASCII85Decode filter 3 index 2 eq {/RunLengthDecode filter} if }
  ifelse exch readstring pop
  dup 0 3 index getinterval /rbmap xdef
  dup 2 index dup getinterval /gbmap xdef
  1 index dup 2 mul exch getinterval /bbmap xdef pop pop}bdef
/it {gs np dtri aload pop moveto lineto lineto cp c
  cols rows 8 compute_transform 
  rbmap gbmap bbmap true 3 colorimage gr}bdef
/il {newpath moveto lineto stroke}bdef
currentdict end def
%%EndProlog

%%BeginSetup
MathWorks begin

0 cap

end
%%EndSetup

%%Page: 1 1
%%BeginPageSetup
%%PageBoundingBox:  -214   167   811   675
MathWorks begin
bpage
%%EndPageSetup

%%BeginObject: obj1
bplot

/dpi2point 12 def
portraitMode -2568 8100 csm

    0     0 12304  6096 rc
89 dict begin %Colortable dictionary
/c0 { 0.000000 0.000000 0.000000 sr} bdef
/c1 { 1.000000 1.000000 1.000000 sr} bdef
/c2 { 0.900000 0.000000 0.000000 sr} bdef
/c3 { 0.000000 0.820000 0.000000 sr} bdef
/c4 { 0.000000 0.000000 0.800000 sr} bdef
/c5 { 0.910000 0.820000 0.320000 sr} bdef
/c6 { 1.000000 0.260000 0.820000 sr} bdef
/c7 { 0.000000 0.820000 0.820000 sr} bdef
c0
1 j
1 sg
   0    0 12305 6097 rf
6 w
0 4968 9535 0 0 -4968 1600 5425 4 MP
PP
-9535 0 0 4968 9535 0 0 -4968 1600 5425 5 MP stroke
4 w
DO
SO
6 w
0 sg
1600  457 mt 11135  457 L
1600 5425 mt 11135 5425 L
11135 5425 mt 11135  457 L
1600 5425 mt 1600  457 L
1600 5425 mt 11135 5425 L
1600 5425 mt 1600  457 L
1600 5425 mt 1600 5329 L
1600  457 mt 1600  552 L
%%IncludeResource: font Helvetica
/Helvetica /WindowsLatin1Encoding 168 FMSR

1554 5615 mt 
(0) s
2553 5425 mt 2553 5329 L
2553  457 mt 2553  552 L
2437 5615 mt 
(0.5) s
3507 5425 mt 3507 5329 L
3507  457 mt 3507  552 L
3461 5615 mt 
(1) s
4460 5425 mt 4460 5329 L
4460  457 mt 4460  552 L
4344 5615 mt 
(1.5) s
5414 5425 mt 5414 5329 L
5414  457 mt 5414  552 L
5368 5615 mt 
(2) s
6367 5425 mt 6367 5329 L
6367  457 mt 6367  552 L
6251 5615 mt 
(2.5) s
7321 5425 mt 7321 5329 L
7321  457 mt 7321  552 L
7275 5615 mt 
(3) s
8274 5425 mt 8274 5329 L
8274  457 mt 8274  552 L
8158 5615 mt 
(3.5) s
9228 5425 mt 9228 5329 L
9228  457 mt 9228  552 L
9182 5615 mt 
(4) s
10181 5425 mt 10181 5329 L
10181  457 mt 10181  552 L
10065 5615 mt 
(4.5) s
11135 5425 mt 11135 5329 L
11135  457 mt 11135  552 L
11089 5615 mt 
(5) s
1600 5425 mt 1695 5425 L
11135 5425 mt 11039 5425 L
1047 5487 mt 
(-0.025) s
1600 4873 mt 1695 4873 L
11135 4873 mt 11039 4873 L
1140 4935 mt 
(-0.02) s
1600 4321 mt 1695 4321 L
11135 4321 mt 11039 4321 L
1047 4383 mt 
(-0.015) s
1600 3769 mt 1695 3769 L
11135 3769 mt 11039 3769 L
1140 3831 mt 
(-0.01) s
1600 3217 mt 1695 3217 L
11135 3217 mt 11039 3217 L
1047 3279 mt 
(-0.005) s
1600 2665 mt 1695 2665 L
11135 2665 mt 11039 2665 L
1472 2727 mt 
(0) s
1600 2113 mt 1695 2113 L
11135 2113 mt 11039 2113 L
1145 2175 mt 
(0.005) s
1600 1560 mt 1695 1560 L
11135 1560 mt 11039 1560 L
1239 1622 mt 
(0.01) s
1600 1009 mt 1695 1009 L
11135 1009 mt 11039 1009 L
1145 1071 mt 
(0.015) s
1600  457 mt 1695  457 L
11135  457 mt 11039  457 L
1239  519 mt 
(0.02) s
1600  457 mt 11135  457 L
1600 5425 mt 11135 5425 L
11135 5425 mt 11135  457 L
1600 5425 mt 1600  457 L
gs 1600 457 9536 4969 rc
/c8 { 1.000000 0.000000 1.000000 sr} bdef
c8
4 17 4 17 4 18 4 19 4 18 3 19 4 20 4 19 
4 20 4 21 3 21 4 21 4 21 4 22 4 22 4 23 
3 23 4 24 4 23 4 25 4 24 3 25 4 26 4 25 
4 27 4 26 3 27 4 28 4 27 4 29 4 28 4 29 
3 30 4 29 4 31 4 30 4 31 3 32 4 31 4 32 
4 33 4 33 4 33 3 34 4 34 4 34 4 35 4 35 
3 36 4 36 4 36 4 36 4 37 3 37 4 37 4 38 
4 37 4 38 4 39 3 38 4 38 4 39 4 39 4 38 
3 39 4 39 4 39 4 39 4 38 3 39 4 38 4 38 
4 38 4 37 4 37 3 37 4 36 4 35 4 35 4 34 
3 33 4 33 4 31 4 30 4 30 4 28 3 27 4 25 
4 24 4 23 4 21 3 20 4 17 4 16 4 14 4 13 
3 10 4 8 4 7 4 4 4 2 4 1 3 -2 4 -4 
4 -6 4 -8 4 -10 3 -12 4 -14 4 -16 4 -17 4 -19 
3 -21 4 -22 4 -24 4 -26 4 -26 4 -28 3 -30 4 -30 
4 -31 4 -33 4 -33 3 -34 4 -34 4 -36 4 -36 4 -36 
4 -37 3 -37 4 -38 4 -37 4 -38 4 -38 3 -39 4 -38 
4 -38 4 -39 4 -38 3 -38 4 -38 4 -38 4 -37 4 -38 
4 -37 3 -36 4 -37 4 -36 4 -36 4 -35 3 -35 4 -35 
4 -34 4 -34 4 -34 3 -33 4 -32 4 -32 4 -32 4 -31 
4 -31 3 -30 4 -29 4 -30 4 -28 4 -28 3 -28 4 -27 
4 -26 4 -26 4 -26 4 -25 3 -24 4 -24 4 -24 4 -23 
4 -22 3 -22 4 -21 4 -21 4 -20 4 -20 3 -19 4 -18 
4 -19 4 -17 4 -17 4 -17 3 -16 4 -16 4 -15 4 -14 
4 -14 3 -14 4 -13 4 -12 4 -12 4 -12 3 -11 4 -11 
4 -10 4 -10 4 -9 4 -9 3 -8 4 -8 4 -7 4 -7 
4 -6 3 -6 4 -6 4 -5 4 -5 4 -4 4 -4 3 -3 
4 -3 4 -3 4 -2 4 -1 3 -2 4 -1 4 0 4 0 
4 0 3 1 4 1 4 1 4 2 4 2 4 2 3 3 
4 3 4 4 4 4 4 4 3 5 4 5 4 5 4 5 
4 6 3 6 4 7 4 7 4 7 4 7 4 8 3 7 
4 9 4 8 4 9 4 9 3 9 4 9 4 10 4 10 
4 10 4 11 3 10 4 11 4 11 4 11 4 12 3 11 
4 12 4 12 4 12 4 12 3 12 4 13 4 13 4 12 
4 13 4 13 3 13 4 14 4 13 4 13 4 14 3 13 
4 14 4 13 4 14 4 14 3 13 4 14 4 14 4 13 
4 14 4 14 3 13 4 14 4 13 4 14 4 13 3 14 
4 13 4 13 4 13 9994 3491 300 MP stroke
4 13 4 13 3 13 4 12 4 12 4 13 4 12 3 12 
4 11 4 12 4 11 4 11 3 11 4 10 4 11 4 10 
4 9 4 10 3 9 4 9 4 9 4 8 4 8 3 8 
4 7 4 7 4 7 4 6 3 6 4 6 4 5 4 5 
4 5 4 4 3 3 4 4 4 3 4 2 4 2 3 2 
4 1 4 1 4 1 4 0 4 -1 3 -1 4 -1 4 -2 
4 -2 4 -2 3 -3 4 -4 4 -3 4 -5 4 -4 3 -5 
4 -6 4 -5 4 -7 4 -6 4 -7 3 -8 4 -8 4 -8 
4 -8 4 -9 3 -10 4 -9 4 -10 4 -11 4 -11 3 -11 
4 -11 4 -12 4 -12 4 -12 4 -13 3 -12 4 -14 4 -13 
4 -14 4 -14 3 -14 4 -14 4 -15 4 -15 4 -15 4 -15 
3 -16 4 -16 4 -15 4 -17 4 -16 3 -16 4 -17 4 -16 
4 -17 4 -17 3 -17 4 -17 4 -18 4 -17 4 -17 4 -18 
3 -17 4 -18 4 -18 4 -17 4 -18 3 -18 4 -18 4 -18 
4 -17 4 -18 3 -18 4 -18 4 -18 4 -18 4 -17 4 -18 
3 -18 4 -17 4 -18 4 -18 4 -17 3 -17 4 -18 4 -17 
4 -17 4 -17 4 -17 3 -17 4 -16 4 -17 4 -16 4 -17 
3 -16 4 -16 4 -16 4 -16 4 -15 3 -16 4 -15 4 -15 
4 -15 4 -15 4 -14 3 -15 4 -14 4 -14 4 -14 4 -13 
3 -14 4 -13 4 -13 4 -12 4 -13 3 -12 4 -12 4 -12 
4 -12 4 -11 4 -11 3 -11 4 -10 4 -11 4 -10 4 -10 
3 -9 4 -9 4 -9 4 -9 4 -8 4 -8 3 -8 4 -8 
4 -7 4 -7 4 -6 3 -6 4 -6 4 -6 4 -5 4 -5 
3 -5 4 -4 4 -4 4 -4 4 -3 4 -3 3 -3 4 -2 
4 -2 4 -1 4 -1 3 -1 4 -1 4 0 4 1 4 1 
3 1 4 1 4 2 4 2 4 3 4 3 3 4 4 4 
4 4 4 5 4 5 3 6 4 6 4 7 4 7 4 7 
4 8 3 8 4 9 4 9 4 10 4 10 3 11 4 11 
4 11 4 13 4 12 3 13 4 14 4 14 4 15 4 15 
4 15 3 16 4 17 4 17 4 18 4 18 3 19 4 20 
4 20 4 20 4 21 4 22 3 22 4 23 4 23 4 24 
4 25 3 25 4 26 4 26 4 27 4 28 3 28 4 29 
4 29 4 31 4 30 4 32 3 32 4 33 4 33 4 35 
4 34 3 36 4 36 4 37 4 38 4 38 3 39 4 40 
4 40 4 41 4 42 4 43 3 43 4 45 4 44 4 46 
4 46 3 47 4 48 4 49 4 49 4 50 4 51 3 51 
4 53 4 53 4 53 4 54 3 55 4 56 4 56 4 57 
4 58 3 58 4 58 8854 2260 300 MP stroke
4 59 4 60 4 59 4 61 3 60 4 61 4 60 4 61 
4 61 3 60 4 61 4 59 4 60 4 58 3 58 4 56 
4 55 4 54 4 52 4 50 3 48 4 45 4 42 4 40 
4 36 3 32 4 29 4 24 4 21 4 16 4 11 3 6 
4 2 4 -3 4 -9 4 -12 3 -18 4 -22 4 -27 4 -30 
4 -35 3 -38 4 -42 4 -45 4 -47 4 -51 4 -52 3 -55 
4 -57 4 -58 4 -59 4 -61 3 -61 4 -63 4 -62 4 -64 
4 -63 3 -64 4 -64 4 -64 4 -64 4 -63 4 -64 3 -63 
4 -62 4 -62 4 -62 4 -60 3 -61 4 -59 4 -60 4 -58 
4 -58 4 -56 3 -57 4 -55 4 -55 4 -54 4 -53 3 -52 
4 -52 4 -51 4 -50 4 -49 3 -49 4 -47 4 -47 4 -46 
4 -46 4 -44 3 -44 4 -43 4 -42 4 -42 4 -41 3 -40 
4 -39 4 -39 4 -37 4 -37 3 -37 4 -36 4 -35 4 -34 
4 -33 4 -33 3 -33 4 -31 4 -31 4 -30 4 -30 3 -29 
4 -28 4 -28 4 -27 4 -27 4 -25 3 -26 4 -24 4 -24 
4 -24 4 -23 3 -22 4 -22 4 -21 4 -21 4 -20 3 -19 
4 -19 4 -19 4 -17 4 -18 4 -17 3 -16 4 -16 4 -15 
4 -15 4 -14 3 -14 4 -14 4 -13 4 -12 4 -12 3 -11 
4 -11 4 -11 4 -10 4 -10 4 -9 3 -9 4 -8 4 -8 
4 -8 4 -7 3 -7 4 -6 4 -6 4 -5 4 -5 4 -5 
3 -5 4 -3 4 -4 4 -3 4 -3 3 -3 4 -2 4 -1 
4 -2 4 -1 3 -1 4 0 4 0 4 0 4 1 4 1 
3 1 4 2 4 2 4 2 4 3 3 2 4 4 4 3 
4 4 4 4 3 4 4 5 4 5 4 5 4 5 4 6 
3 6 4 6 4 6 4 7 4 7 3 7 4 8 4 7 
4 8 4 9 4 8 3 9 4 8 4 9 4 10 4 9 
3 10 4 10 4 10 4 10 4 11 3 10 4 11 4 11 
4 11 4 12 4 11 3 12 4 12 4 12 4 12 4 13 
3 12 4 13 4 13 4 13 4 13 3 13 4 13 4 14 
4 13 4 14 4 14 3 14 4 14 4 14 4 15 4 14 
3 14 4 15 4 15 4 14 4 15 4 15 3 15 4 15 
4 15 4 16 4 15 3 15 4 16 4 15 4 15 4 16 
3 15 4 16 4 16 4 15 4 16 4 16 3 15 4 16 
4 16 4 15 4 16 3 16 4 15 4 16 4 16 4 15 
3 16 4 16 4 15 4 16 4 15 4 15 3 16 4 15 
4 15 4 16 4 15 3 15 4 15 4 15 4 15 4 14 
4 15 3 15 4 14 4 14 4 15 4 14 3 14 4 14 
4 14 4 13 4 14 7713 3732 300 MP stroke
3 13 4 14 4 13 4 13 4 13 4 13 3 12 4 13 
4 12 4 12 4 12 3 12 4 11 4 12 4 11 4 11 
3 11 4 11 4 10 4 10 4 11 4 10 3 9 4 10 
4 9 4 9 4 9 3 9 4 9 4 8 4 8 4 8 
4 8 3 7 4 8 4 7 4 6 4 7 3 7 4 6 
4 6 4 6 4 5 3 6 4 5 4 5 4 4 4 5 
4 4 3 4 4 4 4 4 4 4 4 3 3 3 4 3 
4 3 4 2 4 3 3 2 4 2 4 2 4 2 4 1 
4 1 3 2 4 1 4 1 4 0 4 1 3 0 4 1 
4 0 4 0 4 0 4 0 3 -1 4 0 4 0 4 -1 
4 -1 3 0 4 -1 4 -1 4 -1 4 -1 3 -2 4 -1 
4 -1 4 -1 4 -2 4 -1 3 -1 4 -2 4 -1 4 -2 
4 -1 3 -2 4 -1 4 -2 4 -1 4 -2 3 -1 4 -1 
4 -2 4 -1 4 -1 4 -2 3 -1 4 -1 4 -1 4 -1 
4 -1 3 -1 4 0 4 -1 4 0 4 -1 4 0 3 -1 
4 0 4 0 4 0 4 1 3 0 4 1 4 0 4 1 
4 1 3 1 4 1 4 2 4 1 4 2 4 2 3 2 
4 2 4 2 4 3 4 3 3 3 4 3 4 3 4 4 
4 3 4 4 3 4 4 5 4 4 4 5 4 5 3 5 
4 5 4 6 4 6 4 6 3 6 4 7 4 6 4 7 
4 8 4 7 3 8 4 7 4 8 4 9 4 8 3 9 
4 9 4 9 4 10 4 9 3 10 4 10 4 10 4 11 
4 11 4 11 3 11 4 11 4 12 4 12 4 12 3 12 
4 12 4 13 4 12 4 13 4 14 3 13 4 13 4 14 
4 14 4 14 3 14 4 14 4 14 4 15 4 14 3 15 
4 15 4 15 4 15 4 15 4 15 3 15 4 15 4 16 
4 15 4 15 3 16 4 15 4 15 4 16 4 15 3 15 
4 15 4 15 4 15 4 15 4 15 3 14 4 14 4 15 
4 14 4 13 3 14 4 13 4 14 4 12 4 13 4 12 
3 12 4 12 4 11 4 11 4 10 3 11 4 9 4 10 
4 9 4 8 3 8 4 7 4 7 4 7 4 6 4 5 
3 5 4 5 4 4 4 3 4 3 3 2 4 2 4 1 
4 0 4 0 3 0 4 -1 4 -2 4 -2 4 -3 4 -3 
3 -4 4 -5 4 -5 4 -5 4 -6 3 -7 4 -7 4 -7 
4 -8 4 -9 4 -9 3 -9 4 -10 4 -10 4 -10 4 -11 
3 -12 4 -11 4 -12 4 -12 4 -13 3 -13 4 -13 4 -13 
4 -14 4 -14 4 -14 3 -14 4 -15 4 -15 4 -14 4 -15 
3 -15 4 -16 4 -15 6573 2465 300 MP stroke
4 -15 4 -16 3 -15 4 -16 4 -16 4 -16 4 -15 4 -16 
3 -16 4 -16 4 -16 4 -16 4 -15 3 -16 4 -16 4 -16 
4 -15 4 -16 4 -15 3 -16 4 -15 4 -16 4 -15 4 -15 
3 -15 4 -15 4 -15 4 -15 4 -15 3 -14 4 -15 4 -14 
4 -14 4 -15 4 -14 3 -13 4 -14 4 -14 4 -13 4 -14 
3 -13 4 -13 4 -13 4 -13 4 -13 3 -13 4 -12 4 -13 
4 -12 4 -12 4 -12 3 -12 4 -11 4 -12 4 -11 4 -12 
3 -11 4 -11 4 -11 4 -11 4 -10 4 -11 3 -10 4 -11 
4 -10 4 -10 4 -10 3 -9 4 -10 4 -10 4 -9 4 -9 
3 -10 4 -9 4 -9 4 -9 4 -8 4 -9 3 -9 4 -8 
4 -8 4 -9 4 -8 3 -8 4 -8 4 -7 4 -8 4 -8 
3 -7 4 -8 4 -7 4 -7 4 -8 4 -7 3 -7 4 -7 
4 -6 4 -7 4 -7 3 -7 4 -6 4 -7 4 -6 4 -6 
4 -6 3 -7 4 -6 4 -6 4 -6 4 -6 3 -6 4 -5 
4 -6 4 -6 4 -5 3 -6 4 -6 4 -5 4 -5 4 -6 
4 -5 3 -5 4 -6 4 -5 4 -5 4 -5 3 -5 4 -5 
4 -5 4 -5 4 -5 3 -5 4 -4 4 -5 4 -5 4 -5 
4 -4 3 -5 4 -4 4 -5 4 -5 4 -4 3 -5 4 -4 
4 -4 4 -5 4 -4 4 -4 3 -5 4 -4 4 -4 4 -4 
4 -5 3 -4 4 -4 4 -4 4 -4 4 -4 3 -4 4 -4 
4 -4 4 -4 4 -4 4 -4 3 -4 4 -4 4 -3 4 -4 
4 -4 3 -4 4 -3 4 -4 4 -4 4 -3 3 -4 4 -4 
4 -3 4 -4 4 -3 4 -4 3 -3 4 -3 4 -4 4 -3 
4 -3 3 -4 4 -3 4 -3 4 -3 4 -3 4 -3 3 -3 
4 -3 4 -3 4 -3 4 -3 3 -3 4 -3 4 -3 4 -2 
4 -3 3 -3 4 -2 4 -3 4 -2 4 -3 4 -2 3 -2 
4 -2 4 -3 4 -2 4 -2 3 -2 4 -2 4 -2 4 -1 
4 -2 3 -2 4 -2 4 -1 4 -2 4 -1 4 -1 3 -2 
4 -1 4 -1 4 -1 4 -1 3 -1 4 0 4 -1 4 -1 
4 0 4 0 3 -1 4 0 4 0 4 0 4 0 3 0 
4 0 4 1 4 0 4 1 3 1 4 1 4 1 4 1 
4 1 4 1 3 2 4 1 4 2 4 2 4 1 3 3 
4 2 4 2 4 3 4 2 3 3 4 3 4 3 4 3 
4 3 4 4 3 3 4 4 4 4 4 4 4 4 3 5 
4 4 4 5 4 5 4 5 4 6 3 5 4 6 4 5 
4 6 4 7 3 6 4 6 4 7 4 7 4 7 3 7 
4 8 4 8 4 7 4 9 4 8 3 8 4 9 4 9 
4 9 4 10 3 9 5433 3884 300 MP stroke
4 10 4 10 4 10 4 11 3 10 4 11 4 11 4 12 
4 11 4 12 3 12 4 13 4 12 4 13 4 13 3 13 
4 14 4 14 4 14 4 14 4 15 3 15 4 15 4 15 
4 16 4 16 3 16 4 16 4 17 4 17 4 17 3 17 
4 18 4 18 4 18 4 19 4 19 3 19 4 19 4 20 
4 20 4 20 3 20 4 21 4 21 4 21 4 21 4 22 
3 22 4 22 4 22 4 23 4 23 3 23 4 23 4 24 
4 24 4 24 3 24 4 24 4 24 4 25 4 25 4 25 
3 25 4 25 4 25 4 26 4 25 3 25 4 26 4 25 
4 26 4 25 3 25 4 25 4 25 4 25 4 25 4 24 
3 24 4 24 4 23 4 23 4 23 3 22 4 21 4 21 
4 21 4 19 4 19 3 18 4 17 4 17 4 15 4 14 
3 14 4 12 4 11 4 10 4 9 3 8 4 6 4 6 
4 4 4 2 4 2 3 0 4 -1 4 -2 4 -3 4 -5 
3 -5 4 -7 4 -8 4 -9 4 -9 3 -11 4 -11 4 -12 
4 -13 4 -14 4 -14 3 -15 4 -15 4 -16 4 -16 4 -16 
3 -17 4 -17 4 -18 4 -17 4 -18 4 -18 3 -18 4 -18 
4 -18 4 -18 4 -18 3 -18 4 -18 4 -18 4 -18 4 -18 
3 -18 4 -17 4 -17 4 -18 4 -17 4 -16 3 -17 4 -16 
4 -17 4 -16 4 -16 3 -15 4 -15 4 -16 4 -15 4 -14 
3 -15 4 -14 4 -14 4 -14 4 -13 4 -13 3 -13 4 -13 
4 -13 4 -12 4 -12 3 -12 4 -11 4 -11 4 -12 4 -10 
4 -11 3 -10 4 -10 4 -10 4 -10 4 -9 3 -9 4 -9 
4 -9 4 -8 4 -9 3 -8 4 -8 4 -7 4 -7 4 -8 
4 -6 3 -7 4 -7 4 -6 4 -6 4 -6 3 -6 4 -5 
4 -5 4 -5 4 -5 3 -5 4 -4 4 -5 4 -4 4 -4 
4 -3 3 -4 4 -3 4 -3 4 -3 4 -3 3 -3 4 -2 
4 -2 4 -2 4 -2 4 -2 3 -2 4 -1 4 -1 4 -2 
4 0 3 -1 4 -1 4 0 4 -1 4 0 3 0 4 0 
4 0 4 1 4 0 4 1 3 1 4 1 4 1 4 1 
4 1 3 1 4 2 4 2 4 2 4 1 3 2 4 3 
4 2 4 2 4 3 4 2 3 3 4 3 4 3 4 3 
4 3 3 3 4 3 4 3 4 4 4 3 4 4 3 3 
4 4 4 4 4 4 4 4 3 4 4 4 4 4 4 4 
4 5 3 4 4 4 4 5 4 4 4 5 4 4 3 5 
4 5 4 4 4 5 4 5 3 4 4 5 4 5 4 5 
4 5 3 5 4 4 4 5 4 5 4 5 4 5 3 5 
4 5 4 4 4 5 4292 2944 300 MP stroke
4 5 3 5 4 5 4 4 4 5 4 5 4 5 3 4 
4 5 4 4 4 5 4 4 3 5 4 4 4 4 4 4 
4 5 3 4 4 4 4 4 4 3 4 4 4 4 3 3 
4 4 4 3 4 4 4 3 3 3 4 3 4 3 4 3 
4 3 3 2 4 3 4 2 4 3 4 2 4 2 3 2 
4 2 4 1 4 2 4 1 3 2 4 1 4 1 4 1 
4 1 4 1 3 0 4 1 4 0 4 0 4 0 3 0 
4 0 4 0 4 -1 4 0 3 -1 4 -1 4 -1 4 -1 
4 -1 4 -1 3 -1 4 -2 4 -1 4 -2 4 -2 3 -2 
4 -2 4 -2 4 -2 4 -2 3 -3 4 -2 4 -3 4 -2 
4 -3 4 -3 3 -3 4 -3 4 -3 4 -3 4 -3 3 -3 
4 -4 4 -3 4 -4 4 -3 4 -4 3 -3 4 -4 4 -3 
4 -4 4 -4 3 -4 4 -4 4 -4 4 -3 4 -4 3 -4 
4 -4 4 -4 4 -4 4 -5 4 -4 3 -4 4 -4 4 -4 
4 -4 4 -4 3 -4 4 -4 4 -5 4 -4 4 -4 3 -4 
4 -4 4 -4 4 -4 4 -5 4 -4 3 -4 4 -4 4 -4 
4 -4 4 -4 3 -4 4 -4 4 -4 4 -4 4 -4 4 -3 
3 -4 4 -4 4 -4 4 -4 4 -3 3 -4 4 -4 4 -3 
4 -4 4 -3 3 -4 4 -3 4 -4 4 -3 4 -3 4 -4 
3 -3 4 -3 4 -3 4 -3 4 -3 3 -3 4 -3 4 -3 
4 -3 4 -3 3 -3 4 -2 4 -3 4 -3 4 -2 4 -3 
3 -2 4 -2 4 -3 4 -2 4 -2 3 -2 4 -2 4 -2 
4 -2 4 -2 4 -2 3 -2 4 -2 4 -1 4 -2 4 -1 
3 -2 4 -1 4 -2 4 -1 4 -1 3 -1 4 -1 4 -1 
4 -1 4 -1 4 -1 3 0 4 -1 4 -1 4 0 4 0 
3 -1 4 0 4 0 4 0 4 0 3 0 4 0 4 0 
4 0 4 1 4 0 3 0 4 1 4 1 4 0 4 1 
3 1 4 1 4 1 4 1 4 2 4 1 3 1 4 2 
4 1 4 2 4 2 3 1 4 2 4 2 4 2 4 3 
3 2 4 2 4 3 4 2 4 3 4 2 3 3 4 3 
4 3 4 3 4 3 3 4 4 3 4 3 4 4 4 4 
4 3 3 4 4 4 4 4 4 4 4 4 3 5 4 4 
4 4 4 5 4 5 3 5 4 4 4 5 4 6 4 5 
4 5 3 5 4 6 4 6 4 5 4 6 3 6 4 6 
4 6 4 6 4 7 3 6 4 6 4 7 4 7 4 7 
4 7 3 7 4 7 4 7 4 7 4 8 3 7 4 8 
4 7 4 8 4 8 4 8 3 8 4 8 4 8 4 9 
4 8 3 8 4 9 3152 2789 300 MP stroke
4 8 4 9 4 9 3 8 4 9 4 9 4 9 4 9 
4 8 3 9 4 9 4 9 4 8 4 9 3 9 4 8 
4 9 4 8 4 8 3 8 4 8 4 7 4 8 4 7 
4 7 3 6 4 6 4 6 4 5 4 5 3 5 4 4 
4 3 4 3 4 3 4 2 3 1 4 2 4 0 4 0 
4 0 3 -1 4 -1 4 -1 4 -2 4 -2 3 -3 4 -2 
4 -3 4 -3 4 -3 4 -4 3 -3 4 -3 4 -4 4 -3 
4 -3 3 -4 4 -3 4 -4 4 -3 4 -3 3 -4 4 -3 
4 -3 4 -3 4 -3 4 -3 3 -3 4 -3 4 -3 4 -2 
4 -3 3 -3 4 -2 4 -3 4 -2 4 -3 4 -2 3 -2 
4 -2 4 -2 4 -3 4 -2 3 -2 4 -2 4 -1 4 -2 
4 -2 3 -2 4 -2 4 -1 4 -2 4 -2 4 -1 3 -2 
4 -1 4 -2 4 -1 4 -2 3 -1 4 -1 4 -2 4 -1 
4 -1 3 -1 4 -2 4 -1 4 -1 4 -1 4 -1 3 -1 
4 -1 4 -1 4 -1 4 -1 3 -1 4 -1 4 -1 4 -1 
4 0 4 -1 3 -1 4 -1 4 -1 4 0 4 -1 3 -1 
4 -1 4 0 4 -1 4 0 3 -1 4 -1 4 0 4 -1 
4 0 4 -1 3 0 4 -1 4 0 4 -1 4 0 3 -1 
4 0 4 -1 4 0 4 0 3 -1 4 0 4 0 4 -1 
4 0 4 0 3 -1 4 0 4 0 4 0 4 -1 3 0 
4 0 4 0 4 0 4 0 4 -1 3 0 4 0 4 0 
4 0 4 0 3 0 4 0 4 -1 4 0 4 0 3 0 
4 0 4 0 4 0 4 0 4 0 3 0 4 0 4 0 
4 0 4 0 3 0 4 0 4 1 4 0 4 0 3 0 
4 0 4 0 4 0 4 0 4 0 3 1 4 0 4 0 
4 0 4 0 3 0 4 1 4 0 4 0 4 0 4 0 
3 1 4 0 4 0 4 0 4 0 3 1 4 0 4 0 
4 0 4 1 3 0 4 0 4 0 4 1 4 0 4 0 
3 1 4 0 4 0 4 1 4 0 3 0 4 0 4 1 
4 0 4 0 3 1 4 0 4 0 4 1 4 0 4 0 
3 1 4 0 4 1 4 0 4 0 3 1 4 0 4 0 
4 1 4 0 4 0 3 1 4 0 4 1 4 0 4 0 
3 1 4 0 4 0 4 1 4 0 3 1 4 0 4 0 
4 1 4 0 4 1 3 0 4 0 4 1 4 0 4 1 
3 0 4 0 4 1 4 0 4 0 3 1 4 0 4 1 
4 0 4 0 4 1 3 0 4 1 4 0 4 0 4 1 
3 0 4 0 4 1 4 0 4 1 4 0 3 0 4 1 
4 0 4 0 4 1 2011 2682 300 MP stroke
3 0 4 1 4 0 4 0 4 1 3 0 4 0 4 1 
4 0 4 0 4 1 3 0 4 0 4 1 4 0 4 0 
3 1 4 0 4 0 4 1 4 0 3 0 4 0 4 1 
4 0 4 0 4 1 3 0 4 0 4 0 4 1 4 0 
3 0 4 0 4 1 4 0 4 0 4 0 3 1 4 0 
4 0 4 0 4 0 3 1 4 0 4 0 4 0 4 0 
3 1 4 0 4 0 4 0 4 0 4 0 3 1 4 0 
4 0 4 0 4 0 3 0 4 0 4 1 4 0 4 0 
3 0 4 0 4 0 4 0 4 0 4 0 3 0 4 1 
4 0 4 0 4 0 3 0 4 0 4 0 4 0 4 0 
4 0 3 0 4 0 4 0 4 0 4 0 3 0 4 0 
4 0 4 0 4 0 3 0 4 0 4 0 4 0 4 0 
4 0 3 0 4 0 4 0 4 0 4 0 3 0 4 0 
4 0 4 0 4 0 3 0 1600 2665 109 MP stroke
/c9 { 1.000000 1.000000 0.000000 sr} bdef
c9
4 9 4 9 4 8 4 9 4 10 3 9 4 10 4 9 
4 10 4 11 3 10 4 10 4 11 4 11 4 11 4 12 
3 11 4 12 4 12 4 12 4 13 3 13 4 12 4 14 
4 13 4 13 3 14 4 14 4 14 4 15 4 14 4 15 
3 15 4 16 4 15 4 16 4 16 3 16 4 16 4 17 
4 17 4 17 4 17 3 18 4 17 4 18 4 18 4 19 
3 18 4 19 4 19 4 19 4 19 3 19 4 20 4 20 
4 20 4 20 4 20 3 20 4 20 4 21 4 20 4 21 
3 20 4 21 4 21 4 20 4 21 3 21 4 20 4 21 
4 20 4 20 4 20 3 20 4 19 4 19 4 19 4 19 
3 18 4 18 4 17 4 17 4 16 4 15 3 15 4 14 
4 14 4 12 4 12 3 11 4 10 4 10 4 8 4 7 
3 6 4 5 4 4 4 3 4 2 4 1 3 0 4 -2 
4 -2 4 -4 4 -5 3 -6 4 -6 4 -8 4 -9 4 -9 
3 -11 4 -11 4 -12 4 -13 4 -14 4 -14 3 -15 4 -15 
4 -16 4 -17 4 -17 3 -17 4 -18 4 -17 4 -19 4 -18 
4 -19 3 -19 4 -19 4 -19 4 -19 4 -20 3 -19 4 -19 
4 -20 4 -19 4 -19 3 -19 4 -20 4 -19 4 -18 4 -19 
4 -19 3 -18 4 -19 4 -18 4 -18 4 -18 3 -17 4 -18 
4 -17 4 -17 4 -16 3 -17 4 -16 4 -16 4 -16 4 -16 
4 -15 3 -15 4 -15 4 -14 4 -15 4 -14 3 -13 4 -14 
4 -13 4 -13 4 -13 4 -13 3 -12 4 -12 4 -12 4 -11 
4 -11 3 -11 4 -11 4 -10 4 -10 4 -10 3 -10 4 -10 
4 -9 4 -9 4 -8 4 -9 3 -8 4 -8 4 -7 4 -8 
4 -7 3 -7 4 -7 4 -6 4 -6 4 -6 3 -6 4 -6 
4 -5 4 -5 4 -5 4 -5 3 -4 4 -4 4 -4 4 -4 
4 -3 3 -4 4 -3 4 -3 4 -2 4 -3 4 -2 3 -2 
4 -2 4 -2 4 -1 4 -1 3 -1 4 -1 4 -1 4 0 
4 -1 3 0 4 0 4 0 4 1 4 0 4 1 3 1 
4 1 4 1 4 2 4 2 3 1 4 2 4 2 4 3 
4 2 3 2 4 3 4 3 4 3 4 3 4 3 3 4 
4 3 4 4 4 4 4 4 3 4 4 4 4 4 4 4 
4 5 4 4 3 5 4 5 4 5 4 5 4 5 3 5 
4 6 4 5 4 5 4 6 3 6 4 5 4 6 4 6 
4 6 4 6 3 6 4 6 4 6 4 6 4 6 3 6 
4 7 4 6 4 6 4 7 3 6 4 6 4 7 4 6 
4 6 4 7 3 6 4 7 4 6 4 6 4 7 3 6 
4 6 4 6 4 7 9994 2967 300 MP stroke
4 6 4 6 3 6 4 6 4 6 4 6 4 6 3 5 
4 6 4 5 4 6 4 5 3 6 4 5 4 5 4 5 
4 5 4 4 3 5 4 4 4 5 4 4 4 4 3 4 
4 4 4 3 4 4 4 3 3 3 4 3 4 3 4 3 
4 2 4 2 3 3 4 2 4 1 4 2 4 1 3 1 
4 1 4 1 4 1 4 0 4 1 3 0 4 -1 4 0 
4 -1 4 0 3 -1 4 -1 4 -2 4 -1 4 -2 3 -2 
4 -2 4 -3 4 -2 4 -3 4 -3 3 -3 4 -3 4 -3 
4 -4 4 -4 3 -4 4 -4 4 -4 4 -5 4 -5 3 -4 
4 -5 4 -6 4 -5 4 -5 4 -6 3 -6 4 -5 4 -6 
4 -7 4 -6 3 -6 4 -7 4 -6 4 -7 4 -7 4 -7 
3 -7 4 -7 4 -7 4 -7 4 -8 3 -7 4 -8 4 -7 
4 -8 4 -8 3 -7 4 -8 4 -8 4 -8 4 -8 4 -8 
3 -8 4 -8 4 -9 4 -8 4 -8 3 -8 4 -8 4 -9 
4 -8 4 -8 3 -8 4 -9 4 -8 4 -8 4 -8 4 -9 
3 -8 4 -8 4 -8 4 -8 4 -9 3 -8 4 -8 4 -8 
4 -8 4 -8 4 -8 3 -8 4 -7 4 -8 4 -8 4 -7 
3 -8 4 -8 4 -7 4 -8 4 -7 3 -7 4 -7 4 -8 
4 -7 4 -7 4 -7 3 -6 4 -7 4 -7 4 -6 4 -7 
3 -6 4 -6 4 -7 4 -6 4 -6 3 -6 4 -5 4 -6 
4 -6 4 -5 4 -6 3 -5 4 -5 4 -5 4 -5 4 -5 
3 -4 4 -5 4 -4 4 -5 4 -4 4 -4 3 -4 4 -4 
4 -3 4 -4 4 -3 3 -3 4 -3 4 -3 4 -3 4 -3 
3 -2 4 -3 4 -2 4 -2 4 -2 4 -2 3 -1 4 -2 
4 -1 4 -1 4 -1 3 -1 4 -1 4 0 4 0 4 0 
3 0 4 0 4 0 4 1 4 1 4 0 3 2 4 1 
4 1 4 2 4 2 3 2 4 2 4 3 4 2 4 3 
4 3 3 3 4 4 4 4 4 3 4 4 3 5 4 4 
4 5 4 5 4 5 3 5 4 6 4 6 4 6 4 6 
4 6 3 7 4 7 4 7 4 8 4 7 3 8 4 9 
4 8 4 9 4 8 4 10 3 9 4 10 4 10 4 10 
4 10 3 11 4 11 4 11 4 12 4 12 3 12 4 12 
4 13 4 13 4 13 4 13 3 14 4 14 4 15 4 14 
4 15 3 16 4 15 4 16 4 16 4 17 3 17 4 17 
4 17 4 18 4 18 4 19 3 18 4 19 4 20 4 19 
4 21 3 20 4 21 4 21 4 21 4 22 4 22 3 22 
4 22 4 23 4 23 4 24 3 24 4 24 4 24 4 25 
4 25 3 25 4 25 8854 2486 300 MP stroke
4 26 4 25 4 26 4 26 3 26 4 26 4 27 4 26 
4 26 3 26 4 26 4 26 4 26 4 25 3 25 4 24 
4 24 4 23 4 23 4 21 3 21 4 20 4 18 4 18 
4 15 3 15 4 13 4 11 4 9 4 8 4 6 3 3 
4 2 4 0 4 -2 4 -4 3 -6 4 -7 4 -10 4 -11 
4 -13 3 -14 4 -15 4 -17 4 -18 4 -18 4 -20 3 -21 
4 -21 4 -22 4 -22 4 -23 3 -23 4 -23 4 -24 4 -24 
4 -24 3 -24 4 -24 4 -24 4 -24 4 -23 4 -24 3 -24 
4 -23 4 -23 4 -23 4 -23 3 -23 4 -22 4 -22 4 -22 
4 -21 4 -21 3 -21 4 -21 4 -20 4 -20 4 -20 3 -20 
4 -19 4 -19 4 -18 4 -19 3 -18 4 -17 4 -18 4 -17 
4 -17 4 -16 3 -17 4 -15 4 -16 4 -16 4 -15 3 -15 
4 -14 4 -14 4 -14 4 -14 3 -14 4 -13 4 -13 4 -13 
4 -12 4 -12 3 -12 4 -12 4 -11 4 -12 4 -11 3 -10 
4 -11 4 -10 4 -10 4 -10 4 -10 3 -9 4 -9 4 -9 
4 -9 4 -8 3 -9 4 -8 4 -8 4 -7 4 -8 3 -7 
4 -7 4 -7 4 -7 4 -6 4 -7 3 -6 4 -6 4 -6 
4 -5 4 -6 3 -5 4 -5 4 -5 4 -4 4 -5 3 -4 
4 -5 4 -4 4 -3 4 -4 4 -4 3 -3 4 -3 4 -3 
4 -3 4 -3 3 -3 4 -2 4 -3 4 -2 4 -2 4 -2 
3 -2 4 -1 4 -2 4 -1 4 -1 3 -1 4 -1 4 -1 
4 -1 4 -1 3 0 4 0 4 -1 4 0 4 0 4 0 
3 1 4 0 4 1 4 0 4 1 3 1 4 1 4 1 
4 1 4 1 3 1 4 2 4 1 4 2 4 2 4 1 
3 2 4 2 4 2 4 3 4 2 3 2 4 3 4 2 
4 3 4 3 4 3 3 2 4 3 4 3 4 3 4 4 
3 3 4 3 4 4 4 3 4 4 3 3 4 4 4 4 
4 4 4 3 4 4 3 4 4 4 4 4 4 5 4 4 
3 4 4 4 4 5 4 4 4 5 3 4 4 5 4 5 
4 4 4 5 4 5 3 4 4 5 4 5 4 5 4 5 
3 5 4 5 4 5 4 5 4 5 4 5 3 5 4 6 
4 5 4 5 4 5 3 6 4 5 4 5 4 6 4 5 
3 5 4 6 4 5 4 5 4 6 4 5 3 6 4 5 
4 5 4 6 4 5 3 6 4 5 4 5 4 6 4 5 
3 6 4 5 4 5 4 6 4 5 4 5 3 6 4 5 
4 5 4 5 4 6 3 5 4 5 4 5 4 5 4 6 
4 5 3 5 4 5 4 5 4 5 4 4 3 5 4 5 
4 5 4 5 4 4 7713 2986 300 MP stroke
3 5 4 5 4 4 4 5 4 4 4 5 3 4 4 4 
4 5 4 4 4 4 3 4 4 4 4 4 4 4 4 4 
3 4 4 4 4 3 4 4 4 3 4 4 3 3 4 4 
4 3 4 3 4 3 3 3 4 3 4 3 4 3 4 3 
4 3 3 2 4 3 4 3 4 2 4 2 3 3 4 2 
4 2 4 2 4 2 3 2 4 2 4 2 4 2 4 1 
4 2 3 1 4 2 4 1 4 2 4 1 3 1 4 1 
4 1 4 1 4 1 3 1 4 1 4 1 4 0 4 1 
4 0 3 1 4 1 4 0 4 0 4 1 3 0 4 0 
4 0 4 0 4 1 4 0 3 0 4 0 4 0 4 -1 
4 0 3 0 4 0 4 0 4 0 4 -1 3 0 4 0 
4 -1 4 0 4 0 4 -1 3 0 4 0 4 -1 4 0 
4 -1 3 0 4 0 4 -1 4 0 4 -1 3 0 4 0 
4 -1 4 0 4 -1 4 0 3 0 4 -1 4 0 4 0 
4 0 3 -1 4 0 4 0 4 0 4 0 4 0 3 0 
4 0 4 0 4 0 4 0 3 0 4 0 4 0 4 1 
4 0 3 0 4 1 4 0 4 1 4 0 4 1 3 1 
4 0 4 1 4 1 4 1 3 1 4 1 4 1 4 1 
4 1 4 2 3 1 4 1 4 2 4 1 4 2 3 2 
4 2 4 1 4 2 4 2 3 2 4 2 4 2 4 3 
4 2 4 2 3 3 4 2 4 3 4 3 4 2 3 3 
4 3 4 3 4 3 4 3 3 3 4 3 4 4 4 3 
4 4 4 3 3 4 4 3 4 4 4 4 4 3 3 4 
4 4 4 4 4 4 4 4 4 5 3 4 4 4 4 4 
4 5 4 4 3 5 4 4 4 5 4 4 4 5 3 4 
4 5 4 5 4 4 4 5 4 5 3 5 4 4 4 5 
4 5 4 5 3 4 4 5 4 5 4 5 4 4 3 5 
4 5 4 4 4 5 4 5 4 4 3 4 4 5 4 4 
4 5 4 4 3 4 4 4 4 4 4 4 4 4 4 3 
3 4 4 3 4 4 4 3 4 3 3 3 4 3 4 3 
4 2 4 3 3 2 4 2 4 3 4 1 4 2 4 2 
3 1 4 1 4 1 4 1 4 1 3 1 4 0 4 0 
4 0 4 0 3 0 4 -1 4 0 4 -1 4 -1 4 -1 
3 -1 4 -2 4 -1 4 -2 4 -2 3 -2 4 -2 4 -3 
4 -2 4 -3 4 -3 3 -2 4 -3 4 -4 4 -3 4 -3 
3 -4 4 -3 4 -4 4 -4 4 -3 3 -4 4 -4 4 -5 
4 -4 4 -4 4 -4 3 -5 4 -4 4 -4 4 -5 4 -4 
3 -5 4 -5 4 -4 6573 2564 300 MP stroke
4 -5 4 -5 3 -4 4 -5 4 -5 4 -5 4 -4 4 -5 
3 -5 4 -5 4 -5 4 -4 4 -5 3 -5 4 -5 4 -5 
4 -4 4 -5 4 -5 3 -4 4 -5 4 -5 4 -4 4 -5 
3 -4 4 -5 4 -5 4 -4 4 -4 3 -5 4 -4 4 -5 
4 -4 4 -4 4 -4 3 -5 4 -4 4 -4 4 -4 4 -4 
3 -4 4 -4 4 -4 4 -4 4 -4 3 -4 4 -4 4 -3 
4 -4 4 -4 4 -3 3 -4 4 -4 4 -3 4 -4 4 -3 
3 -3 4 -4 4 -3 4 -3 4 -4 4 -3 3 -3 4 -3 
4 -3 4 -3 4 -3 3 -3 4 -3 4 -3 4 -3 4 -3 
3 -3 4 -3 4 -3 4 -2 4 -3 4 -3 3 -2 4 -3 
4 -2 4 -3 4 -2 3 -3 4 -2 4 -3 4 -2 4 -3 
3 -2 4 -2 4 -3 4 -2 4 -2 4 -2 3 -2 4 -3 
4 -2 4 -2 4 -2 3 -2 4 -2 4 -2 4 -2 4 -2 
4 -2 3 -2 4 -2 4 -2 4 -2 4 -2 3 -1 4 -2 
4 -2 4 -2 4 -2 3 -1 4 -2 4 -2 4 -2 4 -1 
4 -2 3 -2 4 -1 4 -2 4 -2 4 -1 3 -2 4 -2 
4 -1 4 -2 4 -1 3 -2 4 -1 4 -2 4 -2 4 -1 
4 -2 3 -1 4 -2 4 -1 4 -2 4 -1 3 -1 4 -2 
4 -1 4 -2 4 -1 4 -2 3 -1 4 -1 4 -2 4 -1 
4 -2 3 -1 4 -1 4 -2 4 -1 4 -1 3 -2 4 -1 
4 -1 4 -2 4 -1 4 -1 3 -1 4 -2 4 -1 4 -1 
4 -2 3 -1 4 -1 4 -1 4 -2 4 -1 3 -1 4 -1 
4 -1 4 -1 4 -2 4 -1 3 -1 4 -1 4 -1 4 -1 
4 -2 3 -1 4 -1 4 -1 4 -1 4 -1 4 -1 3 -1 
4 -1 4 -1 4 -1 4 -1 3 -1 4 -1 4 -1 4 -1 
4 -1 3 -1 4 -1 4 0 4 -1 4 -1 4 -1 3 -1 
4 -1 4 0 4 -1 4 -1 3 -1 4 0 4 -1 4 -1 
4 0 3 -1 4 -1 4 0 4 -1 4 0 4 -1 3 0 
4 -1 4 0 4 -1 4 0 3 0 4 -1 4 0 4 0 
4 -1 4 0 3 0 4 0 4 0 4 0 4 -1 3 0 
4 0 4 0 4 0 4 1 3 0 4 0 4 0 4 0 
4 0 4 1 3 0 4 0 4 1 4 0 4 1 3 0 
4 1 4 0 4 1 4 1 3 0 4 1 4 1 4 1 
4 1 4 1 3 1 4 1 4 1 4 1 4 1 3 1 
4 2 4 1 4 1 4 2 4 1 3 2 4 1 4 2 
4 2 4 1 3 2 4 2 4 2 4 2 4 2 3 2 
4 2 4 3 4 2 4 2 4 3 3 2 4 3 4 2 
4 3 4 2 3 3 5433 3018 300 MP stroke
4 3 4 3 4 3 4 3 3 3 4 3 4 4 4 3 
4 3 4 4 3 3 4 4 4 4 4 4 4 3 3 4 
4 4 4 4 4 5 4 4 4 4 3 4 4 5 4 4 
4 5 4 5 3 5 4 4 4 5 4 5 4 5 3 6 
4 5 4 5 4 6 4 5 4 6 3 5 4 6 4 6 
4 6 4 6 3 6 4 6 4 6 4 7 4 6 4 6 
3 7 4 7 4 6 4 7 4 7 3 7 4 7 4 7 
4 7 4 7 3 7 4 8 4 7 4 7 4 8 4 7 
3 8 4 7 4 8 4 7 4 8 3 8 4 7 4 8 
4 8 4 7 3 8 4 7 4 8 4 7 4 8 4 7 
3 7 4 8 4 7 4 7 4 6 3 7 4 7 4 6 
4 6 4 6 4 6 3 5 4 6 4 5 4 4 4 5 
3 4 4 4 4 3 4 3 4 3 3 2 4 2 4 2 
4 1 4 1 4 1 3 0 4 0 4 -1 4 -1 4 -1 
3 -2 4 -2 4 -2 4 -2 4 -3 3 -3 4 -4 4 -3 
4 -4 4 -4 4 -4 3 -5 4 -4 4 -5 4 -4 4 -5 
3 -5 4 -5 4 -6 4 -5 4 -5 4 -5 3 -6 4 -5 
4 -5 4 -6 4 -5 3 -5 4 -5 4 -6 4 -5 4 -5 
3 -5 4 -6 4 -5 4 -5 4 -5 4 -5 3 -5 4 -4 
4 -5 4 -5 4 -4 3 -5 4 -5 4 -4 4 -4 4 -5 
3 -4 4 -4 4 -4 4 -4 4 -4 4 -4 3 -4 4 -4 
4 -3 4 -4 4 -3 3 -4 4 -3 4 -4 4 -3 4 -3 
4 -3 3 -3 4 -3 4 -3 4 -3 4 -3 3 -2 4 -3 
4 -3 4 -2 4 -2 3 -3 4 -2 4 -2 4 -2 4 -3 
4 -2 3 -2 4 -2 4 -1 4 -2 4 -2 3 -2 4 -1 
4 -2 4 -1 4 -2 3 -1 4 -1 4 -2 4 -1 4 -1 
4 -1 3 -1 4 -1 4 -1 4 -1 4 -1 3 -1 4 -1 
4 0 4 -1 4 -1 4 0 3 -1 4 0 4 0 4 -1 
4 0 3 0 4 -1 4 0 4 0 4 0 3 0 4 0 
4 0 4 0 4 0 4 0 3 0 4 1 4 0 4 0 
4 0 3 1 4 0 4 1 4 0 4 1 3 0 4 1 
4 0 4 1 4 1 4 0 3 1 4 1 4 1 4 1 
4 0 3 1 4 1 4 1 4 1 4 1 4 1 3 1 
4 1 4 1 4 1 4 1 3 1 4 2 4 1 4 1 
4 1 3 1 4 2 4 1 4 1 4 1 4 2 3 1 
4 1 4 2 4 1 4 1 3 2 4 1 4 1 4 2 
4 1 3 1 4 2 4 1 4 1 4 2 4 1 3 2 
4 1 4 1 4 2 4292 2735 300 MP stroke
4 1 3 1 4 2 4 1 4 2 4 1 4 1 3 1 
4 2 4 1 4 1 4 2 3 1 4 1 4 1 4 2 
4 1 3 1 4 1 4 1 4 1 4 1 4 1 3 1 
4 1 4 1 4 1 4 1 3 1 4 1 4 1 4 1 
4 1 3 0 4 1 4 1 4 0 4 1 4 1 3 0 
4 1 4 0 4 1 4 0 3 1 4 0 4 0 4 0 
4 1 4 0 3 0 4 0 4 0 4 0 4 0 3 0 
4 0 4 0 4 0 4 0 3 0 4 0 4 -1 4 0 
4 0 4 -1 3 0 4 0 4 -1 4 0 4 -1 3 0 
4 -1 4 0 4 -1 4 -1 3 0 4 -1 4 -1 4 -1 
4 0 4 -1 3 -1 4 -1 4 -1 4 -1 4 -1 3 -1 
4 -1 4 -1 4 -1 4 -1 4 -1 3 -1 4 -1 4 -1 
4 -1 4 -1 3 -1 4 -1 4 -1 4 -1 4 -2 3 -1 
4 -1 4 -1 4 -1 4 -1 4 -2 3 -1 4 -1 4 -1 
4 -1 4 -1 3 -2 4 -1 4 -1 4 -1 4 -2 3 -1 
4 -1 4 -1 4 -1 4 -2 4 -1 3 -1 4 -1 4 -1 
4 -1 4 -2 3 -1 4 -1 4 -1 4 -1 4 -1 4 -1 
3 -2 4 -1 4 -1 4 -1 4 -1 3 -1 4 -1 4 -1 
4 -1 4 -1 3 -1 4 -1 4 -1 4 -1 4 -1 4 -1 
3 -1 4 -1 4 -1 4 -1 4 -1 3 -1 4 -1 4 -1 
4 0 4 -1 3 -1 4 -1 4 -1 4 0 4 -1 4 -1 
3 -1 4 0 4 -1 4 -1 4 0 3 -1 4 -1 4 0 
4 -1 4 0 4 -1 3 0 4 -1 4 0 4 -1 4 0 
3 -1 4 0 4 -1 4 0 4 0 3 -1 4 0 4 -1 
4 0 4 0 4 0 3 -1 4 0 4 0 4 0 4 0 
3 0 4 -1 4 0 4 0 4 0 3 0 4 0 4 0 
4 0 4 0 4 0 3 0 4 1 4 0 4 0 4 0 
3 0 4 1 4 0 4 0 4 0 4 1 3 0 4 0 
4 1 4 0 4 1 3 0 4 1 4 0 4 1 4 0 
3 1 4 1 4 0 4 1 4 1 4 0 3 1 4 1 
4 1 4 1 4 0 3 1 4 1 4 1 4 1 4 1 
4 1 3 1 4 1 4 1 4 1 4 2 3 1 4 1 
4 1 4 1 4 2 3 1 4 1 4 2 4 1 4 2 
4 1 3 2 4 1 4 2 4 1 4 2 3 1 4 2 
4 2 4 1 4 2 3 2 4 2 4 2 4 1 4 2 
4 2 3 2 4 2 4 2 4 2 4 2 3 2 4 2 
4 3 4 2 4 2 4 2 3 2 4 3 4 2 4 2 
4 3 3 2 4 2 3152 2699 300 MP stroke
4 3 4 2 4 2 3 3 4 2 4 3 4 2 4 3 
4 2 3 3 4 2 4 3 4 2 4 2 3 3 4 2 
4 2 4 3 4 2 3 2 4 2 4 3 4 2 4 2 
4 2 3 1 4 2 4 2 4 1 4 2 3 1 4 1 
4 1 4 1 4 0 4 1 3 1 4 0 4 0 4 0 
4 0 3 0 4 -1 4 0 4 0 4 -1 3 -1 4 0 
4 -1 4 -1 4 -1 4 -1 3 -1 4 -1 4 -1 4 -1 
4 -1 3 -1 4 0 4 -1 4 -1 4 -1 3 -1 4 -1 
4 -1 4 -1 4 -1 4 0 3 -1 4 -1 4 -1 4 -1 
4 0 3 -1 4 -1 4 -1 4 0 4 -1 4 -1 3 0 
4 -1 4 0 4 -1 4 -1 3 0 4 -1 4 0 4 -1 
4 0 3 -1 4 0 4 -1 4 0 4 -1 4 0 3 0 
4 -1 4 0 4 -1 4 0 3 0 4 -1 4 0 4 -1 
4 0 3 0 4 -1 4 0 4 0 4 0 4 -1 3 0 
4 0 4 -1 4 0 4 0 3 0 4 -1 4 0 4 0 
4 0 4 -1 3 0 4 0 4 0 4 -1 4 0 3 0 
4 0 4 0 4 -1 4 0 3 0 4 0 4 0 4 0 
4 -1 4 0 3 0 4 0 4 0 4 0 4 0 3 0 
4 -1 4 0 4 0 4 0 3 0 4 0 4 0 4 0 
4 0 4 -1 3 0 4 0 4 0 4 0 4 0 3 0 
4 0 4 0 4 0 4 0 4 0 3 0 4 0 4 0 
4 0 4 0 3 0 4 0 4 0 4 0 4 -1 3 0 
4 0 4 0 4 0 4 0 4 0 3 0 4 0 4 0 
4 0 4 0 3 0 4 0 4 1 4 0 4 0 3 0 
4 0 4 0 4 0 4 0 4 0 3 0 4 0 4 0 
4 0 4 0 3 0 4 0 4 0 4 0 4 0 4 0 
3 0 4 0 4 0 4 0 4 1 3 0 4 0 4 0 
4 0 4 0 3 0 4 0 4 0 4 0 4 0 4 0 
3 0 4 0 4 1 4 0 4 0 3 0 4 0 4 0 
4 0 4 0 3 0 4 0 4 0 4 0 4 1 4 0 
3 0 4 0 4 0 4 0 4 0 3 0 4 0 4 0 
4 1 4 0 4 0 3 0 4 0 4 0 4 0 4 0 
3 0 4 0 4 1 4 0 4 0 3 0 4 0 4 0 
4 0 4 0 4 0 3 0 4 1 4 0 4 0 4 0 
3 0 4 0 4 0 4 0 4 0 3 1 4 0 4 0 
4 0 4 0 4 0 3 0 4 0 4 0 4 1 4 0 
3 0 4 0 4 0 4 0 4 0 4 0 3 0 4 0 
4 1 4 0 4 0 2011 2669 300 MP stroke
3 0 4 0 4 0 4 0 4 0 3 0 4 0 4 0 
4 1 4 0 4 0 3 0 4 0 4 0 4 0 4 0 
3 0 4 0 4 0 4 1 4 0 3 0 4 0 4 0 
4 0 4 0 4 0 3 0 4 0 4 0 4 0 4 0 
3 1 4 0 4 0 4 0 4 0 4 0 3 0 4 0 
4 0 4 0 4 0 3 0 4 0 4 0 4 0 4 0 
3 0 4 0 4 1 4 0 4 0 4 0 3 0 4 0 
4 0 4 0 4 0 3 0 4 0 4 0 4 0 4 0 
3 0 4 0 4 0 4 0 4 0 4 0 3 0 4 0 
4 0 4 0 4 0 3 0 4 0 4 0 4 0 4 0 
4 0 3 0 4 0 4 0 4 0 4 0 3 0 4 0 
4 0 4 0 4 0 3 0 4 0 4 0 4 0 4 0 
4 0 3 0 4 0 4 0 4 0 4 0 3 0 4 0 
4 0 4 0 4 0 3 0 1600 2665 109 MP stroke
/c10 { 1.000000 0.000000 0.000000 sr} bdef
c10
4 4 4 3 4 4 4 3 4 4 3 4 4 4 4 4 
4 4 4 4 3 4 4 4 4 5 4 4 4 4 4 5 
3 5 4 4 4 5 4 5 4 5 3 5 4 6 4 5 
4 5 4 6 3 5 4 6 4 6 4 5 4 6 4 6 
3 6 4 7 4 6 4 6 4 7 3 6 4 7 4 7 
4 6 4 7 4 7 3 7 4 7 4 8 4 7 4 7 
3 8 4 8 4 7 4 8 4 8 3 8 4 7 4 8 
4 8 4 9 4 8 3 8 4 8 4 9 4 8 4 8 
3 9 4 8 4 8 4 9 4 8 3 9 4 8 4 8 
4 8 4 9 4 8 3 8 4 8 4 8 4 7 4 8 
3 7 4 7 4 8 4 6 4 7 4 6 3 6 4 6 
4 6 4 5 4 5 3 4 4 5 4 3 4 4 4 3 
3 2 4 3 4 1 4 2 4 0 4 1 3 0 4 -1 
4 -1 4 -1 4 -2 3 -2 4 -3 4 -3 4 -3 4 -4 
3 -4 4 -5 4 -5 4 -5 4 -5 4 -6 3 -6 4 -6 
4 -6 4 -7 4 -6 3 -7 4 -7 4 -7 4 -8 4 -7 
4 -7 3 -8 4 -8 4 -7 4 -8 4 -7 3 -8 4 -8 
4 -7 4 -8 4 -8 3 -7 4 -8 4 -8 4 -7 4 -7 
4 -8 3 -7 4 -7 4 -8 4 -7 4 -7 3 -7 4 -7 
4 -6 4 -7 4 -7 3 -6 4 -7 4 -6 4 -6 4 -6 
4 -6 3 -6 4 -6 4 -6 4 -6 4 -5 3 -6 4 -5 
4 -5 4 -5 4 -6 4 -4 3 -5 4 -5 4 -5 4 -4 
4 -5 3 -4 4 -4 4 -4 4 -4 4 -4 3 -4 4 -4 
4 -3 4 -4 4 -3 4 -4 3 -3 4 -3 4 -3 4 -3 
4 -3 3 -3 4 -2 4 -3 4 -2 4 -3 3 -2 4 -2 
4 -2 4 -2 4 -2 4 -2 3 -2 4 -2 4 -1 4 -2 
4 -1 3 -1 4 -2 4 -1 4 -1 4 -1 4 -1 3 -1 
4 0 4 -1 4 -1 4 0 3 -1 4 0 4 0 4 -1 
4 0 3 0 4 0 4 0 4 0 4 1 4 0 3 0 
4 1 4 0 4 1 4 0 3 1 4 1 4 0 4 1 
4 1 3 1 4 1 4 1 4 1 4 2 4 1 3 1 
4 1 4 2 4 1 4 2 3 1 4 2 4 2 4 1 
4 2 4 2 3 2 4 1 4 2 4 2 4 2 3 2 
4 2 4 2 4 3 4 2 3 2 4 2 4 2 4 3 
4 2 4 2 3 2 4 3 4 2 4 3 4 2 3 2 
4 3 4 2 4 3 4 2 3 3 4 2 4 3 4 2 
4 3 4 2 3 3 4 2 4 3 4 2 4 3 3 2 
4 3 4 2 4 2 9994 2775 300 MP stroke
4 3 4 2 3 3 4 2 4 2 4 3 4 2 3 2 
4 2 4 2 4 3 4 2 3 2 4 2 4 2 4 2 
4 2 4 2 3 1 4 2 4 2 4 2 4 1 3 2 
4 1 4 2 4 1 4 2 3 1 4 1 4 1 4 1 
4 1 4 1 3 1 4 1 4 1 4 0 4 1 3 0 
4 1 4 0 4 0 4 1 4 0 3 0 4 0 4 0 
4 0 4 -1 3 0 4 0 4 -1 4 0 4 -1 3 -1 
4 0 4 -1 4 -1 4 -1 4 -1 3 -1 4 -2 4 -1 
4 -1 4 -2 3 -1 4 -2 4 -1 4 -2 4 -2 3 -2 
4 -2 4 -2 4 -2 4 -2 4 -2 3 -2 4 -2 4 -2 
4 -3 4 -2 3 -3 4 -2 4 -3 4 -2 4 -3 4 -2 
3 -3 4 -3 4 -3 4 -2 4 -3 3 -3 4 -3 4 -3 
4 -3 4 -3 3 -3 4 -3 4 -3 4 -3 4 -3 4 -3 
3 -3 4 -3 4 -3 4 -4 4 -3 3 -3 4 -3 4 -3 
4 -3 4 -4 3 -3 4 -3 4 -3 4 -3 4 -4 4 -3 
3 -3 4 -3 4 -3 4 -3 4 -4 3 -3 4 -3 4 -3 
4 -3 4 -3 4 -3 3 -3 4 -3 4 -3 4 -3 4 -3 
3 -3 4 -3 4 -3 4 -3 4 -3 3 -2 4 -3 4 -3 
4 -3 4 -2 4 -3 3 -3 4 -2 4 -3 4 -3 4 -2 
3 -3 4 -2 4 -2 4 -3 4 -2 3 -2 4 -3 4 -2 
4 -2 4 -2 4 -2 3 -2 4 -2 4 -2 4 -2 4 -2 
3 -2 4 -2 4 -1 4 -2 4 -2 4 -1 3 -2 4 -1 
4 -2 4 -1 4 -1 3 -2 4 -1 4 -1 4 -1 4 -1 
3 -1 4 -1 4 -1 4 -1 4 -1 4 0 3 -1 4 -1 
4 0 4 -1 4 0 3 0 4 -1 4 0 4 0 4 0 
3 0 4 0 4 0 4 0 4 0 4 1 3 0 4 1 
4 0 4 1 4 0 3 1 4 1 4 1 4 1 4 1 
4 1 3 1 4 2 4 1 4 1 4 2 3 1 4 2 
4 2 4 2 4 2 3 2 4 2 4 2 4 2 4 3 
4 2 3 3 4 2 4 3 4 3 4 3 3 3 4 3 
4 3 4 3 4 3 4 4 3 3 4 4 4 4 4 4 
4 4 3 4 4 4 4 4 4 4 4 5 3 5 4 4 
4 5 4 5 4 5 4 5 3 5 4 6 4 5 4 6 
4 5 3 6 4 6 4 6 4 6 4 6 3 7 4 6 
4 7 4 7 4 7 4 7 3 7 4 7 4 7 4 8 
4 7 3 8 4 8 4 8 4 8 4 8 4 9 3 8 
4 9 4 8 4 9 4 9 3 9 4 9 4 9 4 10 
4 9 3 10 4 9 8854 2595 300 MP stroke
4 10 4 10 4 10 4 9 3 10 4 10 4 10 4 10 
4 10 3 10 4 10 4 10 4 10 4 9 3 10 4 9 
4 9 4 9 4 8 4 9 3 8 4 7 4 7 4 7 
4 6 3 5 4 5 4 5 4 3 4 3 4 3 3 1 
4 1 4 0 4 0 4 -2 3 -2 4 -3 4 -3 4 -4 
4 -5 3 -5 4 -6 4 -6 4 -6 4 -7 4 -8 3 -7 
4 -8 4 -8 4 -8 4 -9 3 -9 4 -8 4 -9 4 -9 
4 -9 3 -9 4 -9 4 -9 4 -8 4 -9 4 -9 3 -9 
4 -9 4 -8 4 -9 4 -8 3 -9 4 -8 4 -8 4 -8 
4 -8 4 -8 3 -8 4 -8 4 -7 4 -8 4 -7 3 -7 
4 -8 4 -7 4 -7 4 -6 3 -7 4 -7 4 -6 4 -7 
4 -6 4 -6 3 -6 4 -6 4 -6 4 -6 4 -5 3 -6 
4 -5 4 -5 4 -6 4 -5 3 -5 4 -5 4 -5 4 -4 
4 -5 4 -5 3 -4 4 -4 4 -5 4 -4 4 -4 3 -4 
4 -4 4 -4 4 -4 4 -3 4 -4 3 -3 4 -4 4 -3 
4 -3 4 -3 3 -4 4 -3 4 -3 4 -2 4 -3 3 -3 
4 -3 4 -2 4 -3 4 -2 4 -2 3 -3 4 -2 4 -2 
4 -2 4 -2 3 -2 4 -2 4 -2 4 -2 4 -1 3 -2 
4 -2 4 -1 4 -2 4 -1 4 -1 3 -2 4 -1 4 -1 
4 -1 4 -1 3 -1 4 -1 4 -1 4 -1 4 -1 4 0 
3 -1 4 -1 4 0 4 -1 4 0 3 -1 4 0 4 0 
4 -1 4 0 3 0 4 0 4 0 4 0 4 0 4 0 
3 0 4 0 4 0 4 0 4 0 3 1 4 0 4 0 
4 1 4 0 3 1 4 0 4 1 4 0 4 1 4 1 
3 0 4 1 4 1 4 1 4 0 3 1 4 1 4 1 
4 1 4 1 4 1 3 1 4 1 4 1 4 1 4 2 
3 1 4 1 4 1 4 1 4 2 3 1 4 1 4 2 
4 1 4 2 4 1 3 1 4 2 4 1 4 2 4 1 
3 2 4 2 4 1 4 2 4 1 3 2 4 2 4 2 
4 1 4 2 4 2 3 1 4 2 4 2 4 2 4 2 
3 1 4 2 4 2 4 2 4 2 4 2 3 2 4 2 
4 1 4 2 4 2 3 2 4 2 4 2 4 2 4 2 
3 2 4 2 4 2 4 2 4 2 4 2 3 2 4 2 
4 2 4 2 4 2 3 2 4 2 4 2 4 2 4 2 
3 2 4 2 4 2 4 2 4 2 4 1 3 2 4 2 
4 2 4 2 4 2 3 2 4 2 4 2 4 2 4 2 
4 2 3 1 4 2 4 2 4 2 4 2 3 1 4 2 
4 2 4 2 4 1 7713 2778 300 MP stroke
3 2 4 2 4 2 4 1 4 2 4 2 3 1 4 2 
4 1 4 2 4 1 3 2 4 1 4 2 4 1 4 2 
3 1 4 2 4 1 4 1 4 2 4 1 3 1 4 1 
4 2 4 1 4 1 3 1 4 1 4 1 4 1 4 1 
4 1 3 1 4 1 4 1 4 1 4 1 3 1 4 1 
4 1 4 0 4 1 3 1 4 1 4 0 4 1 4 0 
4 1 3 1 4 0 4 1 4 0 4 1 3 0 4 1 
4 0 4 0 4 1 3 0 4 0 4 1 4 0 4 0 
4 0 3 1 4 0 4 0 4 0 4 0 3 0 4 1 
4 0 4 0 4 0 4 0 3 0 4 0 4 0 4 0 
4 0 3 0 4 0 4 0 4 0 4 -1 3 0 4 0 
4 0 4 0 4 0 4 0 3 0 4 0 4 -1 4 0 
4 0 3 0 4 0 4 0 4 0 4 -1 3 0 4 0 
4 0 4 0 4 0 4 0 3 0 4 -1 4 0 4 0 
4 0 3 0 4 0 4 0 4 0 4 0 4 0 3 0 
4 0 4 0 4 0 4 0 3 0 4 0 4 0 4 0 
4 0 3 1 4 0 4 0 4 0 4 0 4 1 3 0 
4 0 4 0 4 1 4 0 3 0 4 1 4 0 4 1 
4 0 4 0 3 1 4 0 4 1 4 1 4 0 3 1 
4 0 4 1 4 1 4 0 3 1 4 1 4 1 4 1 
4 0 4 1 3 1 4 1 4 1 4 1 4 1 3 1 
4 1 4 1 4 1 4 1 3 1 4 2 4 1 4 1 
4 1 4 1 3 2 4 1 4 1 4 2 4 1 3 2 
4 1 4 1 4 2 4 1 4 2 3 1 4 2 4 2 
4 1 4 2 3 1 4 2 4 2 4 1 4 2 3 2 
4 1 4 2 4 2 4 1 4 2 3 2 4 1 4 2 
4 2 4 2 3 1 4 2 4 2 4 1 4 2 3 2 
4 1 4 2 4 2 4 1 4 2 3 2 4 1 4 2 
4 1 4 2 3 1 4 2 4 1 4 2 4 1 4 1 
3 2 4 1 4 1 4 1 4 1 3 1 4 1 4 1 
4 1 4 1 3 1 4 1 4 1 4 0 4 1 4 0 
3 1 4 0 4 1 4 0 4 0 3 0 4 1 4 0 
4 0 4 0 3 -1 4 0 4 0 4 0 4 -1 4 0 
3 0 4 -1 4 -1 4 0 4 -1 3 -1 4 -1 4 0 
4 -1 4 -1 4 -1 3 -1 4 -1 4 -2 4 -1 4 -1 
3 -1 4 -1 4 -2 4 -1 4 -2 3 -1 4 -1 4 -2 
4 -1 4 -2 4 -1 3 -2 4 -2 4 -1 4 -2 4 -2 
3 -1 4 -2 4 -2 6573 2624 300 MP stroke
4 -1 4 -2 3 -2 4 -1 4 -2 4 -2 4 -2 4 -1 
3 -2 4 -2 4 -1 4 -2 4 -2 3 -2 4 -1 4 -2 
4 -2 4 -2 4 -1 3 -2 4 -2 4 -1 4 -2 4 -2 
3 -1 4 -2 4 -2 4 -1 4 -2 3 -1 4 -2 4 -2 
4 -1 4 -2 4 -1 3 -2 4 -1 4 -2 4 -1 4 -2 
3 -1 4 -2 4 -1 4 -1 4 -2 3 -1 4 -2 4 -1 
4 -1 4 -2 4 -1 3 -1 4 -2 4 -1 4 -1 4 -1 
3 -2 4 -1 4 -1 4 -1 4 -2 4 -1 3 -1 4 -1 
4 -1 4 -1 4 -1 3 -1 4 -2 4 -1 4 -1 4 -1 
3 -1 4 -1 4 -1 4 -1 4 -1 4 -1 3 -1 4 -1 
4 -1 4 0 4 -1 3 -1 4 -1 4 -1 4 -1 4 -1 
3 -1 4 -1 4 0 4 -1 4 -1 4 -1 3 -1 4 0 
4 -1 4 -1 4 -1 3 -1 4 0 4 -1 4 -1 4 0 
4 -1 3 -1 4 -1 4 0 4 -1 4 -1 3 0 4 -1 
4 -1 4 0 4 -1 3 -1 4 0 4 -1 4 -1 4 0 
4 -1 3 -1 4 0 4 -1 4 0 4 -1 3 -1 4 0 
4 -1 4 0 4 -1 3 -1 4 0 4 -1 4 0 4 -1 
4 0 3 -1 4 0 4 -1 4 -1 4 0 3 -1 4 0 
4 -1 4 0 4 -1 4 0 3 -1 4 0 4 -1 4 0 
4 -1 3 0 4 -1 4 0 4 -1 4 0 3 -1 4 0 
4 -1 4 0 4 -1 4 0 3 -1 4 0 4 -1 4 0 
4 -1 3 0 4 -1 4 0 4 -1 4 0 3 -1 4 0 
4 0 4 -1 4 0 4 -1 3 0 4 -1 4 0 4 0 
4 -1 3 0 4 -1 4 0 4 0 4 -1 4 0 3 -1 
4 0 4 0 4 -1 4 0 3 -1 4 0 4 0 4 -1 
4 0 3 0 4 -1 4 0 4 0 4 -1 4 0 3 0 
4 -1 4 0 4 0 4 0 3 -1 4 0 4 0 4 -1 
4 0 3 0 4 0 4 0 4 -1 4 0 4 0 3 0 
4 0 4 -1 4 0 4 0 3 0 4 0 4 0 4 0 
4 -1 4 0 3 0 4 0 4 0 4 0 4 0 3 0 
4 0 4 0 4 0 4 0 3 0 4 0 4 0 4 0 
4 0 4 0 3 0 4 0 4 1 4 0 4 0 3 0 
4 0 4 0 4 1 4 0 3 0 4 0 4 1 4 0 
4 0 4 1 3 0 4 0 4 1 4 0 4 1 3 0 
4 0 4 1 4 0 4 1 4 0 3 1 4 1 4 0 
4 1 4 0 3 1 4 1 4 0 4 1 4 1 3 1 
4 0 4 1 4 1 4 1 4 1 3 1 4 0 4 1 
4 1 4 1 3 1 5433 2791 300 MP stroke
4 1 4 1 4 2 4 1 3 1 4 1 4 1 4 1 
4 1 4 2 3 1 4 1 4 2 4 1 4 1 3 2 
4 1 4 2 4 1 4 2 4 1 3 2 4 2 4 1 
4 2 4 2 3 1 4 2 4 2 4 2 4 1 3 2 
4 2 4 2 4 2 4 2 4 2 3 2 4 2 4 2 
4 3 4 2 3 2 4 2 4 2 4 3 4 2 4 2 
3 3 4 2 4 2 4 3 4 2 3 3 4 2 4 3 
4 3 4 2 3 3 4 2 4 3 4 3 4 2 4 3 
3 3 4 3 4 2 4 3 4 3 3 3 4 2 4 3 
4 3 4 3 3 3 4 2 4 3 4 3 4 2 4 3 
3 3 4 2 4 3 4 3 4 2 3 2 4 3 4 2 
4 2 4 3 4 2 3 2 4 2 4 1 4 2 4 2 
3 1 4 2 4 1 4 1 4 1 3 1 4 1 4 0 
4 1 4 0 4 0 3 0 4 0 4 0 4 0 4 -1 
3 0 4 -1 4 -1 4 -1 4 -1 3 -1 4 -1 4 -1 
4 -2 4 -1 4 -2 3 -1 4 -2 4 -2 4 -1 4 -2 
3 -2 4 -2 4 -2 4 -1 4 -2 4 -2 3 -2 4 -2 
4 -2 4 -2 4 -2 3 -2 4 -2 4 -2 4 -2 4 -2 
3 -1 4 -2 4 -2 4 -2 4 -2 4 -2 3 -1 4 -2 
4 -2 4 -2 4 -1 3 -2 4 -2 4 -1 4 -2 4 -1 
3 -2 4 -1 4 -2 4 -1 4 -2 4 -1 3 -2 4 -1 
4 -1 4 -2 4 -1 3 -1 4 -1 4 -2 4 -1 4 -1 
4 -1 3 -1 4 -1 4 -1 4 -1 4 -1 3 -1 4 -1 
4 -1 4 -1 4 -1 3 -1 4 -1 4 0 4 -1 4 -1 
4 -1 3 0 4 -1 4 -1 4 -1 4 0 3 -1 4 0 
4 -1 4 0 4 -1 3 -1 4 0 4 0 4 -1 4 0 
4 -1 3 0 4 -1 4 0 4 0 4 -1 3 0 4 0 
4 0 4 -1 4 0 4 0 3 0 4 0 4 -1 4 0 
4 0 3 0 4 0 4 0 4 0 4 0 3 0 4 0 
4 0 4 0 4 0 4 0 3 0 4 0 4 0 4 0 
4 0 3 0 4 1 4 0 4 0 4 0 3 0 4 1 
4 0 4 0 4 0 4 0 3 1 4 0 4 0 4 1 
4 0 3 0 4 0 4 1 4 0 4 0 4 1 3 0 
4 1 4 0 4 0 4 1 3 0 4 1 4 0 4 0 
4 1 3 0 4 1 4 0 4 1 4 0 4 0 3 1 
4 0 4 1 4 0 4 1 3 0 4 1 4 0 4 1 
4 0 3 1 4 0 4 1 4 0 4 1 4 0 3 1 
4 0 4 1 4 0 4292 2689 300 MP stroke
4 1 3 0 4 1 4 0 4 1 4 0 4 1 3 0 
4 1 4 0 4 1 4 0 3 0 4 1 4 0 4 1 
4 0 3 1 4 0 4 0 4 1 4 0 4 1 3 0 
4 0 4 1 4 0 4 0 3 1 4 0 4 0 4 1 
4 0 3 0 4 0 4 1 4 0 4 0 4 0 3 1 
4 0 4 0 4 0 4 0 3 0 4 1 4 0 4 0 
4 0 4 0 3 0 4 0 4 0 4 0 4 0 3 0 
4 0 4 0 4 0 4 0 3 0 4 0 4 0 4 0 
4 -1 4 0 3 0 4 0 4 0 4 0 4 0 3 -1 
4 0 4 0 4 0 4 -1 3 0 4 0 4 0 4 -1 
4 0 4 0 3 0 4 -1 4 0 4 0 4 -1 3 0 
4 0 4 -1 4 0 4 -1 4 0 3 0 4 -1 4 0 
4 0 4 -1 3 0 4 -1 4 0 4 0 4 -1 3 0 
4 -1 4 0 4 -1 4 0 4 0 3 -1 4 0 4 -1 
4 0 4 -1 3 0 4 0 4 -1 4 0 4 -1 3 0 
4 -1 4 0 4 -1 4 0 4 0 3 -1 4 0 4 -1 
4 0 4 -1 3 0 4 0 4 -1 4 0 4 -1 4 0 
3 0 4 -1 4 0 4 -1 4 0 3 0 4 -1 4 0 
4 -1 4 0 3 0 4 -1 4 0 4 0 4 -1 4 0 
3 -1 4 0 4 0 4 -1 4 0 3 0 4 -1 4 0 
4 0 4 0 3 -1 4 0 4 0 4 -1 4 0 4 0 
3 0 4 -1 4 0 4 0 4 0 3 -1 4 0 4 0 
4 0 4 -1 4 0 3 0 4 0 4 0 4 0 4 -1 
3 0 4 0 4 0 4 0 4 0 3 -1 4 0 4 0 
4 0 4 0 4 0 3 0 4 0 4 0 4 0 4 -1 
3 0 4 0 4 0 4 0 4 0 3 0 4 0 4 0 
4 0 4 0 4 0 3 0 4 0 4 0 4 1 4 0 
3 0 4 0 4 0 4 0 4 0 4 0 3 0 4 0 
4 1 4 0 4 0 3 0 4 0 4 0 4 1 4 0 
3 0 4 0 4 0 4 1 4 0 4 0 3 0 4 1 
4 0 4 0 4 1 3 0 4 0 4 1 4 0 4 0 
4 1 3 0 4 0 4 1 4 0 4 1 3 0 4 0 
4 1 4 0 4 1 3 0 4 1 4 0 4 1 4 0 
4 1 3 0 4 1 4 0 4 1 4 0 3 1 4 1 
4 0 4 1 4 0 3 1 4 1 4 0 4 1 4 1 
4 0 3 1 4 1 4 1 4 0 4 1 3 1 4 0 
4 1 4 1 4 1 4 1 3 0 4 1 4 1 4 1 
4 1 3 1 4 0 3152 2677 300 MP stroke
4 1 4 1 4 1 3 1 4 1 4 1 4 0 4 1 
4 1 3 1 4 1 4 1 4 1 4 1 3 0 4 1 
4 1 4 1 4 1 3 1 4 0 4 1 4 1 4 0 
4 1 3 1 4 0 4 1 4 1 4 0 3 0 4 1 
4 0 4 1 4 0 4 0 3 0 4 0 4 0 4 0 
4 0 3 0 4 0 4 0 4 0 4 0 3 -1 4 0 
4 0 4 0 4 -1 4 0 3 0 4 -1 4 0 4 0 
4 -1 3 0 4 0 4 -1 4 0 4 0 3 -1 4 0 
4 0 4 -1 4 0 4 0 3 -1 4 0 4 0 4 0 
4 -1 3 0 4 0 4 0 4 -1 4 0 4 0 3 0 
4 -1 4 0 4 0 4 0 3 0 4 -1 4 0 4 0 
4 0 3 0 4 -1 4 0 4 0 4 0 4 0 3 0 
4 -1 4 0 4 0 4 0 3 0 4 0 4 0 4 -1 
4 0 3 0 4 0 4 0 4 0 4 0 4 0 3 0 
4 -1 4 0 4 0 4 0 3 0 4 0 4 0 4 0 
4 0 4 0 3 0 4 -1 4 0 4 0 4 0 3 0 
4 0 4 0 4 0 4 0 3 0 4 0 4 0 4 0 
4 0 4 0 3 -1 4 0 4 0 4 0 4 0 3 0 
4 0 4 0 4 0 4 0 3 0 4 0 4 0 4 0 
4 0 4 0 3 0 4 0 4 0 4 0 4 0 3 0 
4 0 4 0 4 0 4 0 4 0 3 0 4 0 4 0 
4 0 4 0 3 0 4 0 4 0 4 0 4 0 3 0 
4 -1 4 0 4 0 4 0 4 0 3 0 4 0 4 0 
4 0 4 0 3 0 4 1 4 0 4 0 4 0 3 0 
4 0 4 0 4 0 4 0 4 0 3 0 4 0 4 0 
4 0 4 0 3 0 4 0 4 0 4 0 4 0 4 0 
3 0 4 0 4 0 4 0 4 0 3 0 4 0 4 0 
4 0 4 0 3 0 4 0 4 0 4 0 4 0 4 0 
3 0 4 0 4 0 4 0 4 0 3 0 4 0 4 0 
4 0 4 0 3 0 4 0 4 1 4 0 4 0 4 0 
3 0 4 0 4 0 4 0 4 0 3 0 4 0 4 0 
4 0 4 0 4 0 3 0 4 0 4 0 4 0 4 0 
3 0 4 0 4 0 4 0 4 0 3 0 4 0 4 0 
4 1 4 0 4 0 3 0 4 0 4 0 4 0 4 0 
3 0 4 0 4 0 4 0 4 0 3 0 4 0 4 0 
4 0 4 0 4 0 3 0 4 0 4 0 4 0 4 0 
3 0 4 0 4 1 4 0 4 0 4 0 3 0 4 0 
4 0 4 0 4 0 2011 2666 300 MP stroke
3 0 4 0 4 0 4 0 4 0 3 0 4 0 4 0 
4 0 4 0 4 0 3 0 4 0 4 0 4 0 4 0 
3 0 4 0 4 0 4 0 4 0 3 0 4 1 4 0 
4 0 4 0 4 0 3 0 4 0 4 0 4 0 4 0 
3 0 4 0 4 0 4 0 4 0 4 0 3 0 4 0 
4 0 4 0 4 0 3 0 4 0 4 0 4 0 4 0 
3 0 4 0 4 0 4 0 4 0 4 0 3 0 4 0 
4 0 4 0 4 0 3 0 4 0 4 0 4 0 4 0 
3 0 4 0 4 0 4 0 4 0 4 0 3 0 4 0 
4 0 4 0 4 0 3 0 4 0 4 0 4 0 4 0 
4 0 3 0 4 0 4 0 4 0 4 0 3 0 4 0 
4 0 4 0 4 0 3 0 4 0 4 0 4 0 4 0 
4 0 3 0 4 0 4 0 4 0 4 0 3 0 4 0 
4 0 4 0 4 0 3 0 1600 2665 109 MP stroke
/c11 { 0.000000 0.000000 1.000000 sr} bdef
c11
4 1 4 1 4 2 4 2 4 1 3 2 4 1 4 2 
4 2 4 1 3 2 4 2 4 2 4 2 4 2 4 2 
3 2 4 2 4 2 4 2 4 2 3 2 4 2 4 3 
4 2 4 2 3 3 4 2 4 2 4 3 4 2 4 3 
3 3 4 2 4 3 4 3 4 2 3 3 4 3 4 3 
4 3 4 3 4 3 3 3 4 3 4 3 4 3 4 3 
3 3 4 3 4 4 4 3 4 3 3 4 4 3 4 4 
4 3 4 3 4 4 3 3 4 4 4 4 4 3 4 4 
3 3 4 4 4 3 4 4 4 4 3 3 4 4 4 3 
4 4 4 3 4 4 3 3 4 4 4 3 4 3 4 4 
3 3 4 3 4 3 4 3 4 3 4 2 3 3 4 3 
4 2 4 2 4 2 3 2 4 2 4 2 4 1 4 1 
3 2 4 0 4 1 4 1 4 0 4 0 3 0 4 0 
4 0 4 -1 4 -1 3 -1 4 -1 4 -1 4 -1 4 -2 
3 -2 4 -2 4 -2 4 -2 4 -2 4 -3 3 -2 4 -3 
4 -3 4 -2 4 -3 3 -3 4 -3 4 -3 4 -3 4 -3 
4 -4 3 -3 4 -3 4 -3 4 -4 4 -3 3 -3 4 -3 
4 -4 4 -3 4 -3 3 -3 4 -4 4 -3 4 -3 4 -3 
4 -3 3 -4 4 -3 4 -3 4 -3 4 -3 3 -3 4 -3 
4 -3 4 -2 4 -3 3 -3 4 -3 4 -2 4 -3 4 -3 
4 -2 3 -3 4 -2 4 -3 4 -2 4 -3 3 -2 4 -2 
4 -2 4 -3 4 -2 4 -2 3 -2 4 -2 4 -2 4 -2 
4 -2 3 -2 4 -1 4 -2 4 -2 4 -2 3 -1 4 -2 
4 -1 4 -2 4 -1 4 -2 3 -1 4 -1 4 -2 4 -1 
4 -1 3 -1 4 -2 4 -1 4 -1 4 -1 3 -1 4 -1 
4 -1 4 0 4 -1 4 -1 3 -1 4 0 4 -1 4 -1 
4 0 3 -1 4 -1 4 0 4 0 4 -1 4 0 3 -1 
4 0 4 0 4 -1 4 0 3 0 4 0 4 0 4 0 
4 0 3 0 4 0 4 0 4 0 4 0 4 0 3 0 
4 0 4 0 4 0 4 1 3 0 4 0 4 1 4 0 
4 0 3 1 4 0 4 1 4 0 4 1 4 0 3 1 
4 0 4 1 4 1 4 0 3 1 4 0 4 1 4 1 
4 1 4 0 3 1 4 1 4 1 4 1 4 0 3 1 
4 1 4 1 4 1 4 1 3 1 4 1 4 1 4 1 
4 1 4 1 3 0 4 1 4 1 4 2 4 1 3 1 
4 1 4 1 4 1 4 1 3 1 4 1 4 1 4 1 
4 1 4 1 3 1 4 1 4 1 4 1 4 1 3 1 
4 1 4 2 4 1 9994 2709 300 MP stroke
4 1 4 1 3 1 4 1 4 1 4 1 4 1 3 1 
4 0 4 1 4 1 4 1 3 1 4 1 4 1 4 1 
4 1 4 0 3 1 4 1 4 1 4 0 4 1 3 1 
4 0 4 1 4 1 4 0 3 1 4 0 4 1 4 0 
4 1 4 0 3 0 4 1 4 0 4 0 4 1 3 0 
4 0 4 0 4 0 4 0 4 1 3 0 4 0 4 0 
4 -1 4 0 3 0 4 0 4 0 4 0 4 -1 3 0 
4 0 4 -1 4 0 4 0 4 -1 3 0 4 -1 4 0 
4 -1 4 -1 3 0 4 -1 4 0 4 -1 4 -1 3 -1 
4 -1 4 0 4 -1 4 -1 4 -1 3 -1 4 -1 4 -1 
4 -1 4 -1 3 -1 4 -1 4 -1 4 -1 4 -1 4 -1 
3 -1 4 -2 4 -1 4 -1 4 -1 3 -1 4 -1 4 -2 
4 -1 4 -1 3 -2 4 -1 4 -1 4 -1 4 -2 4 -1 
3 -1 4 -2 4 -1 4 -1 4 -2 3 -1 4 -1 4 -2 
4 -1 4 -1 3 -2 4 -1 4 -1 4 -2 4 -1 4 -1 
3 -2 4 -1 4 -2 4 -1 4 -1 3 -2 4 -1 4 -1 
4 -1 4 -2 4 -1 3 -1 4 -2 4 -1 4 -1 4 -1 
3 -2 4 -1 4 -1 4 -1 4 -2 3 -1 4 -1 4 -1 
4 -1 4 -2 4 -1 3 -1 4 -1 4 -1 4 -1 4 -1 
3 -1 4 -1 4 -1 4 -1 4 -1 3 -1 4 -1 4 -1 
4 -1 4 -1 4 -1 3 -1 4 -1 4 0 4 -1 4 -1 
3 -1 4 -1 4 0 4 -1 4 -1 4 0 3 -1 4 -1 
4 0 4 -1 4 0 3 -1 4 -1 4 0 4 -1 4 0 
3 0 4 -1 4 0 4 -1 4 0 4 0 3 0 4 -1 
4 0 4 0 4 0 3 -1 4 0 4 0 4 0 4 0 
3 0 4 0 4 0 4 0 4 0 4 0 3 1 4 0 
4 0 4 0 4 1 3 0 4 0 4 1 4 0 4 0 
4 1 3 0 4 1 4 1 4 0 4 1 3 0 4 1 
4 1 4 1 4 0 3 1 4 1 4 1 4 1 4 1 
4 1 3 1 4 1 4 1 4 2 4 1 3 1 4 1 
4 2 4 1 4 1 4 2 3 1 4 2 4 2 4 1 
4 2 3 2 4 1 4 2 4 2 4 2 3 2 4 2 
4 2 4 2 4 2 4 2 3 2 4 3 4 2 4 2 
4 3 3 2 4 3 4 2 4 3 4 2 3 3 4 3 
4 3 4 2 4 3 4 3 3 3 4 3 4 3 4 4 
4 3 3 3 4 3 4 4 4 3 4 4 4 3 3 4 
4 3 4 4 4 4 4 4 3 3 4 4 4 4 4 4 
4 4 3 4 4 4 8854 2634 300 MP stroke
4 4 4 4 4 5 4 4 3 4 4 4 4 4 4 5 
4 4 3 4 4 4 4 4 4 4 4 4 3 4 4 4 
4 4 4 4 4 4 4 3 3 3 4 4 4 3 4 2 
4 3 3 2 4 2 4 2 4 2 4 1 4 1 3 1 
4 0 4 0 4 0 4 0 3 -1 4 -1 4 -2 4 -2 
4 -2 3 -2 4 -2 4 -3 4 -2 4 -3 4 -3 3 -4 
4 -3 4 -3 4 -4 4 -3 3 -4 4 -4 4 -3 4 -4 
4 -4 3 -4 4 -3 4 -4 4 -4 4 -4 4 -3 3 -4 
4 -4 4 -3 4 -4 4 -4 3 -3 4 -4 4 -3 4 -4 
4 -3 4 -3 3 -4 4 -3 4 -3 4 -3 4 -3 3 -3 
4 -3 4 -3 4 -3 4 -3 3 -3 4 -3 4 -3 4 -2 
4 -3 4 -3 3 -2 4 -3 4 -2 4 -3 4 -2 3 -2 
4 -3 4 -2 4 -2 4 -2 3 -2 4 -2 4 -2 4 -2 
4 -2 4 -2 3 -2 4 -2 4 -2 4 -2 4 -1 3 -2 
4 -2 4 -1 4 -2 4 -2 4 -1 3 -2 4 -1 4 -1 
4 -2 4 -1 3 -1 4 -2 4 -1 4 -1 4 -1 3 -2 
4 -1 4 -1 4 -1 4 -1 4 -1 3 -1 4 -1 4 -1 
4 -1 4 0 3 -1 4 -1 4 -1 4 -1 4 0 3 -1 
4 -1 4 0 4 -1 4 -1 4 0 3 -1 4 0 4 -1 
4 0 4 -1 3 0 4 0 4 -1 4 0 4 0 4 -1 
3 0 4 0 4 -1 4 0 4 0 3 0 4 0 4 0 
4 -1 4 0 3 0 4 0 4 0 4 0 4 0 4 0 
3 0 4 0 4 0 4 0 4 0 3 0 4 1 4 0 
4 0 4 0 3 0 4 1 4 0 4 0 4 0 4 1 
3 0 4 0 4 0 4 1 4 0 3 0 4 1 4 0 
4 1 4 0 4 0 3 1 4 0 4 1 4 0 4 1 
3 0 4 1 4 0 4 1 4 0 3 1 4 0 4 1 
4 1 4 0 4 1 3 0 4 1 4 1 4 0 4 1 
3 1 4 0 4 1 4 1 4 0 3 1 4 1 4 0 
4 1 4 1 4 1 3 0 4 1 4 1 4 1 4 0 
3 1 4 1 4 1 4 0 4 1 4 1 3 1 4 1 
4 0 4 1 4 1 3 1 4 1 4 1 4 0 4 1 
3 1 4 1 4 1 4 0 4 1 4 1 3 1 4 1 
4 1 4 0 4 1 3 1 4 1 4 1 4 1 4 0 
3 1 4 1 4 1 4 1 4 1 4 0 3 1 4 1 
4 1 4 1 4 1 3 0 4 1 4 1 4 1 4 1 
4 0 3 1 4 1 4 1 4 0 4 1 3 1 4 1 
4 0 4 1 4 1 7713 2711 300 MP stroke
3 1 4 0 4 1 4 1 4 0 4 1 3 1 4 0 
4 1 4 1 4 0 3 1 4 1 4 0 4 1 4 1 
3 0 4 1 4 0 4 1 4 0 4 1 3 1 4 0 
4 1 4 0 4 1 3 0 4 0 4 1 4 0 4 1 
4 0 3 1 4 0 4 0 4 1 4 0 3 1 4 0 
4 0 4 1 4 0 3 0 4 1 4 0 4 0 4 0 
4 1 3 0 4 0 4 0 4 1 4 0 3 0 4 0 
4 0 4 0 4 1 3 0 4 0 4 0 4 0 4 0 
4 0 3 0 4 1 4 0 4 0 4 0 3 0 4 0 
4 0 4 0 4 0 4 0 3 0 4 0 4 0 4 0 
4 0 3 0 4 0 4 0 4 0 4 0 3 0 4 0 
4 0 4 0 4 0 4 0 3 0 4 -1 4 0 4 0 
4 0 3 0 4 0 4 0 4 0 4 0 3 0 4 0 
4 0 4 0 4 0 4 0 3 0 4 0 4 0 4 0 
4 0 3 -1 4 0 4 0 4 0 4 0 4 0 3 0 
4 0 4 0 4 0 4 0 3 0 4 0 4 1 4 0 
4 0 3 0 4 0 4 0 4 0 4 0 4 0 3 0 
4 0 4 0 4 1 4 0 3 0 4 0 4 0 4 0 
4 1 4 0 3 0 4 0 4 0 4 1 4 0 3 0 
4 0 4 1 4 0 4 0 3 1 4 0 4 0 4 1 
4 0 4 0 3 1 4 0 4 0 4 1 4 0 3 1 
4 0 4 1 4 0 4 0 3 1 4 0 4 1 4 0 
4 1 4 1 3 0 4 1 4 0 4 1 4 0 3 1 
4 1 4 0 4 1 4 0 4 1 3 1 4 0 4 1 
4 1 4 0 3 1 4 1 4 0 4 1 4 1 3 0 
4 1 4 1 4 1 4 0 4 1 3 1 4 0 4 1 
4 1 4 1 3 0 4 1 4 1 4 0 4 1 3 1 
4 1 4 0 4 1 4 1 4 0 3 1 4 1 4 0 
4 1 4 1 3 0 4 1 4 0 4 1 4 1 4 0 
3 1 4 0 4 1 4 0 4 1 3 0 4 0 4 1 
4 0 4 1 3 0 4 0 4 1 4 0 4 0 4 0 
3 1 4 0 4 0 4 0 4 0 3 0 4 0 4 0 
4 0 4 0 3 0 4 0 4 0 4 0 4 0 4 0 
3 -1 4 0 4 0 4 0 4 -1 3 0 4 0 4 -1 
4 0 4 0 4 -1 3 0 4 -1 4 0 4 -1 4 0 
3 -1 4 0 4 -1 4 0 4 -1 3 -1 4 0 4 -1 
4 -1 4 0 4 -1 3 0 4 -1 4 -1 4 -1 4 0 
3 -1 4 -1 4 0 6573 2646 300 MP stroke
4 -1 4 -1 3 0 4 -1 4 -1 4 -1 4 0 4 -1 
3 -1 4 -1 4 0 4 -1 4 -1 3 0 4 -1 4 -1 
4 -1 4 0 4 -1 3 -1 4 -1 4 0 4 -1 4 -1 
3 0 4 -1 4 -1 4 0 4 -1 3 -1 4 0 4 -1 
4 -1 4 0 4 -1 3 -1 4 0 4 -1 4 -1 4 0 
3 -1 4 0 4 -1 4 -1 4 0 3 -1 4 0 4 -1 
4 -1 4 0 4 -1 3 0 4 -1 4 0 4 -1 4 0 
3 -1 4 0 4 -1 4 0 4 -1 4 0 3 -1 4 0 
4 -1 4 0 4 -1 3 0 4 -1 4 0 4 -1 4 0 
3 -1 4 0 4 0 4 -1 4 0 4 -1 3 0 4 0 
4 -1 4 0 4 -1 3 0 4 0 4 -1 4 0 4 -1 
3 0 4 0 4 -1 4 0 4 0 4 -1 3 0 4 0 
4 -1 4 0 4 0 3 -1 4 0 4 0 4 -1 4 0 
4 0 3 0 4 -1 4 0 4 0 4 -1 3 0 4 0 
4 -1 4 0 4 0 3 0 4 -1 4 0 4 0 4 0 
4 -1 3 0 4 0 4 -1 4 0 4 0 3 0 4 -1 
4 0 4 0 4 0 3 -1 4 0 4 0 4 0 4 -1 
4 0 3 0 4 0 4 0 4 -1 4 0 3 0 4 0 
4 -1 4 0 4 0 4 0 3 -1 4 0 4 0 4 0 
4 0 3 -1 4 0 4 0 4 0 4 0 3 -1 4 0 
4 0 4 0 4 -1 4 0 3 0 4 0 4 0 4 -1 
4 0 3 0 4 0 4 0 4 -1 4 0 3 0 4 0 
4 0 4 -1 4 0 4 0 3 0 4 0 4 0 4 -1 
4 0 3 0 4 0 4 0 4 -1 4 0 4 0 3 0 
4 0 4 0 4 -1 4 0 3 0 4 0 4 0 4 0 
4 0 3 -1 4 0 4 0 4 0 4 0 4 0 3 0 
4 -1 4 0 4 0 4 0 3 0 4 0 4 0 4 0 
4 0 3 -1 4 0 4 0 4 0 4 0 4 0 3 0 
4 0 4 0 4 0 4 0 3 -1 4 0 4 0 4 0 
4 0 4 0 3 0 4 0 4 0 4 0 4 0 3 0 
4 0 4 0 4 0 4 0 3 0 4 0 4 0 4 0 
4 0 4 0 3 0 4 0 4 0 4 0 4 0 3 1 
4 0 4 0 4 0 4 0 3 0 4 0 4 0 4 0 
4 0 4 1 3 0 4 0 4 0 4 0 4 0 3 1 
4 0 4 0 4 0 4 0 4 1 3 0 4 0 4 0 
4 1 4 0 3 0 4 0 4 1 4 0 4 0 3 1 
4 0 4 0 4 1 4 0 4 0 3 1 4 0 4 0 
4 1 4 0 3 1 5433 2717 300 MP stroke
4 0 4 1 4 0 4 0 3 1 4 0 4 1 4 0 
4 1 4 0 3 1 4 1 4 0 4 1 4 0 3 1 
4 0 4 1 4 1 4 0 4 1 3 1 4 0 4 1 
4 1 4 0 3 1 4 1 4 1 4 0 4 1 3 1 
4 1 4 1 4 0 4 1 4 1 3 1 4 1 4 1 
4 1 4 1 3 1 4 0 4 1 4 1 4 1 4 1 
3 1 4 1 4 1 4 1 4 1 3 2 4 1 4 1 
4 1 4 1 3 1 4 1 4 1 4 1 4 1 4 2 
3 1 4 1 4 1 4 1 4 1 3 2 4 1 4 1 
4 1 4 1 3 1 4 2 4 1 4 1 4 1 4 1 
3 1 4 1 4 2 4 1 4 1 3 1 4 1 4 1 
4 1 4 1 4 0 3 1 4 1 4 1 4 1 4 0 
3 1 4 1 4 0 4 1 4 0 3 0 4 1 4 0 
4 0 4 0 4 0 3 0 4 0 4 0 4 0 4 0 
3 0 4 -1 4 0 4 0 4 -1 3 0 4 -1 4 0 
4 -1 4 0 4 -1 3 -1 4 0 4 -1 4 -1 4 -1 
3 0 4 -1 4 -1 4 -1 4 -1 4 0 3 -1 4 -1 
4 -1 4 -1 4 -1 3 0 4 -1 4 -1 4 -1 4 -1 
3 0 4 -1 4 -1 4 -1 4 -1 4 0 3 -1 4 -1 
4 0 4 -1 4 -1 3 -1 4 0 4 -1 4 -1 4 0 
3 -1 4 -1 4 0 4 -1 4 0 4 -1 3 -1 4 0 
4 -1 4 0 4 -1 3 0 4 -1 4 0 4 -1 4 0 
4 -1 3 0 4 -1 4 0 4 -1 4 0 3 -1 4 0 
4 0 4 -1 4 0 3 -1 4 0 4 0 4 -1 4 0 
4 0 3 0 4 -1 4 0 4 0 4 -1 3 0 4 0 
4 0 4 -1 4 0 3 0 4 0 4 0 4 -1 4 0 
4 0 3 0 4 0 4 0 4 -1 4 0 3 0 4 0 
4 0 4 0 4 0 4 0 3 0 4 -1 4 0 4 0 
4 0 3 0 4 0 4 0 4 0 4 0 3 0 4 0 
4 0 4 0 4 0 4 0 3 0 4 0 4 0 4 0 
4 0 3 0 4 0 4 0 4 1 4 0 3 0 4 0 
4 0 4 0 4 0 4 0 3 0 4 0 4 1 4 0 
4 0 3 0 4 0 4 0 4 0 4 0 4 1 3 0 
4 0 4 0 4 0 4 0 3 1 4 0 4 0 4 0 
4 0 3 0 4 1 4 0 4 0 4 0 4 0 3 1 
4 0 4 0 4 0 4 0 3 1 4 0 4 0 4 0 
4 0 3 1 4 0 4 0 4 0 4 0 4 1 3 0 
4 0 4 0 4 1 4292 2674 300 MP stroke
4 0 3 0 4 0 4 0 4 1 4 0 4 0 3 0 
4 0 4 1 4 0 4 0 3 0 4 0 4 0 4 1 
4 0 3 0 4 0 4 0 4 1 4 0 4 0 3 0 
4 0 4 0 4 0 4 1 3 0 4 0 4 0 4 0 
4 0 3 0 4 0 4 1 4 0 4 0 4 0 3 0 
4 0 4 0 4 0 4 0 3 0 4 0 4 0 4 0 
4 0 4 1 3 0 4 0 4 0 4 0 4 0 3 0 
4 0 4 0 4 0 4 0 3 0 4 -1 4 0 4 0 
4 0 4 0 3 0 4 0 4 0 4 0 4 0 3 0 
4 0 4 0 4 0 4 -1 3 0 4 0 4 0 4 0 
4 0 4 0 3 0 4 0 4 -1 4 0 4 0 3 0 
4 0 4 0 4 0 4 -1 4 0 3 0 4 0 4 0 
4 0 4 -1 3 0 4 0 4 0 4 0 4 0 3 -1 
4 0 4 0 4 0 4 0 4 -1 3 0 4 0 4 0 
4 0 4 0 3 -1 4 0 4 0 4 0 4 0 3 -1 
4 0 4 0 4 0 4 0 4 0 3 -1 4 0 4 0 
4 0 4 0 3 -1 4 0 4 0 4 0 4 0 4 0 
3 -1 4 0 4 0 4 0 4 0 3 0 4 -1 4 0 
4 0 4 0 3 0 4 0 4 -1 4 0 4 0 4 0 
3 0 4 0 4 0 4 -1 4 0 3 0 4 0 4 0 
4 0 4 0 3 -1 4 0 4 0 4 0 4 0 4 0 
3 0 4 0 4 0 4 -1 4 0 3 0 4 0 4 0 
4 0 4 0 4 0 3 0 4 0 4 -1 4 0 4 0 
3 0 4 0 4 0 4 0 4 0 3 0 4 0 4 0 
4 0 4 0 4 0 3 0 4 0 4 0 4 0 4 0 
3 0 4 -1 4 0 4 0 4 0 3 0 4 0 4 0 
4 0 4 0 4 0 3 0 4 0 4 1 4 0 4 0 
3 0 4 0 4 0 4 0 4 0 4 0 3 0 4 0 
4 0 4 0 4 0 3 0 4 0 4 0 4 0 4 0 
3 1 4 0 4 0 4 0 4 0 4 0 3 0 4 0 
4 0 4 1 4 0 3 0 4 0 4 0 4 0 4 0 
4 0 3 1 4 0 4 0 4 0 4 0 3 0 4 1 
4 0 4 0 4 0 3 0 4 1 4 0 4 0 4 0 
4 0 3 1 4 0 4 0 4 0 4 1 3 0 4 0 
4 0 4 1 4 0 3 0 4 0 4 1 4 0 4 0 
4 1 3 0 4 0 4 0 4 1 4 0 3 0 4 1 
4 0 4 0 4 1 4 0 3 0 4 1 4 0 4 0 
4 1 3 0 4 0 3152 2670 300 MP stroke
4 1 4 0 4 0 3 1 4 0 4 1 4 0 4 0 
4 1 3 0 4 0 4 1 4 0 4 1 3 0 4 0 
4 1 4 0 4 0 3 1 4 0 4 0 4 1 4 0 
4 0 3 0 4 1 4 0 4 0 4 0 3 1 4 0 
4 0 4 0 4 0 4 0 3 0 4 0 4 0 4 0 
4 0 3 0 4 0 4 0 4 0 4 0 3 0 4 0 
4 0 4 0 4 -1 4 0 3 0 4 0 4 0 4 0 
4 0 3 -1 4 0 4 0 4 0 4 0 3 0 4 0 
4 -1 4 0 4 0 4 0 3 0 4 0 4 0 4 0 
4 -1 3 0 4 0 4 0 4 0 4 0 4 0 3 0 
4 0 4 0 4 0 4 -1 3 0 4 0 4 0 4 0 
4 0 3 0 4 0 4 0 4 0 4 0 4 0 3 0 
4 -1 4 0 4 0 4 0 3 0 4 0 4 0 4 0 
4 0 3 0 4 0 4 0 4 0 4 0 4 0 3 0 
4 0 4 0 4 0 4 -1 3 0 4 0 4 0 4 0 
4 0 4 0 3 0 4 0 4 0 4 0 4 0 3 0 
4 0 4 0 4 0 4 0 3 0 4 0 4 0 4 0 
4 0 4 0 3 0 4 0 4 0 4 0 4 0 3 0 
4 0 4 0 4 0 4 0 3 0 4 0 4 0 4 0 
4 0 4 0 3 0 4 0 4 -1 4 0 4 0 3 0 
4 0 4 0 4 0 4 0 4 0 3 0 4 0 4 0 
4 0 4 0 3 0 4 0 4 0 4 0 4 0 3 0 
4 0 4 0 4 0 4 0 4 0 3 0 4 0 4 0 
4 0 4 0 3 0 4 0 4 0 4 0 4 0 3 0 
4 0 4 0 4 0 4 0 4 0 3 0 4 0 4 0 
4 0 4 0 3 0 4 0 4 0 4 0 4 0 4 0 
3 0 4 0 4 1 4 0 4 0 3 0 4 0 4 0 
4 0 4 0 3 0 4 0 4 0 4 0 4 0 4 0 
3 0 4 0 4 0 4 0 4 0 3 0 4 0 4 0 
4 0 4 0 3 0 4 0 4 0 4 0 4 0 4 0 
3 0 4 0 4 0 4 0 4 0 3 0 4 0 4 0 
4 0 4 0 4 0 3 0 4 0 4 0 4 0 4 0 
3 0 4 0 4 0 4 0 4 0 3 0 4 0 4 0 
4 0 4 0 4 0 3 0 4 0 4 0 4 0 4 0 
3 0 4 0 4 0 4 0 4 0 3 0 4 0 4 0 
4 0 4 1 4 0 3 0 4 0 4 0 4 0 4 0 
3 0 4 0 4 0 4 0 4 0 4 0 3 0 4 0 
4 0 4 0 4 0 2011 2665 300 MP stroke
3 0 4 0 4 0 4 0 4 0 3 0 4 0 4 0 
4 0 4 0 4 0 3 0 4 0 4 0 4 0 4 0 
3 0 4 0 4 0 4 0 4 0 3 0 4 0 4 0 
4 0 4 0 4 0 3 0 4 0 4 0 4 0 4 0 
3 0 4 0 4 0 4 0 4 0 4 0 3 0 4 0 
4 0 4 0 4 0 3 0 4 0 4 0 4 0 4 0 
3 0 4 0 4 0 4 0 4 0 4 0 3 0 4 0 
4 0 4 0 4 0 3 0 4 0 4 0 4 0 4 0 
3 0 4 0 4 0 4 0 4 0 4 0 3 0 4 0 
4 0 4 0 4 0 3 0 4 0 4 0 4 0 4 0 
4 0 3 0 4 0 4 0 4 0 4 0 3 0 4 0 
4 0 4 0 4 0 3 0 4 0 4 0 4 0 4 0 
4 0 3 0 4 0 4 0 4 0 4 0 3 0 4 0 
4 0 4 0 4 0 3 0 1600 2665 109 MP stroke
/c12 { 0.000000 1.000000 0.000000 sr} bdef
c12
4 1 4 1 4 0 4 1 4 1 3 0 4 1 4 1 
4 1 4 0 3 1 4 1 4 1 4 1 4 1 4 1 
3 1 4 0 4 1 4 1 4 1 3 1 4 1 4 1 
4 1 4 2 3 1 4 1 4 1 4 1 4 1 4 1 
3 2 4 1 4 1 4 1 4 2 3 1 4 1 4 1 
4 2 4 1 4 1 3 2 4 1 4 2 4 1 4 2 
3 1 4 2 4 1 4 2 4 1 3 2 4 1 4 2 
4 1 4 2 4 2 3 1 4 2 4 1 4 2 4 2 
3 1 4 2 4 2 4 1 4 2 3 2 4 1 4 2 
4 2 4 1 4 2 3 1 4 2 4 2 4 1 4 2 
3 1 4 1 4 2 4 1 4 2 4 1 3 1 4 1 
4 1 4 1 4 1 3 1 4 1 4 1 4 1 4 0 
3 1 4 0 4 0 4 1 4 0 4 0 3 0 4 0 
4 0 4 -1 4 0 3 0 4 -1 4 0 4 -1 4 -1 
3 -1 4 -1 4 -1 4 -1 4 -1 4 -1 3 -1 4 -1 
4 -1 4 -2 4 -1 3 -1 4 -2 4 -1 4 -2 4 -1 
4 -1 3 -2 4 -1 4 -2 4 -1 4 -2 3 -1 4 -2 
4 -1 4 -2 4 -2 3 -1 4 -1 4 -2 4 -1 4 -2 
4 -1 3 -2 4 -1 4 -2 4 -1 4 -1 3 -2 4 -1 
4 -2 4 -1 4 -1 3 -1 4 -2 4 -1 4 -1 4 -1 
4 -2 3 -1 4 -1 4 -1 4 -1 4 -1 3 -1 4 -1 
4 -1 4 -1 4 -1 4 -1 3 -1 4 -1 4 -1 4 -1 
4 -1 3 -1 4 -1 4 0 4 -1 4 -1 3 -1 4 -1 
4 0 4 -1 4 -1 4 0 3 -1 4 -1 4 0 4 -1 
4 0 3 -1 4 0 4 -1 4 0 4 -1 3 0 4 -1 
4 0 4 -1 4 0 4 0 3 -1 4 0 4 0 4 -1 
4 0 3 0 4 0 4 -1 4 0 4 0 4 0 3 0 
4 0 4 -1 4 0 4 0 3 0 4 0 4 0 4 0 
4 0 3 0 4 0 4 0 4 0 4 0 4 0 3 0 
4 0 4 0 4 0 4 0 3 0 4 1 4 0 4 0 
4 0 3 0 4 1 4 0 4 0 4 0 4 0 3 1 
4 0 4 0 4 0 4 1 3 0 4 0 4 1 4 0 
4 0 4 1 3 0 4 0 4 1 4 0 4 1 3 0 
4 0 4 1 4 0 4 1 3 0 4 0 4 1 4 0 
4 1 4 0 3 1 4 0 4 1 4 0 4 1 3 0 
4 0 4 1 4 0 4 1 3 0 4 1 4 0 4 1 
4 0 4 1 3 0 4 1 4 0 4 1 4 0 3 1 
4 0 4 1 4 0 9994 2685 300 MP stroke
4 1 4 0 3 1 4 0 4 1 4 0 4 0 3 1 
4 0 4 1 4 0 4 1 3 0 4 0 4 1 4 0 
4 1 4 0 3 0 4 1 4 0 4 0 4 1 3 0 
4 0 4 1 4 0 4 0 3 0 4 1 4 0 4 0 
4 0 4 0 3 1 4 0 4 0 4 0 4 0 3 0 
4 0 4 1 4 0 4 0 4 0 3 0 4 0 4 0 
4 0 4 0 3 0 4 -1 4 0 4 0 4 0 3 0 
4 0 4 0 4 0 4 -1 4 0 3 0 4 0 4 -1 
4 0 4 0 3 0 4 -1 4 0 4 0 4 -1 3 0 
4 0 4 -1 4 0 4 -1 4 0 3 0 4 -1 4 0 
4 -1 4 0 3 -1 4 0 4 -1 4 0 4 -1 4 0 
3 -1 4 0 4 -1 4 0 4 -1 3 0 4 -1 4 -1 
4 0 4 -1 3 0 4 -1 4 0 4 -1 4 -1 4 0 
3 -1 4 0 4 -1 4 -1 4 0 3 -1 4 -1 4 0 
4 -1 4 0 3 -1 4 -1 4 0 4 -1 4 -1 4 0 
3 -1 4 0 4 -1 4 -1 4 0 3 -1 4 -1 4 0 
4 -1 4 0 4 -1 3 -1 4 0 4 -1 4 0 4 -1 
3 0 4 -1 4 -1 4 0 4 -1 3 0 4 -1 4 0 
4 -1 4 0 4 -1 3 0 4 -1 4 0 4 -1 4 0 
3 -1 4 0 4 -1 4 0 4 -1 3 0 4 -1 4 0 
4 -1 4 0 4 0 3 -1 4 0 4 -1 4 0 4 0 
3 -1 4 0 4 0 4 -1 4 0 4 0 3 -1 4 0 
4 0 4 -1 4 0 3 0 4 0 4 -1 4 0 4 0 
3 0 4 0 4 -1 4 0 4 0 4 0 3 0 4 0 
4 0 4 0 4 -1 3 0 4 0 4 0 4 0 4 0 
3 0 4 0 4 0 4 0 4 0 4 0 3 0 4 1 
4 0 4 0 4 0 3 0 4 0 4 0 4 1 4 0 
4 0 3 0 4 0 4 1 4 0 4 0 3 1 4 0 
4 0 4 1 4 0 3 0 4 1 4 0 4 1 4 0 
4 1 3 0 4 1 4 0 4 1 4 0 3 1 4 0 
4 1 4 1 4 0 4 1 3 1 4 0 4 1 4 1 
4 1 3 0 4 1 4 1 4 1 4 1 3 1 4 0 
4 1 4 1 4 1 4 1 3 1 4 1 4 1 4 1 
4 2 3 1 4 1 4 1 4 1 4 1 3 2 4 1 
4 1 4 2 4 1 4 1 3 2 4 1 4 1 4 2 
4 1 3 2 4 1 4 2 4 2 4 1 4 2 3 1 
4 2 4 2 4 1 4 2 3 2 4 2 4 2 4 1 
4 2 3 2 4 2 8854 2650 300 MP stroke
4 2 4 2 4 2 4 2 3 1 4 2 4 2 4 2 
4 2 3 2 4 2 4 2 4 2 4 2 3 2 4 1 
4 2 4 2 4 2 4 1 3 2 4 1 4 2 4 1 
4 1 3 1 4 1 4 1 4 1 4 0 4 1 3 0 
4 0 4 0 4 0 4 0 3 0 4 -1 4 -1 4 0 
4 -1 3 -1 4 -1 4 -2 4 -1 4 -1 4 -2 3 -1 
4 -2 4 -1 4 -2 4 -1 3 -2 4 -2 4 -1 4 -2 
4 -2 3 -2 4 -1 4 -2 4 -2 4 -2 4 -1 3 -2 
4 -2 4 -1 4 -2 4 -2 3 -1 4 -2 4 -2 4 -1 
4 -2 4 -1 3 -2 4 -1 4 -2 4 -1 4 -2 3 -1 
4 -1 4 -2 4 -1 4 -2 3 -1 4 -1 4 -1 4 -2 
4 -1 4 -1 3 -1 4 -1 4 -2 4 -1 4 -1 3 -1 
4 -1 4 -1 4 -1 4 -1 3 -1 4 -1 4 -1 4 -1 
4 -1 4 -1 3 0 4 -1 4 -1 4 -1 4 -1 3 -1 
4 0 4 -1 4 -1 4 0 4 -1 3 -1 4 -1 4 0 
4 -1 4 0 3 -1 4 -1 4 0 4 -1 4 0 3 -1 
4 0 4 -1 4 0 4 -1 4 0 3 -1 4 0 4 -1 
4 0 4 0 3 -1 4 0 4 -1 4 0 4 0 3 -1 
4 0 4 0 4 0 4 -1 4 0 3 0 4 0 4 -1 
4 0 4 0 3 0 4 -1 4 0 4 0 4 0 4 0 
3 0 4 0 4 -1 4 0 4 0 3 0 4 0 4 0 
4 0 4 0 3 0 4 0 4 0 4 0 4 0 4 0 
3 0 4 0 4 0 4 0 4 0 3 0 4 0 4 0 
4 0 4 0 3 0 4 0 4 1 4 0 4 0 4 0 
3 0 4 0 4 0 4 0 4 1 3 0 4 0 4 0 
4 0 4 1 4 0 3 0 4 0 4 0 4 1 4 0 
3 0 4 0 4 1 4 0 4 0 3 0 4 1 4 0 
4 0 4 0 4 1 3 0 4 0 4 0 4 1 4 0 
3 0 4 1 4 0 4 0 4 1 3 0 4 0 4 1 
4 0 4 0 4 1 3 0 4 0 4 1 4 0 4 0 
3 1 4 0 4 0 4 1 4 0 4 0 3 1 4 0 
4 1 4 0 4 0 3 1 4 0 4 0 4 1 4 0 
3 1 4 0 4 0 4 1 4 0 4 0 3 1 4 0 
4 1 4 0 4 0 3 1 4 0 4 1 4 0 4 0 
3 1 4 0 4 1 4 0 4 0 4 1 3 0 4 0 
4 1 4 0 4 1 3 0 4 0 4 1 4 0 4 0 
4 1 3 0 4 0 4 1 4 0 4 1 3 0 4 0 
4 1 4 0 4 0 7713 2686 300 MP stroke
3 1 4 0 4 0 4 1 4 0 4 0 3 0 4 1 
4 0 4 0 4 1 3 0 4 0 4 1 4 0 4 0 
3 0 4 1 4 0 4 0 4 0 4 1 3 0 4 0 
4 0 4 1 4 0 3 0 4 0 4 1 4 0 4 0 
4 0 3 0 4 1 4 0 4 0 4 0 3 0 4 0 
4 1 4 0 4 0 3 0 4 0 4 0 4 0 4 1 
4 0 3 0 4 0 4 0 4 0 4 0 3 0 4 0 
4 0 4 1 4 0 3 0 4 0 4 0 4 0 4 0 
4 0 3 0 4 0 4 0 4 0 4 0 3 0 4 0 
4 0 4 0 4 0 4 0 3 0 4 0 4 0 4 0 
4 0 3 0 4 0 4 0 4 0 4 0 3 0 4 0 
4 0 4 0 4 0 4 0 3 0 4 0 4 0 4 0 
4 0 3 0 4 0 4 0 4 0 4 0 3 0 4 0 
4 0 4 0 4 0 4 0 3 0 4 0 4 0 4 0 
4 0 3 0 4 0 4 0 4 0 4 0 4 0 3 0 
4 0 4 0 4 0 4 0 3 0 4 0 4 0 4 0 
4 0 3 0 4 0 4 0 4 0 4 0 4 0 3 0 
4 0 4 0 4 0 4 0 3 0 4 0 4 0 4 0 
4 0 4 1 3 0 4 0 4 0 4 0 4 0 3 0 
4 0 4 0 4 1 4 0 3 0 4 0 4 0 4 0 
4 1 4 0 3 0 4 0 4 0 4 0 4 1 3 0 
4 0 4 0 4 0 4 1 3 0 4 0 4 0 4 1 
4 0 4 0 3 0 4 1 4 0 4 0 4 0 3 1 
4 0 4 0 4 0 4 1 4 0 3 0 4 1 4 0 
4 0 4 1 3 0 4 0 4 0 4 1 4 0 3 0 
4 1 4 0 4 0 4 1 4 0 3 0 4 1 4 0 
4 0 4 1 3 0 4 0 4 1 4 0 4 0 3 1 
4 0 4 0 4 1 4 0 4 0 3 1 4 0 4 0 
4 1 4 0 3 0 4 0 4 1 4 0 4 0 4 0 
3 1 4 0 4 0 4 0 4 1 3 0 4 0 4 0 
4 0 4 1 3 0 4 0 4 0 4 0 4 0 4 0 
3 0 4 1 4 0 4 0 4 0 3 0 4 0 4 0 
4 0 4 0 3 0 4 0 4 0 4 0 4 0 4 -1 
3 0 4 0 4 0 4 0 4 0 3 0 4 0 4 -1 
4 0 4 0 4 0 3 0 4 -1 4 0 4 0 4 0 
3 -1 4 0 4 0 4 0 4 -1 3 0 4 0 4 0 
4 -1 4 0 4 0 3 -1 4 0 4 0 4 -1 4 0 
3 0 4 -1 4 0 6573 2656 300 MP stroke
4 0 4 -1 3 0 4 0 4 -1 4 0 4 0 4 -1 
3 0 4 0 4 -1 4 0 4 0 3 -1 4 0 4 0 
4 -1 4 0 4 0 3 -1 4 0 4 0 4 -1 4 0 
3 0 4 -1 4 0 4 0 4 0 3 -1 4 0 4 0 
4 -1 4 0 4 0 3 -1 4 0 4 0 4 -1 4 0 
3 0 4 0 4 -1 4 0 4 0 3 0 4 -1 4 0 
4 0 4 -1 4 0 3 0 4 0 4 -1 4 0 4 0 
3 0 4 -1 4 0 4 0 4 0 4 0 3 -1 4 0 
4 0 4 0 4 -1 3 0 4 0 4 0 4 0 4 -1 
3 0 4 0 4 0 4 0 4 -1 4 0 3 0 4 0 
4 0 4 -1 4 0 3 0 4 0 4 0 4 0 4 -1 
3 0 4 0 4 0 4 0 4 0 4 -1 3 0 4 0 
4 0 4 0 4 0 3 -1 4 0 4 0 4 0 4 0 
4 0 3 0 4 -1 4 0 4 0 4 0 3 0 4 0 
4 0 4 -1 4 0 3 0 4 0 4 0 4 0 4 0 
4 0 3 -1 4 0 4 0 4 0 4 0 3 0 4 0 
4 0 4 0 4 -1 3 0 4 0 4 0 4 0 4 0 
4 0 3 0 4 -1 4 0 4 0 4 0 3 0 4 0 
4 0 4 0 4 0 4 0 3 -1 4 0 4 0 4 0 
4 0 3 0 4 0 4 0 4 0 4 0 3 -1 4 0 
4 0 4 0 4 0 4 0 3 0 4 0 4 0 4 0 
4 -1 3 0 4 0 4 0 4 0 4 0 3 0 4 0 
4 0 4 0 4 0 4 -1 3 0 4 0 4 0 4 0 
4 0 3 0 4 0 4 0 4 0 4 0 4 0 3 -1 
4 0 4 0 4 0 4 0 3 0 4 0 4 0 4 0 
4 0 3 0 4 0 4 0 4 0 4 -1 4 0 3 0 
4 0 4 0 4 0 4 0 3 0 4 0 4 0 4 0 
4 0 3 0 4 0 4 0 4 0 4 0 4 0 3 0 
4 -1 4 0 4 0 4 0 3 0 4 0 4 0 4 0 
4 0 4 0 3 0 4 0 4 0 4 0 4 0 3 0 
4 0 4 0 4 0 4 0 3 0 4 0 4 0 4 0 
4 0 4 0 3 0 4 0 4 0 4 0 4 0 3 0 
4 0 4 0 4 0 4 0 3 1 4 0 4 0 4 0 
4 0 4 0 3 0 4 0 4 0 4 0 4 0 3 0 
4 0 4 0 4 1 4 0 4 0 3 0 4 0 4 0 
4 0 4 0 3 0 4 1 4 0 4 0 4 0 3 0 
4 0 4 0 4 1 4 0 4 0 3 0 4 0 4 0 
4 1 4 0 3 0 5433 2689 300 MP stroke
4 0 4 0 4 1 4 0 3 0 4 0 4 1 4 0 
4 0 4 0 3 1 4 0 4 0 4 0 4 1 3 0 
4 0 4 0 4 1 4 0 4 0 3 1 4 0 4 0 
4 1 4 0 3 0 4 1 4 0 4 0 4 1 3 0 
4 0 4 1 4 0 4 1 4 0 3 0 4 1 4 0 
4 1 4 0 3 0 4 1 4 0 4 1 4 0 4 1 
3 0 4 1 4 0 4 1 4 0 3 1 4 0 4 1 
4 0 4 1 3 0 4 1 4 0 4 1 4 0 4 1 
3 0 4 1 4 0 4 1 4 0 3 1 4 1 4 0 
4 1 4 0 3 1 4 0 4 1 4 0 4 1 4 0 
3 1 4 0 4 1 4 0 4 1 3 0 4 1 4 0 
4 1 4 0 4 1 3 0 4 0 4 1 4 0 4 0 
3 1 4 0 4 0 4 0 4 1 3 0 4 0 4 0 
4 0 4 0 4 0 3 0 4 0 4 0 4 0 4 0 
3 0 4 0 4 0 4 0 4 -1 3 0 4 0 4 0 
4 -1 4 0 4 0 3 -1 4 0 4 0 4 -1 4 0 
3 0 4 -1 4 0 4 0 4 -1 4 0 3 -1 4 0 
4 0 4 -1 4 0 3 0 4 -1 4 0 4 -1 4 0 
3 0 4 -1 4 0 4 0 4 -1 4 0 3 0 4 -1 
4 0 4 0 4 -1 3 0 4 0 4 -1 4 0 4 0 
3 -1 4 0 4 0 4 -1 4 0 4 0 3 0 4 -1 
4 0 4 0 4 0 3 -1 4 0 4 0 4 0 4 -1 
4 0 3 0 4 0 4 -1 4 0 4 0 3 0 4 0 
4 0 4 -1 4 0 3 0 4 0 4 0 4 0 4 -1 
4 0 3 0 4 0 4 0 4 0 4 0 3 -1 4 0 
4 0 4 0 4 0 3 0 4 0 4 0 4 0 4 0 
4 -1 3 0 4 0 4 0 4 0 4 0 3 0 4 0 
4 0 4 0 4 0 4 0 3 0 4 0 4 0 4 0 
4 0 3 0 4 0 4 0 4 0 4 0 3 0 4 0 
4 0 4 0 4 0 4 0 3 0 4 0 4 0 4 0 
4 0 3 0 4 0 4 0 4 0 4 0 3 0 4 0 
4 0 4 0 4 0 4 0 3 0 4 0 4 0 4 0 
4 0 3 0 4 0 4 0 4 1 4 0 4 0 3 0 
4 0 4 0 4 0 4 0 3 0 4 0 4 0 4 0 
4 0 3 1 4 0 4 0 4 0 4 0 4 0 3 0 
4 0 4 0 4 0 4 0 3 1 4 0 4 0 4 0 
4 0 3 0 4 0 4 0 4 0 4 0 4 1 3 0 
4 0 4 0 4 0 4292 2669 300 MP stroke
4 0 3 0 4 0 4 0 4 0 4 0 4 1 3 0 
4 0 4 0 4 0 4 0 3 0 4 0 4 0 4 0 
4 0 3 1 4 0 4 0 4 0 4 0 4 0 3 0 
4 0 4 0 4 0 4 0 3 0 4 0 4 0 4 1 
4 0 3 0 4 0 4 0 4 0 4 0 4 0 3 0 
4 0 4 0 4 0 4 0 3 0 4 0 4 0 4 0 
4 0 4 0 3 0 4 0 4 0 4 0 4 0 3 0 
4 0 4 0 4 0 4 0 3 0 4 0 4 0 4 0 
4 0 4 0 3 0 4 0 4 0 4 0 4 0 3 0 
4 0 4 0 4 0 4 0 3 0 4 0 4 0 4 -1 
4 0 4 0 3 0 4 0 4 0 4 0 4 0 3 0 
4 0 4 0 4 0 4 0 4 0 3 0 4 -1 4 0 
4 0 4 0 3 0 4 0 4 0 4 0 4 0 3 0 
4 0 4 0 4 0 4 -1 4 0 3 0 4 0 4 0 
4 0 4 0 3 0 4 0 4 0 4 0 4 -1 3 0 
4 0 4 0 4 0 4 0 4 0 3 0 4 0 4 0 
4 0 4 0 3 -1 4 0 4 0 4 0 4 0 4 0 
3 0 4 0 4 0 4 0 4 0 3 0 4 -1 4 0 
4 0 4 0 3 0 4 0 4 0 4 0 4 0 4 0 
3 0 4 0 4 0 4 0 4 -1 3 0 4 0 4 0 
4 0 4 0 3 0 4 0 4 0 4 0 4 0 4 0 
3 0 4 0 4 0 4 0 4 0 3 0 4 -1 4 0 
4 0 4 0 4 0 3 0 4 0 4 0 4 0 4 0 
3 0 4 0 4 0 4 0 4 0 3 0 4 0 4 0 
4 0 4 0 4 0 3 0 4 0 4 0 4 0 4 0 
3 0 4 0 4 0 4 0 4 0 3 0 4 0 4 0 
4 0 4 0 4 0 3 0 4 0 4 0 4 0 4 0 
3 0 4 0 4 0 4 0 4 0 4 0 3 0 4 0 
4 0 4 0 4 0 3 0 4 0 4 0 4 0 4 0 
3 0 4 0 4 0 4 0 4 0 4 0 3 1 4 0 
4 0 4 0 4 0 3 0 4 0 4 0 4 0 4 0 
4 0 3 0 4 0 4 0 4 0 4 1 3 0 4 0 
4 0 4 0 4 0 3 0 4 0 4 0 4 0 4 0 
4 1 3 0 4 0 4 0 4 0 4 0 3 0 4 0 
4 0 4 1 4 0 3 0 4 0 4 0 4 0 4 0 
4 0 3 1 4 0 4 0 4 0 4 0 3 0 4 0 
4 1 4 0 4 0 4 0 3 0 4 0 4 0 4 1 
4 0 3 0 4 0 3152 2667 300 MP stroke
4 0 4 0 4 1 3 0 4 0 4 0 4 0 4 0 
4 1 3 0 4 0 4 0 4 0 4 0 3 1 4 0 
4 0 4 0 4 0 3 0 4 1 4 0 4 0 4 0 
4 0 3 0 4 0 4 1 4 0 4 0 3 0 4 0 
4 0 4 0 4 0 4 0 3 0 4 0 4 0 4 0 
4 0 3 0 4 0 4 0 4 0 4 0 3 0 4 0 
4 0 4 0 4 0 4 0 3 0 4 0 4 -1 4 0 
4 0 3 0 4 0 4 0 4 0 4 0 3 0 4 0 
4 0 4 0 4 0 4 0 3 0 4 0 4 -1 4 0 
4 0 3 0 4 0 4 0 4 0 4 0 4 0 3 0 
4 0 4 0 4 0 4 0 3 0 4 0 4 0 4 0 
4 0 3 0 4 0 4 0 4 0 4 0 4 0 3 -1 
4 0 4 0 4 0 4 0 3 0 4 0 4 0 4 0 
4 0 3 0 4 0 4 0 4 0 4 0 4 0 3 0 
4 0 4 0 4 0 4 0 3 0 4 0 4 0 4 0 
4 0 4 0 3 0 4 0 4 0 4 0 4 0 3 0 
4 0 4 0 4 0 4 0 3 0 4 0 4 0 4 0 
4 0 4 0 3 0 4 0 4 0 4 0 4 0 3 0 
4 0 4 0 4 0 4 0 3 0 4 0 4 0 4 0 
4 0 4 0 3 0 4 0 4 0 4 0 4 0 3 0 
4 0 4 0 4 0 4 0 4 0 3 -1 4 0 4 0 
4 0 4 0 3 0 4 0 4 0 4 0 4 0 3 0 
4 0 4 0 4 0 4 0 4 0 3 0 4 0 4 0 
4 0 4 0 3 0 4 0 4 0 4 0 4 0 3 0 
4 0 4 0 4 0 4 0 4 0 3 0 4 0 4 1 
4 0 4 0 3 0 4 0 4 0 4 0 4 0 4 0 
3 0 4 0 4 0 4 0 4 0 3 0 4 0 4 0 
4 0 4 0 3 0 4 0 4 0 4 0 4 0 4 0 
3 0 4 0 4 0 4 0 4 0 3 0 4 0 4 0 
4 0 4 0 3 0 4 0 4 0 4 0 4 0 4 0 
3 0 4 0 4 0 4 0 4 0 3 0 4 0 4 0 
4 0 4 0 4 0 3 0 4 0 4 0 4 0 4 0 
3 0 4 0 4 0 4 0 4 0 3 0 4 0 4 0 
4 0 4 0 4 0 3 0 4 0 4 0 4 0 4 0 
3 0 4 0 4 0 4 0 4 0 3 0 4 0 4 0 
4 0 4 0 4 0 3 0 4 0 4 0 4 0 4 0 
3 0 4 0 4 0 4 0 4 0 4 0 3 0 4 0 
4 0 4 0 4 0 2011 2665 300 MP stroke
3 0 4 0 4 0 4 0 4 0 3 0 4 0 4 0 
4 0 4 0 4 0 3 0 4 0 4 0 4 0 4 0 
3 0 4 0 4 0 4 0 4 0 3 0 4 0 4 0 
4 0 4 0 4 0 3 0 4 0 4 0 4 0 4 0 
3 0 4 0 4 0 4 0 4 0 4 0 3 0 4 0 
4 0 4 0 4 0 3 0 4 0 4 0 4 0 4 0 
3 0 4 0 4 0 4 0 4 0 4 0 3 0 4 0 
4 0 4 0 4 0 3 0 4 0 4 0 4 0 4 0 
3 0 4 0 4 0 4 0 4 0 4 0 3 0 4 0 
4 0 4 0 4 0 3 0 4 0 4 0 4 0 4 0 
4 0 3 0 4 0 4 0 4 0 4 0 3 0 4 0 
4 0 4 0 4 0 3 0 4 0 4 0 4 0 4 0 
4 0 3 0 4 0 4 0 4 0 4 0 3 0 4 0 
4 0 4 0 4 0 3 0 1600 2665 109 MP stroke
/c13 { 0.000000 1.000000 1.000000 sr} bdef
c13
4 1 4 0 4 0 4 1 4 0 3 0 4 1 4 0 
4 0 4 1 3 0 4 1 4 0 4 0 4 1 4 0 
3 1 4 0 4 1 4 0 4 1 3 0 4 1 4 0 
4 1 4 0 3 1 4 0 4 1 4 0 4 1 4 0 
3 1 4 0 4 1 4 1 4 0 3 1 4 0 4 1 
4 1 4 0 4 1 3 1 4 0 4 1 4 1 4 0 
3 1 4 1 4 1 4 0 4 1 3 1 4 0 4 1 
4 1 4 1 4 1 3 0 4 1 4 1 4 1 4 0 
3 1 4 1 4 1 4 1 4 0 3 1 4 1 4 1 
4 0 4 1 4 1 3 1 4 1 4 0 4 1 4 1 
3 0 4 1 4 1 4 0 4 1 4 1 3 0 4 1 
4 0 4 1 4 0 3 1 4 0 4 0 4 1 4 0 
3 0 4 1 4 0 4 0 4 0 4 0 3 0 4 0 
4 0 4 0 4 0 3 -1 4 0 4 0 4 0 4 -1 
3 0 4 -1 4 0 4 -1 4 0 4 -1 3 0 4 -1 
4 0 4 -1 4 -1 3 0 4 -1 4 -1 4 0 4 -1 
4 -1 3 0 4 -1 4 -1 4 -1 4 0 3 -1 4 -1 
4 0 4 -1 4 -1 3 -1 4 0 4 -1 4 -1 4 0 
4 -1 3 -1 4 0 4 -1 4 -1 4 0 3 -1 4 -1 
4 0 4 -1 4 -1 3 0 4 -1 4 0 4 -1 4 -1 
4 0 3 -1 4 0 4 -1 4 0 4 -1 3 0 4 -1 
4 0 4 -1 4 0 4 -1 3 0 4 -1 4 0 4 -1 
4 0 3 0 4 -1 4 0 4 -1 4 0 3 0 4 -1 
4 0 4 0 4 -1 4 0 3 0 4 -1 4 0 4 0 
4 0 3 -1 4 0 4 0 4 0 4 -1 3 0 4 0 
4 0 4 0 4 -1 4 0 3 0 4 0 4 0 4 0 
4 -1 3 0 4 0 4 0 4 0 4 0 4 0 3 0 
4 0 4 0 4 -1 4 0 3 0 4 0 4 0 4 0 
4 0 3 0 4 0 4 0 4 0 4 0 4 0 3 0 
4 0 4 0 4 0 4 1 3 0 4 0 4 0 4 0 
4 0 3 0 4 0 4 0 4 0 4 0 4 1 3 0 
4 0 4 0 4 0 4 0 3 0 4 0 4 1 4 0 
4 0 4 0 3 0 4 0 4 1 4 0 4 0 3 0 
4 0 4 1 4 0 4 0 3 0 4 0 4 1 4 0 
4 0 4 0 3 0 4 1 4 0 4 0 4 0 3 1 
4 0 4 0 4 0 4 0 3 1 4 0 4 0 4 0 
4 1 4 0 3 0 4 0 4 1 4 0 4 0 3 0 
4 0 4 1 4 0 9994 2674 300 MP stroke
4 0 4 0 3 1 4 0 4 0 4 0 4 0 3 1 
4 0 4 0 4 0 4 1 3 0 4 0 4 0 4 0 
4 0 4 1 3 0 4 0 4 0 4 0 4 0 3 1 
4 0 4 0 4 0 4 0 3 0 4 0 4 1 4 0 
4 0 4 0 3 0 4 0 4 0 4 0 4 0 3 0 
4 0 4 0 4 0 4 0 4 0 3 0 4 0 4 0 
4 0 4 0 3 0 4 0 4 0 4 0 4 0 3 0 
4 0 4 0 4 0 4 0 4 0 3 0 4 -1 4 0 
4 0 4 0 3 0 4 0 4 0 4 -1 4 0 3 0 
4 0 4 0 4 0 4 -1 4 0 3 0 4 0 4 0 
4 -1 4 0 3 0 4 0 4 -1 4 0 4 0 4 0 
3 -1 4 0 4 0 4 0 4 -1 3 0 4 0 4 0 
4 -1 4 0 3 0 4 0 4 -1 4 0 4 0 4 -1 
3 0 4 0 4 0 4 -1 4 0 3 0 4 -1 4 0 
4 0 4 -1 3 0 4 0 4 0 4 -1 4 0 4 0 
3 -1 4 0 4 0 4 -1 4 0 3 0 4 0 4 -1 
4 0 4 0 4 -1 3 0 4 0 4 0 4 -1 4 0 
3 0 4 -1 4 0 4 0 4 0 3 -1 4 0 4 0 
4 0 4 -1 4 0 3 0 4 0 4 -1 4 0 4 0 
3 0 4 -1 4 0 4 0 4 0 3 0 4 -1 4 0 
4 0 4 0 4 0 3 -1 4 0 4 0 4 0 4 0 
3 -1 4 0 4 0 4 0 4 0 4 0 3 -1 4 0 
4 0 4 0 4 0 3 0 4 0 4 0 4 -1 4 0 
3 0 4 0 4 0 4 0 4 0 4 0 3 0 4 0 
4 0 4 0 4 0 3 0 4 0 4 0 4 0 4 0 
3 0 4 0 4 0 4 0 4 0 4 0 3 0 4 0 
4 0 4 0 4 0 3 0 4 0 4 0 4 0 4 0 
4 0 3 0 4 1 4 0 4 0 4 0 3 0 4 0 
4 0 4 1 4 0 3 0 4 0 4 0 4 1 4 0 
4 0 3 0 4 0 4 1 4 0 4 0 3 1 4 0 
4 0 4 0 4 1 4 0 3 0 4 1 4 0 4 0 
4 1 3 0 4 1 4 0 4 0 4 1 3 0 4 1 
4 0 4 1 4 0 4 0 3 1 4 0 4 1 4 0 
4 1 3 1 4 0 4 1 4 0 4 1 3 0 4 1 
4 1 4 0 4 1 4 0 3 1 4 1 4 0 4 1 
4 1 3 1 4 0 4 1 4 1 4 1 4 0 3 1 
4 1 4 1 4 1 4 0 3 1 4 1 4 1 4 1 
4 1 3 1 4 0 8854 2658 300 MP stroke
4 1 4 1 4 1 4 1 3 1 4 1 4 1 4 1 
4 1 3 1 4 1 4 0 4 1 4 1 3 1 4 1 
4 1 4 1 4 0 4 1 3 1 4 1 4 0 4 1 
4 1 3 0 4 1 4 0 4 0 4 1 4 0 3 0 
4 0 4 0 4 0 4 0 3 0 4 -1 4 0 4 0 
4 -1 3 0 4 -1 4 0 4 -1 4 0 4 -1 3 -1 
4 -1 4 0 4 -1 4 -1 3 -1 4 0 4 -1 4 -1 
4 -1 3 -1 4 -1 4 0 4 -1 4 -1 4 -1 3 -1 
4 -1 4 0 4 -1 4 -1 3 -1 4 -1 4 0 4 -1 
4 -1 4 -1 3 0 4 -1 4 -1 4 0 4 -1 3 -1 
4 0 4 -1 4 -1 4 0 3 -1 4 -1 4 0 4 -1 
4 0 4 -1 3 -1 4 0 4 -1 4 0 4 -1 3 0 
4 -1 4 0 4 -1 4 0 3 -1 4 0 4 -1 4 0 
4 0 4 -1 3 0 4 -1 4 0 4 -1 4 0 3 0 
4 -1 4 0 4 0 4 -1 4 0 3 0 4 -1 4 0 
4 0 4 -1 3 0 4 0 4 0 4 -1 4 0 3 0 
4 0 4 -1 4 0 4 0 4 0 3 -1 4 0 4 0 
4 0 4 0 3 -1 4 0 4 0 4 0 4 0 3 0 
4 -1 4 0 4 0 4 0 4 0 3 0 4 0 4 0 
4 -1 4 0 3 0 4 0 4 0 4 0 4 0 4 0 
3 0 4 0 4 0 4 0 4 0 3 -1 4 0 4 0 
4 0 4 0 3 0 4 0 4 0 4 0 4 0 4 0 
3 0 4 0 4 0 4 0 4 0 3 0 4 0 4 0 
4 1 4 0 3 0 4 0 4 0 4 0 4 0 4 0 
3 0 4 0 4 0 4 0 4 0 3 0 4 0 4 0 
4 1 4 0 4 0 3 0 4 0 4 0 4 0 4 0 
3 0 4 0 4 1 4 0 4 0 3 0 4 0 4 0 
4 0 4 0 4 1 3 0 4 0 4 0 4 0 4 0 
3 0 4 1 4 0 4 0 4 0 3 0 4 0 4 0 
4 1 4 0 4 0 3 0 4 0 4 0 4 1 4 0 
3 0 4 0 4 0 4 0 4 1 4 0 3 0 4 0 
4 0 4 1 4 0 3 0 4 0 4 0 4 0 4 1 
3 0 4 0 4 0 4 0 4 1 4 0 3 0 4 0 
4 0 4 0 4 1 3 0 4 0 4 0 4 0 4 1 
3 0 4 0 4 0 4 0 4 0 4 1 3 0 4 0 
4 0 4 0 4 1 3 0 4 0 4 0 4 0 4 0 
4 1 3 0 4 0 4 0 4 0 4 1 3 0 4 0 
4 0 4 0 4 0 7713 2675 300 MP stroke
3 0 4 1 4 0 4 0 4 0 4 0 3 0 4 1 
4 0 4 0 4 0 3 0 4 0 4 0 4 1 4 0 
3 0 4 0 4 0 4 0 4 0 4 0 3 1 4 0 
4 0 4 0 4 0 3 0 4 0 4 0 4 0 4 1 
4 0 3 0 4 0 4 0 4 0 4 0 3 0 4 0 
4 0 4 0 4 0 3 1 4 0 4 0 4 0 4 0 
4 0 3 0 4 0 4 0 4 0 4 0 3 0 4 0 
4 0 4 0 4 0 3 0 4 0 4 0 4 0 4 0 
4 0 3 0 4 0 4 1 4 0 4 0 3 0 4 0 
4 0 4 0 4 0 4 0 3 0 4 0 4 0 4 0 
4 0 3 0 4 0 4 0 4 0 4 0 3 0 4 0 
4 0 4 0 4 0 4 0 3 -1 4 0 4 0 4 0 
4 0 3 0 4 0 4 0 4 0 4 0 3 0 4 0 
4 0 4 0 4 0 4 0 3 0 4 0 4 0 4 0 
4 0 3 0 4 0 4 0 4 0 4 0 4 0 3 0 
4 0 4 0 4 0 4 0 3 0 4 0 4 0 4 0 
4 0 3 0 4 0 4 0 4 0 4 0 4 0 3 0 
4 0 4 0 4 1 4 0 3 0 4 0 4 0 4 0 
4 0 4 0 3 0 4 0 4 0 4 0 4 0 3 0 
4 0 4 0 4 0 4 0 3 0 4 0 4 1 4 0 
4 0 4 0 3 0 4 0 4 0 4 0 4 0 3 0 
4 0 4 1 4 0 4 0 3 0 4 0 4 0 4 0 
4 0 4 0 3 1 4 0 4 0 4 0 4 0 3 0 
4 0 4 0 4 1 4 0 4 0 3 0 4 0 4 0 
4 0 4 1 3 0 4 0 4 0 4 0 4 0 3 1 
4 0 4 0 4 0 4 0 4 0 3 0 4 1 4 0 
4 0 4 0 3 0 4 0 4 1 4 0 4 0 3 0 
4 0 4 0 4 1 4 0 4 0 3 0 4 0 4 0 
4 0 4 1 3 0 4 0 4 0 4 0 4 0 4 0 
3 0 4 1 4 0 4 0 4 0 3 0 4 0 4 0 
4 0 4 0 3 0 4 1 4 0 4 0 4 0 4 0 
3 0 4 0 4 0 4 0 4 0 3 0 4 0 4 0 
4 0 4 0 3 0 4 0 4 0 4 0 4 0 4 0 
3 0 4 0 4 0 4 0 4 0 3 -1 4 0 4 0 
4 0 4 0 4 0 3 0 4 0 4 0 4 0 4 -1 
3 0 4 0 4 0 4 0 4 0 3 0 4 0 4 -1 
4 0 4 0 4 0 3 0 4 0 4 0 4 -1 4 0 
3 0 4 0 4 0 6573 2660 300 MP stroke
4 0 4 -1 3 0 4 0 4 0 4 0 4 0 4 -1 
3 0 4 0 4 0 4 0 4 0 3 -1 4 0 4 0 
4 0 4 0 4 0 3 -1 4 0 4 0 4 0 4 0 
3 0 4 0 4 -1 4 0 4 0 3 0 4 0 4 0 
4 -1 4 0 4 0 3 0 4 0 4 0 4 0 4 -1 
3 0 4 0 4 0 4 0 4 0 3 0 4 -1 4 0 
4 0 4 0 4 0 3 0 4 0 4 0 4 -1 4 0 
3 0 4 0 4 0 4 0 4 0 4 0 3 0 4 -1 
4 0 4 0 4 0 3 0 4 0 4 0 4 0 4 0 
3 0 4 -1 4 0 4 0 4 0 4 0 3 0 4 0 
4 0 4 0 4 0 3 0 4 -1 4 0 4 0 4 0 
3 0 4 0 4 0 4 0 4 0 4 0 3 0 4 0 
4 -1 4 0 4 0 3 0 4 0 4 0 4 0 4 0 
4 0 3 0 4 0 4 0 4 0 4 0 3 -1 4 0 
4 0 4 0 4 0 3 0 4 0 4 0 4 0 4 0 
4 0 3 0 4 0 4 0 4 0 4 0 3 -1 4 0 
4 0 4 0 4 0 3 0 4 0 4 0 4 0 4 0 
4 0 3 0 4 0 4 0 4 0 4 0 3 0 4 0 
4 -1 4 0 4 0 4 0 3 0 4 0 4 0 4 0 
4 0 3 0 4 0 4 0 4 0 4 0 3 0 4 0 
4 0 4 0 4 0 4 0 3 0 4 -1 4 0 4 0 
4 0 3 0 4 0 4 0 4 0 4 0 3 0 4 0 
4 0 4 0 4 0 4 0 3 0 4 0 4 0 4 0 
4 0 3 0 4 0 4 -1 4 0 4 0 4 0 3 0 
4 0 4 0 4 0 4 0 3 0 4 0 4 0 4 0 
4 0 3 0 4 0 4 0 4 0 4 0 4 0 3 0 
4 0 4 0 4 0 4 0 3 0 4 0 4 0 4 0 
4 0 3 0 4 -1 4 0 4 0 4 0 4 0 3 0 
4 0 4 0 4 0 4 0 3 0 4 0 4 0 4 0 
4 0 4 0 3 0 4 0 4 0 4 0 4 0 3 0 
4 0 4 0 4 0 4 0 3 0 4 0 4 0 4 0 
4 0 4 0 3 0 4 0 4 0 4 0 4 0 3 0 
4 0 4 0 4 0 4 0 3 0 4 0 4 0 4 0 
4 1 4 0 3 0 4 0 4 0 4 0 4 0 3 0 
4 0 4 0 4 0 4 0 4 0 3 0 4 0 4 0 
4 0 4 0 3 0 4 0 4 0 4 1 4 0 3 0 
4 0 4 0 4 0 4 0 4 0 3 0 4 0 4 0 
4 0 4 0 3 1 5433 2676 300 MP stroke
4 0 4 0 4 0 4 0 3 0 4 0 4 0 4 0 
4 1 4 0 3 0 4 0 4 0 4 0 4 0 3 0 
4 1 4 0 4 0 4 0 4 0 3 0 4 0 4 1 
4 0 4 0 3 0 4 0 4 0 4 1 4 0 3 0 
4 0 4 0 4 1 4 0 4 0 3 0 4 0 4 1 
4 0 4 0 3 0 4 0 4 1 4 0 4 0 4 0 
3 0 4 1 4 0 4 0 4 0 3 1 4 0 4 0 
4 0 4 1 3 0 4 0 4 0 4 1 4 0 4 0 
3 0 4 1 4 0 4 0 4 0 3 1 4 0 4 0 
4 1 4 0 3 0 4 0 4 1 4 0 4 0 4 0 
3 1 4 0 4 0 4 0 4 1 3 0 4 0 4 0 
4 1 4 0 4 0 3 0 4 0 4 0 4 1 4 0 
3 0 4 0 4 0 4 0 4 0 3 1 4 0 4 0 
4 0 4 0 4 0 3 0 4 0 4 0 4 0 4 0 
3 0 4 0 4 -1 4 0 4 0 3 0 4 0 4 0 
4 0 4 0 4 -1 3 0 4 0 4 0 4 0 4 0 
3 0 4 -1 4 0 4 0 4 0 4 0 3 -1 4 0 
4 0 4 0 4 0 3 -1 4 0 4 0 4 0 4 0 
3 0 4 -1 4 0 4 0 4 0 4 0 3 -1 4 0 
4 0 4 0 4 0 3 0 4 0 4 -1 4 0 4 0 
3 0 4 0 4 0 4 -1 4 0 4 0 3 0 4 0 
4 0 4 0 4 0 3 -1 4 0 4 0 4 0 4 0 
4 0 3 0 4 0 4 0 4 -1 4 0 3 0 4 0 
4 0 4 0 4 0 3 0 4 0 4 0 4 0 4 0 
4 -1 3 0 4 0 4 0 4 0 4 0 3 0 4 0 
4 0 4 0 4 0 3 0 4 0 4 0 4 0 4 0 
4 0 3 0 4 -1 4 0 4 0 4 0 3 0 4 0 
4 0 4 0 4 0 4 0 3 0 4 0 4 0 4 0 
4 0 3 0 4 0 4 0 4 0 4 0 3 0 4 0 
4 0 4 0 4 0 4 0 3 0 4 0 4 0 4 0 
4 0 3 0 4 0 4 0 4 0 4 0 3 0 4 0 
4 0 4 0 4 0 4 0 3 0 4 0 4 0 4 0 
4 1 3 0 4 0 4 0 4 0 4 0 4 0 3 0 
4 0 4 0 4 0 4 0 3 0 4 0 4 0 4 0 
4 0 3 0 4 0 4 0 4 0 4 0 4 0 3 0 
4 0 4 0 4 1 4 0 3 0 4 0 4 0 4 0 
4 0 3 0 4 0 4 0 4 0 4 0 4 0 3 0 
4 0 4 0 4 0 4292 2667 300 MP stroke
4 0 3 0 4 0 4 0 4 1 4 0 4 0 3 0 
4 0 4 0 4 0 4 0 3 0 4 0 4 0 4 0 
4 0 3 0 4 0 4 0 4 0 4 0 4 0 3 0 
4 0 4 0 4 0 4 0 3 0 4 0 4 1 4 0 
4 0 3 0 4 0 4 0 4 0 4 0 4 0 3 0 
4 0 4 0 4 0 4 0 3 0 4 0 4 0 4 0 
4 0 4 0 3 0 4 0 4 0 4 0 4 0 3 0 
4 0 4 0 4 0 4 0 3 0 4 0 4 0 4 0 
4 0 4 0 3 0 4 0 4 0 4 0 4 0 3 0 
4 0 4 0 4 0 4 0 3 0 4 0 4 0 4 0 
4 0 4 -1 3 0 4 0 4 0 4 0 4 0 3 0 
4 0 4 0 4 0 4 0 4 0 3 0 4 0 4 0 
4 0 4 0 3 0 4 0 4 0 4 0 4 0 3 0 
4 0 4 0 4 0 4 0 4 -1 3 0 4 0 4 0 
4 0 4 0 3 0 4 0 4 0 4 0 4 0 3 0 
4 0 4 0 4 0 4 0 4 0 3 0 4 0 4 0 
4 0 4 0 3 0 4 0 4 -1 4 0 4 0 4 0 
3 0 4 0 4 0 4 0 4 0 3 0 4 0 4 0 
4 0 4 0 3 0 4 0 4 0 4 0 4 0 4 0 
3 0 4 0 4 0 4 0 4 0 3 0 4 0 4 -1 
4 0 4 0 3 0 4 0 4 0 4 0 4 0 4 0 
3 0 4 0 4 0 4 0 4 0 3 0 4 0 4 0 
4 0 4 0 4 0 3 0 4 0 4 0 4 0 4 0 
3 0 4 0 4 0 4 0 4 0 3 0 4 0 4 0 
4 0 4 0 4 0 3 0 4 0 4 0 4 0 4 0 
3 0 4 0 4 0 4 0 4 0 3 0 4 0 4 0 
4 0 4 0 4 0 3 0 4 0 4 0 4 0 4 0 
3 0 4 0 4 0 4 0 4 0 4 0 3 0 4 0 
4 0 4 0 4 0 3 0 4 0 4 0 4 0 4 0 
3 0 4 0 4 0 4 0 4 0 4 0 3 0 4 0 
4 0 4 0 4 0 3 0 4 0 4 0 4 0 4 0 
4 0 3 0 4 0 4 1 4 0 4 0 3 0 4 0 
4 0 4 0 4 0 3 0 4 0 4 0 4 0 4 0 
4 0 3 0 4 0 4 0 4 0 4 0 3 0 4 0 
4 1 4 0 4 0 3 0 4 0 4 0 4 0 4 0 
4 0 3 0 4 0 4 0 4 0 4 0 3 0 4 0 
4 1 4 0 4 0 4 0 3 0 4 0 4 0 4 0 
4 0 3 0 4 0 3152 2666 300 MP stroke
4 0 4 0 4 1 3 0 4 0 4 0 4 0 4 0 
4 0 3 0 4 0 4 0 4 0 4 0 3 1 4 0 
4 0 4 0 4 0 3 0 4 0 4 0 4 0 4 0 
4 0 3 0 4 0 4 0 4 0 4 1 3 0 4 0 
4 0 4 0 4 0 4 0 3 0 4 0 4 0 4 0 
4 0 3 0 4 0 4 0 4 0 4 0 3 0 4 0 
4 0 4 0 4 0 4 0 3 -1 4 0 4 0 4 0 
4 0 3 0 4 0 4 0 4 0 4 0 3 0 4 0 
4 0 4 0 4 0 4 0 3 0 4 0 4 0 4 0 
4 0 3 0 4 0 4 0 4 0 4 0 4 0 3 0 
4 0 4 0 4 0 4 0 3 0 4 0 4 0 4 0 
4 0 3 0 4 0 4 0 4 0 4 -1 4 0 3 0 
4 0 4 0 4 0 4 0 3 0 4 0 4 0 4 0 
4 0 3 0 4 0 4 0 4 0 4 0 4 0 3 0 
4 0 4 0 4 0 4 0 3 0 4 0 4 0 4 0 
4 0 4 0 3 0 4 0 4 0 4 0 4 0 3 0 
4 0 4 0 4 0 4 0 3 0 4 0 4 0 4 0 
4 0 4 0 3 0 4 0 4 0 4 0 4 0 3 0 
4 0 4 0 4 0 4 0 3 0 4 0 4 0 4 0 
4 0 4 0 3 0 4 0 4 0 4 0 4 0 3 0 
4 0 4 0 4 0 4 0 4 0 3 0 4 0 4 0 
4 0 4 0 3 0 4 0 4 0 4 0 4 0 3 0 
4 0 4 0 4 0 4 0 4 0 3 0 4 0 4 0 
4 0 4 0 3 0 4 0 4 0 4 0 4 0 3 0 
4 0 4 0 4 0 4 0 4 0 3 0 4 0 4 0 
4 0 4 0 3 0 4 0 4 0 4 0 4 0 4 0 
3 0 4 0 4 0 4 0 4 0 3 0 4 0 4 0 
4 0 4 0 3 0 4 0 4 0 4 0 4 0 4 0 
3 0 4 0 4 0 4 0 4 0 3 0 4 0 4 0 
4 0 4 0 3 0 4 0 4 0 4 0 4 0 4 0 
3 0 4 0 4 0 4 0 4 0 3 0 4 0 4 0 
4 0 4 0 4 0 3 0 4 0 4 0 4 0 4 0 
3 0 4 0 4 0 4 0 4 0 3 0 4 0 4 0 
4 0 4 0 4 0 3 0 4 0 4 0 4 0 4 0 
3 0 4 0 4 0 4 0 4 0 3 0 4 0 4 0 
4 0 4 0 4 0 3 0 4 0 4 0 4 0 4 0 
3 0 4 0 4 0 4 0 4 0 4 0 3 0 4 0 
4 0 4 0 4 0 2011 2665 300 MP stroke
3 0 4 0 4 0 4 0 4 0 3 0 4 0 4 0 
4 0 4 0 4 0 3 0 4 0 4 0 4 0 4 0 
3 0 4 0 4 0 4 0 4 0 3 0 4 0 4 0 
4 0 4 0 4 0 3 0 4 0 4 0 4 0 4 0 
3 0 4 0 4 0 4 0 4 0 4 0 3 0 4 0 
4 0 4 0 4 0 3 0 4 0 4 0 4 0 4 0 
3 0 4 0 4 0 4 0 4 0 4 0 3 0 4 0 
4 0 4 0 4 0 3 0 4 0 4 0 4 0 4 0 
3 0 4 0 4 0 4 0 4 0 4 0 3 0 4 0 
4 0 4 0 4 0 3 0 4 0 4 0 4 0 4 0 
4 0 3 0 4 0 4 0 4 0 4 0 3 0 4 0 
4 0 4 0 4 0 3 0 4 0 4 0 4 0 4 0 
4 0 3 0 4 0 4 0 4 0 4 0 3 0 4 0 
4 0 4 0 4 0 3 0 1600 2665 109 MP stroke
0 sg
4 0 4 0 4 0 4 0 4 0 3 0 4 1 4 0 
4 0 4 0 3 0 4 1 4 0 4 0 4 0 4 0 
3 1 4 0 4 0 4 0 4 0 3 1 4 0 4 0 
4 0 4 0 3 1 4 0 4 0 4 0 4 1 4 0 
3 0 4 1 4 0 4 0 4 0 3 1 4 0 4 0 
4 0 4 1 4 0 3 0 4 1 4 0 4 0 4 1 
3 0 4 0 4 1 4 0 4 0 3 1 4 0 4 0 
4 1 4 0 4 0 3 1 4 0 4 0 4 1 4 0 
3 1 4 0 4 0 4 1 4 0 3 0 4 1 4 0 
4 0 4 1 4 0 3 0 4 1 4 0 4 1 4 0 
3 0 4 0 4 1 4 0 4 0 4 1 3 0 4 0 
4 0 4 1 4 0 3 0 4 0 4 0 4 1 4 0 
3 0 4 0 4 0 4 0 4 0 4 0 3 0 4 0 
4 0 4 0 4 0 3 0 4 0 4 0 4 -1 4 0 
3 0 4 0 4 0 4 -1 4 0 4 0 3 0 4 -1 
4 0 4 0 4 0 3 -1 4 0 4 0 4 -1 4 0 
4 0 3 -1 4 0 4 0 4 -1 4 0 3 0 4 -1 
4 0 4 0 4 -1 3 0 4 0 4 -1 4 0 4 0 
4 -1 3 0 4 0 4 0 4 -1 4 0 3 0 4 -1 
4 0 4 0 4 -1 3 0 4 0 4 0 4 -1 4 0 
4 0 3 0 4 -1 4 0 4 0 4 0 3 -1 4 0 
4 0 4 0 4 -1 4 0 3 0 4 0 4 0 4 -1 
4 0 3 0 4 0 4 0 4 -1 4 0 3 0 4 0 
4 0 4 0 4 -1 4 0 3 0 4 0 4 0 4 0 
4 0 3 0 4 -1 4 0 4 0 4 0 3 0 4 0 
4 0 4 0 4 0 4 0 3 0 4 -1 4 0 4 0 
4 0 3 0 4 0 4 0 4 0 4 0 4 0 3 0 
4 0 4 0 4 0 4 0 3 0 4 0 4 0 4 0 
4 0 3 0 4 0 4 0 4 0 4 0 4 0 3 0 
4 0 4 0 4 0 4 0 3 0 4 0 4 0 4 0 
4 0 3 0 4 0 4 0 4 0 4 0 4 0 3 0 
4 0 4 0 4 1 4 0 3 0 4 0 4 0 4 0 
4 0 4 0 3 0 4 0 4 0 4 0 4 0 3 1 
4 0 4 0 4 0 4 0 3 0 4 0 4 0 4 0 
4 0 4 0 3 1 4 0 4 0 4 0 4 0 3 0 
4 0 4 0 4 0 4 0 3 1 4 0 4 0 4 0 
4 0 4 0 3 0 4 0 4 0 4 1 4 0 3 0 
4 0 4 0 4 0 9994 2669 300 MP stroke
4 0 4 0 3 0 4 1 4 0 4 0 4 0 3 0 
4 0 4 0 4 0 4 0 3 0 4 0 4 1 4 0 
4 0 4 0 3 0 4 0 4 0 4 0 4 0 3 0 
4 0 4 0 4 0 4 1 3 0 4 0 4 0 4 0 
4 0 4 0 3 0 4 0 4 0 4 0 4 0 3 0 
4 0 4 0 4 0 4 0 4 0 3 0 4 0 4 0 
4 0 4 0 3 0 4 0 4 0 4 0 4 0 3 0 
4 0 4 0 4 0 4 0 4 0 3 0 4 0 4 0 
4 0 4 -1 3 0 4 0 4 0 4 0 4 0 3 0 
4 0 4 0 4 0 4 0 4 0 3 0 4 -1 4 0 
4 0 4 0 3 0 4 0 4 0 4 0 4 0 4 -1 
3 0 4 0 4 0 4 0 4 0 3 0 4 0 4 0 
4 -1 4 0 3 0 4 0 4 0 4 0 4 0 4 -1 
3 0 4 0 4 0 4 0 4 0 3 0 4 0 4 -1 
4 0 4 0 3 0 4 0 4 0 4 0 4 -1 4 0 
3 0 4 0 4 0 4 0 4 0 3 -1 4 0 4 0 
4 0 4 0 4 0 3 0 4 0 4 -1 4 0 4 0 
3 0 4 0 4 0 4 0 4 0 3 -1 4 0 4 0 
4 0 4 0 4 0 3 0 4 0 4 -1 4 0 4 0 
3 0 4 0 4 0 4 0 4 0 3 0 4 0 4 -1 
4 0 4 0 4 0 3 0 4 0 4 0 4 0 4 0 
3 0 4 0 4 -1 4 0 4 0 4 0 3 0 4 0 
4 0 4 0 4 0 3 0 4 0 4 0 4 0 4 0 
3 0 4 0 4 0 4 0 4 0 4 -1 3 0 4 0 
4 0 4 0 4 0 3 0 4 0 4 0 4 0 4 0 
3 0 4 0 4 0 4 0 4 0 4 0 3 0 4 0 
4 0 4 0 4 0 3 0 4 1 4 0 4 0 4 0 
4 0 3 0 4 0 4 0 4 0 4 0 3 0 4 0 
4 0 4 0 4 0 3 0 4 1 4 0 4 0 4 0 
4 0 3 0 4 0 4 0 4 0 4 0 3 1 4 0 
4 0 4 0 4 0 4 0 3 0 4 1 4 0 4 0 
4 0 3 0 4 0 4 1 4 0 4 0 3 0 4 0 
4 1 4 0 4 0 4 0 3 0 4 1 4 0 4 0 
4 0 3 1 4 0 4 0 4 0 4 1 3 0 4 0 
4 1 4 0 4 0 4 0 3 1 4 0 4 0 4 1 
4 0 3 0 4 1 4 0 4 0 4 1 4 0 3 0 
4 1 4 0 4 1 4 0 3 0 4 1 4 0 4 0 
4 1 3 0 4 1 8854 2661 300 MP stroke
4 0 4 1 4 0 4 0 3 1 4 0 4 1 4 0 
4 1 3 0 4 0 4 1 4 0 4 1 3 0 4 0 
4 1 4 0 4 1 4 0 3 0 4 1 4 0 4 0 
4 0 3 1 4 0 4 0 4 0 4 0 4 0 3 1 
4 0 4 0 4 0 4 0 3 -1 4 0 4 0 4 0 
4 0 3 0 4 -1 4 0 4 0 4 0 4 -1 3 0 
4 0 4 -1 4 0 4 -1 3 0 4 0 4 -1 4 0 
4 0 3 -1 4 0 4 -1 4 0 4 0 4 -1 3 0 
4 0 4 -1 4 0 4 -1 3 0 4 0 4 -1 4 0 
4 0 4 -1 3 0 4 0 4 -1 4 0 4 0 3 -1 
4 0 4 0 4 -1 4 0 3 0 4 0 4 -1 4 0 
4 0 4 -1 3 0 4 0 4 0 4 -1 4 0 3 0 
4 0 4 -1 4 0 4 0 3 0 4 0 4 -1 4 0 
4 0 4 0 3 0 4 -1 4 0 4 0 4 0 3 0 
4 -1 4 0 4 0 4 0 4 0 3 0 4 -1 4 0 
4 0 4 0 3 0 4 0 4 0 4 0 4 -1 3 0 
4 0 4 0 4 0 4 0 4 0 3 0 4 0 4 -1 
4 0 4 0 3 0 4 0 4 0 4 0 4 0 3 0 
4 0 4 0 4 0 4 0 4 -1 3 0 4 0 4 0 
4 0 4 0 3 0 4 0 4 0 4 0 4 0 4 0 
3 0 4 0 4 0 4 0 4 0 3 0 4 0 4 0 
4 0 4 0 3 0 4 0 4 0 4 0 4 0 4 0 
3 0 4 0 4 0 4 0 4 0 3 0 4 0 4 0 
4 0 4 0 3 0 4 0 4 0 4 0 4 0 4 0 
3 0 4 0 4 0 4 0 4 0 3 0 4 0 4 0 
4 0 4 0 4 0 3 0 4 1 4 0 4 0 4 0 
3 0 4 0 4 0 4 0 4 0 3 0 4 0 4 0 
4 0 4 0 4 0 3 0 4 0 4 0 4 1 4 0 
3 0 4 0 4 0 4 0 4 0 3 0 4 0 4 0 
4 0 4 0 4 0 3 0 4 1 4 0 4 0 4 0 
3 0 4 0 4 0 4 0 4 0 4 0 3 0 4 0 
4 1 4 0 4 0 3 0 4 0 4 0 4 0 4 0 
3 0 4 0 4 0 4 0 4 1 4 0 3 0 4 0 
4 0 4 0 4 0 3 0 4 0 4 0 4 0 4 0 
3 1 4 0 4 0 4 0 4 0 4 0 3 0 4 0 
4 0 4 0 4 0 3 1 4 0 4 0 4 0 4 0 
4 0 3 0 4 0 4 0 4 0 4 0 3 0 4 0 
4 1 4 0 4 0 7713 2669 300 MP stroke
3 0 4 0 4 0 4 0 4 0 4 0 3 0 4 0 
4 0 4 0 4 1 3 0 4 0 4 0 4 0 4 0 
3 0 4 0 4 0 4 0 4 0 4 0 3 0 4 0 
4 0 4 0 4 0 3 1 4 0 4 0 4 0 4 0 
4 0 3 0 4 0 4 0 4 0 4 0 3 0 4 0 
4 0 4 0 4 0 3 0 4 0 4 0 4 0 4 0 
4 0 3 0 4 0 4 0 4 0 4 0 3 0 4 0 
4 0 4 1 4 0 3 0 4 0 4 0 4 0 4 0 
4 0 3 0 4 0 4 0 4 0 4 0 3 0 4 0 
4 0 4 0 4 0 4 0 3 0 4 0 4 0 4 0 
4 0 3 0 4 0 4 0 4 0 4 0 3 0 4 0 
4 0 4 0 4 0 4 0 3 0 4 0 4 0 4 0 
4 0 3 0 4 0 4 0 4 0 4 0 3 0 4 0 
4 0 4 0 4 0 4 0 3 0 4 0 4 0 4 0 
4 0 3 0 4 0 4 0 4 0 4 0 4 0 3 0 
4 0 4 0 4 0 4 0 3 0 4 0 4 0 4 0 
4 0 3 0 4 0 4 0 4 0 4 0 4 0 3 0 
4 0 4 0 4 0 4 0 3 0 4 0 4 0 4 0 
4 0 4 0 3 0 4 0 4 0 4 0 4 0 3 0 
4 0 4 0 4 0 4 0 3 0 4 0 4 0 4 0 
4 0 4 0 3 0 4 0 4 0 4 0 4 0 3 0 
4 1 4 0 4 0 4 0 3 0 4 0 4 0 4 0 
4 0 4 0 3 0 4 0 4 0 4 0 4 0 3 0 
4 0 4 1 4 0 4 0 4 0 3 0 4 0 4 0 
4 0 4 0 3 0 4 0 4 0 4 0 4 0 3 0 
4 1 4 0 4 0 4 0 4 0 3 0 4 0 4 0 
4 0 4 0 3 0 4 0 4 0 4 1 4 0 3 0 
4 0 4 0 4 0 4 0 4 0 3 0 4 0 4 0 
4 0 4 0 3 0 4 1 4 0 4 0 4 0 4 0 
3 0 4 0 4 0 4 0 4 0 3 0 4 0 4 0 
4 0 4 0 3 0 4 0 4 0 4 0 4 0 4 0 
3 0 4 1 4 0 4 0 4 0 3 0 4 0 4 0 
4 0 4 0 3 0 4 0 4 0 4 0 4 0 4 -1 
3 0 4 0 4 0 4 0 4 0 3 0 4 0 4 0 
4 0 4 0 4 0 3 0 4 0 4 0 4 0 4 0 
3 0 4 0 4 0 4 0 4 0 3 -1 4 0 4 0 
4 0 4 0 4 0 3 0 4 0 4 0 4 0 4 0 
3 0 4 0 4 0 6573 2662 300 MP stroke
4 -1 4 0 3 0 4 0 4 0 4 0 4 0 4 0 
3 0 4 0 4 0 4 0 4 0 3 -1 4 0 4 0 
4 0 4 0 4 0 3 0 4 0 4 0 4 0 4 0 
3 0 4 0 4 -1 4 0 4 0 3 0 4 0 4 0 
4 0 4 0 4 0 3 0 4 0 4 0 4 0 4 0 
3 -1 4 0 4 0 4 0 4 0 3 0 4 0 4 0 
4 0 4 0 4 0 3 0 4 0 4 0 4 0 4 0 
3 -1 4 0 4 0 4 0 4 0 4 0 3 0 4 0 
4 0 4 0 4 0 3 0 4 0 4 0 4 0 4 0 
3 0 4 0 4 0 4 -1 4 0 4 0 3 0 4 0 
4 0 4 0 4 0 3 0 4 0 4 0 4 0 4 0 
3 0 4 0 4 0 4 0 4 0 4 0 3 0 4 0 
4 0 4 0 4 0 3 0 4 -1 4 0 4 0 4 0 
4 0 3 0 4 0 4 0 4 0 4 0 3 0 4 0 
4 0 4 0 4 0 3 0 4 0 4 0 4 0 4 0 
4 0 3 0 4 0 4 0 4 0 4 0 3 0 4 0 
4 0 4 0 4 0 3 0 4 -1 4 0 4 0 4 0 
4 0 3 0 4 0 4 0 4 0 4 0 3 0 4 0 
4 0 4 0 4 0 4 0 3 0 4 0 4 0 4 0 
4 0 3 0 4 0 4 0 4 0 4 0 3 0 4 0 
4 0 4 0 4 0 4 0 3 0 4 0 4 0 4 0 
4 0 3 0 4 0 4 0 4 0 4 -1 3 0 4 0 
4 0 4 0 4 0 4 0 3 0 4 0 4 0 4 0 
4 0 3 0 4 0 4 0 4 0 4 0 4 0 3 0 
4 0 4 0 4 0 4 0 3 0 4 0 4 0 4 0 
4 0 3 0 4 0 4 0 4 0 4 0 4 0 3 0 
4 0 4 0 4 0 4 0 3 0 4 0 4 0 4 0 
4 0 3 0 4 0 4 0 4 0 4 0 4 0 3 0 
4 0 4 0 4 0 4 0 3 0 4 0 4 0 4 0 
4 0 4 0 3 0 4 0 4 0 4 0 4 0 3 0 
4 0 4 0 4 0 4 0 3 0 4 0 4 0 4 0 
4 0 4 0 3 0 4 0 4 0 4 0 4 0 3 0 
4 0 4 0 4 0 4 0 3 0 4 0 4 0 4 0 
4 0 4 0 3 0 4 0 4 0 4 0 4 0 3 0 
4 0 4 0 4 0 4 0 4 0 3 0 4 0 4 0 
4 0 4 0 3 0 4 0 4 0 4 0 4 0 3 0 
4 0 4 0 4 0 4 0 4 0 3 1 4 0 4 0 
4 0 4 0 3 0 5433 2670 300 MP stroke
4 0 4 0 4 0 4 0 3 0 4 0 4 0 4 0 
4 0 4 0 3 0 4 0 4 0 4 1 4 0 3 0 
4 0 4 0 4 0 4 0 4 0 3 0 4 0 4 0 
4 0 4 0 3 0 4 1 4 0 4 0 4 0 3 0 
4 0 4 0 4 0 4 0 4 0 3 0 4 1 4 0 
4 0 4 0 3 0 4 0 4 0 4 0 4 0 4 0 
3 1 4 0 4 0 4 0 4 0 3 0 4 0 4 0 
4 0 4 1 3 0 4 0 4 0 4 0 4 0 4 0 
3 0 4 1 4 0 4 0 4 0 3 0 4 0 4 0 
4 1 4 0 3 0 4 0 4 0 4 0 4 0 4 0 
3 1 4 0 4 0 4 0 4 0 3 0 4 0 4 0 
4 0 4 1 4 0 3 0 4 0 4 0 4 0 4 0 
3 0 4 0 4 0 4 0 4 0 3 0 4 0 4 0 
4 0 4 0 4 1 3 0 4 0 4 -1 4 0 4 0 
3 0 4 0 4 0 4 0 4 0 3 0 4 0 4 0 
4 0 4 0 4 0 3 0 4 0 4 0 4 0 4 0 
3 -1 4 0 4 0 4 0 4 0 4 0 3 0 4 0 
4 0 4 0 4 0 3 -1 4 0 4 0 4 0 4 0 
3 0 4 0 4 0 4 0 4 0 4 0 3 -1 4 0 
4 0 4 0 4 0 3 0 4 0 4 0 4 0 4 0 
3 0 4 0 4 0 4 -1 4 0 4 0 3 0 4 0 
4 0 4 0 4 0 3 0 4 0 4 0 4 0 4 0 
4 0 3 0 4 0 4 0 4 0 4 -1 3 0 4 0 
4 0 4 0 4 0 3 0 4 0 4 0 4 0 4 0 
4 0 3 0 4 0 4 0 4 0 4 0 3 0 4 0 
4 0 4 0 4 0 3 0 4 0 4 0 4 0 4 0 
4 0 3 0 4 0 4 0 4 0 4 -1 3 0 4 0 
4 0 4 0 4 0 4 0 3 0 4 0 4 0 4 0 
4 0 3 0 4 0 4 0 4 0 4 0 3 0 4 0 
4 0 4 0 4 0 4 0 3 0 4 0 4 0 4 0 
4 0 3 0 4 0 4 0 4 0 4 0 3 0 4 0 
4 0 4 0 4 0 4 0 3 0 4 1 4 0 4 0 
4 0 3 0 4 0 4 0 4 0 4 0 4 0 3 0 
4 0 4 0 4 0 4 0 3 0 4 0 4 0 4 0 
4 0 3 0 4 0 4 0 4 0 4 0 4 0 3 0 
4 0 4 0 4 0 4 0 3 0 4 0 4 0 4 0 
4 0 3 0 4 0 4 0 4 0 4 0 4 0 3 0 
4 0 4 0 4 0 4292 2666 300 MP stroke
4 0 3 0 4 0 4 1 4 0 4 0 4 0 3 0 
4 0 4 0 4 0 4 0 3 0 4 0 4 0 4 0 
4 0 3 0 4 0 4 0 4 0 4 0 4 0 3 0 
4 0 4 0 4 0 4 0 3 0 4 0 4 0 4 0 
4 0 3 0 4 0 4 0 4 0 4 0 4 0 3 0 
4 0 4 0 4 0 4 0 3 0 4 0 4 0 4 0 
4 0 4 0 3 0 4 0 4 0 4 0 4 0 3 0 
4 0 4 0 4 0 4 0 3 0 4 0 4 0 4 0 
4 0 4 0 3 0 4 0 4 0 4 0 4 0 3 0 
4 0 4 0 4 0 4 0 3 0 4 0 4 0 4 0 
4 0 4 0 3 0 4 0 4 0 4 0 4 0 3 0 
4 0 4 0 4 0 4 0 4 0 3 0 4 0 4 0 
4 0 4 0 3 0 4 0 4 0 4 0 4 0 3 0 
4 0 4 0 4 0 4 0 4 0 3 -1 4 0 4 0 
4 0 4 0 3 0 4 0 4 0 4 0 4 0 3 0 
4 0 4 0 4 0 4 0 4 0 3 0 4 0 4 0 
4 0 4 0 3 0 4 0 4 0 4 0 4 0 4 0 
3 0 4 0 4 0 4 0 4 0 3 0 4 0 4 0 
4 0 4 0 3 0 4 0 4 0 4 0 4 0 4 0 
3 0 4 0 4 0 4 0 4 0 3 0 4 0 4 0 
4 0 4 0 3 0 4 -1 4 0 4 0 4 0 4 0 
3 0 4 0 4 0 4 0 4 0 3 0 4 0 4 0 
4 0 4 0 4 0 3 0 4 0 4 0 4 0 4 0 
3 0 4 0 4 0 4 0 4 0 3 0 4 0 4 0 
4 0 4 0 4 0 3 0 4 0 4 0 4 0 4 0 
3 0 4 0 4 0 4 0 4 0 3 0 4 0 4 0 
4 0 4 0 4 0 3 0 4 0 4 0 4 0 4 0 
3 0 4 0 4 0 4 0 4 0 4 0 3 0 4 0 
4 0 4 0 4 0 3 0 4 0 4 0 4 0 4 0 
3 0 4 0 4 0 4 0 4 0 4 0 3 0 4 0 
4 0 4 0 4 0 3 0 4 0 4 0 4 0 4 0 
4 1 3 0 4 0 4 0 4 0 4 0 3 0 4 0 
4 0 4 0 4 0 3 0 4 0 4 0 4 0 4 0 
4 0 3 0 4 0 4 0 4 0 4 0 3 0 4 0 
4 0 4 0 4 0 3 0 4 0 4 0 4 0 4 0 
4 0 3 0 4 0 4 0 4 0 4 0 3 0 4 0 
4 1 4 0 4 0 4 0 3 0 4 0 4 0 4 0 
4 0 3 0 4 0 3152 2665 300 MP stroke
4 0 4 0 4 0 3 0 4 0 4 0 4 0 4 0 
4 0 3 0 4 0 4 0 4 0 4 0 3 0 4 1 
4 0 4 0 4 0 3 0 4 0 4 0 4 0 4 0 
4 0 3 0 4 0 4 0 4 0 4 0 3 0 4 0 
4 0 4 0 4 0 4 0 3 0 4 0 4 0 4 0 
4 0 3 0 4 0 4 0 4 0 4 0 3 0 4 0 
4 0 4 0 4 0 4 0 3 0 4 0 4 0 4 0 
4 0 3 0 4 0 4 0 4 0 4 0 3 0 4 0 
4 0 4 0 4 0 4 0 3 0 4 0 4 0 4 0 
4 0 3 0 4 0 4 0 4 0 4 0 4 0 3 0 
4 0 4 0 4 0 4 0 3 0 4 0 4 0 4 0 
4 0 3 -1 4 0 4 0 4 0 4 0 4 0 3 0 
4 0 4 0 4 0 4 0 3 0 4 0 4 0 4 0 
4 0 3 0 4 0 4 0 4 0 4 0 4 0 3 0 
4 0 4 0 4 0 4 0 3 0 4 0 4 0 4 0 
4 0 4 0 3 0 4 0 4 0 4 0 4 0 3 0 
4 0 4 0 4 0 4 0 3 0 4 0 4 0 4 0 
4 0 4 0 3 0 4 0 4 0 4 0 4 0 3 0 
4 0 4 0 4 0 4 0 3 0 4 0 4 0 4 0 
4 0 4 0 3 0 4 0 4 0 4 0 4 0 3 0 
4 0 4 0 4 0 4 0 4 0 3 0 4 0 4 0 
4 0 4 0 3 0 4 0 4 0 4 0 4 0 3 0 
4 0 4 0 4 0 4 0 4 0 3 0 4 0 4 0 
4 0 4 0 3 0 4 0 4 0 4 0 4 0 3 0 
4 0 4 0 4 0 4 0 4 0 3 0 4 0 4 0 
4 0 4 0 3 0 4 0 4 0 4 0 4 0 4 0 
3 0 4 0 4 0 4 0 4 0 3 0 4 0 4 0 
4 0 4 0 3 0 4 0 4 0 4 0 4 0 4 0 
3 0 4 0 4 0 4 0 4 0 3 0 4 0 4 0 
4 0 4 0 3 0 4 0 4 0 4 0 4 0 4 0 
3 0 4 0 4 0 4 0 4 0 3 0 4 0 4 0 
4 0 4 0 4 0 3 0 4 0 4 0 4 0 4 0 
3 0 4 0 4 0 4 0 4 0 3 0 4 0 4 0 
4 0 4 0 4 0 3 0 4 0 4 0 4 0 4 0 
3 0 4 0 4 0 4 0 4 0 3 0 4 0 4 0 
4 0 4 0 4 0 3 0 4 0 4 0 4 0 4 0 
3 0 4 0 4 0 4 0 4 0 4 0 3 0 4 0 
4 0 4 0 4 0 2011 2665 300 MP stroke
3 0 4 0 4 0 4 0 4 0 3 0 4 0 4 0 
4 0 4 0 4 0 3 0 4 0 4 0 4 0 4 0 
3 0 4 0 4 0 4 0 4 0 3 0 4 0 4 0 
4 0 4 0 4 0 3 0 4 0 4 0 4 0 4 0 
3 0 4 0 4 0 4 0 4 0 4 0 3 0 4 0 
4 0 4 0 4 0 3 0 4 0 4 0 4 0 4 0 
3 0 4 0 4 0 4 0 4 0 4 0 3 0 4 0 
4 0 4 0 4 0 3 0 4 0 4 0 4 0 4 0 
3 0 4 0 4 0 4 0 4 0 4 0 3 0 4 0 
4 0 4 0 4 0 3 0 4 0 4 0 4 0 4 0 
4 0 3 0 4 0 4 0 4 0 4 0 3 0 4 0 
4 0 4 0 4 0 3 0 4 0 4 0 4 0 4 0 
4 0 3 0 4 0 4 0 4 0 4 0 3 0 4 0 
4 0 4 0 4 0 3 0 1600 2665 109 MP stroke
gr

%%IncludeResource: font Helvetica
/Helvetica /WindowsLatin1Encoding 120 FMSR

6296 5758 mt 
(t/T) s
 911 3237 mt  -90 rotate
(\(r) s
90 rotate
%%IncludeResource: font Helvetica
/Helvetica /WindowsLatin1Encoding 96 FMSR

 971 3158 mt  -90 rotate
(b) s
90 rotate
%%IncludeResource: font Helvetica
/Helvetica /WindowsLatin1Encoding 120 FMSR

 911 3105 mt  -90 rotate
(-r) s
90 rotate
%%IncludeResource: font Helvetica
/Helvetica /WindowsLatin1Encoding 96 FMSR

 971 2995 mt  -90 rotate
(b0) s
90 rotate
%%IncludeResource: font Helvetica
/Helvetica /WindowsLatin1Encoding 120 FMSR

 911 2889 mt  -90 rotate
(\)/a) s
90 rotate
%%IncludeResource: font Helvetica
/Helvetica /WindowsLatin1Encoding 96 FMSR

 971 2749 mt  -90 rotate
(b0) s
90 rotate
%%IncludeResource: font Helvetica
/Helvetica /WindowsLatin1Encoding 120 FMSR

1583 5468 mt 
( ) s
11119  499 mt 
( ) s
1 sg
0 1596 1008 0 0 -1596 1946 2367 4 MP
PP
-1008 0 0 1596 1008 0 0 -1596 1946 2367 5 MP stroke
4 w
DO
SO
6 w
0 sg
1946  771 mt 2954  771 L
1946 2367 mt 2954 2367 L
2954 2367 mt 2954  771 L
1946 2367 mt 1946  771 L
1946 2367 mt 2954 2367 L
1946 2367 mt 1946  771 L
1946  771 mt 2954  771 L
1946 2367 mt 2954 2367 L
2954 2367 mt 2954  771 L
1946 2367 mt 1946  771 L
%%IncludeResource: font Helvetica
/Helvetica /WindowsLatin1Encoding 168 FMSR

2414  963 mt 
(d = 4) s
gs 1946 771 1009 1597 rc
c8
360 0 2018 903 2 MP stroke
gr

c8
0 sg
2414 1185 mt 
(d = 5) s
gs 1946 771 1009 1597 rc
c9
360 0 2018 1125 2 MP stroke
gr

c9
0 sg
2414 1407 mt 
(d = 6) s
gs 1946 771 1009 1597 rc
c10
360 0 2018 1347 2 MP stroke
gr

c10
0 sg
2414 1630 mt 
(d = 7) s
gs 1946 771 1009 1597 rc
c11
360 0 2018 1569 2 MP stroke
gr

c11
0 sg
2414 1852 mt 
(d = 8) s
gs 1946 771 1009 1597 rc
c12
360 0 2018 1791 2 MP stroke
gr

c12
0 sg
2414 2074 mt 
(d = 9) s
gs 1946 771 1009 1597 rc
c13
360 0 2018 2013 2 MP stroke
gr

c13
0 sg
2414 2296 mt 
(d = 10) s
gs 1946 771 1009 1597 rc
360 0 2018 2235 2 MP stroke
gr


end %%Color Dict

eplot
%%EndObject

epage
end

showpage

%%Trailer
%%EOF
