\relax 
\catcode`"\active
\select@language{russian}
\@writefile{toc}{\select@language{russian}}
\@writefile{lof}{\select@language{russian}}
\@writefile{lot}{\select@language{russian}}
\newlabel{eq1}{{1}{1}}
\newlabel{eq2}{{2}{1}}
\newlabel{eq3}{{3}{1}}
\newlabel{eq4}{{4}{1}}
\newlabel{eq5}{{5}{1}}
\newlabel{eq6}{{6}{1}}
\newlabel{eq7}{{7}{1}}
\newlabel{eq8}{{8}{2}}
\newlabel{eq9}{{9}{2}}
\newlabel{eq10}{{10}{2}}
\newlabel{eq11}{{11}{2}}
\newlabel{eq12}{{12}{2}}
\newlabel{eq13}{{13}{2}}
\newlabel{eq14}{{14}{2}}
\newlabel{eq15}{{15}{2}}
\newlabel{eq16}{{16}{2}}
\newlabel{eq17}{{17}{2}}
\newlabel{eq18}{{18}{2}}
\newlabel{eq19}{{19}{2}}
\newlabel{eq20}{{20}{2}}
\newlabel{eq21}{{21}{3}}
\newlabel{eq22}{{22}{3}}
\newlabel{eq23}{{23}{3}}
\newlabel{eq24}{{24}{3}}
\newlabel{eq25}{{25}{3}}
\newlabel{eq26}{{26}{3}}
\newlabel{eq27}{{27}{3}}
\newlabel{eq28}{{28}{3}}
\@writefile{toc}{\contentsline {section}{\numberline {1}\IeC {\CYRV }\IeC {\cyrery }\IeC {\cyrr }\IeC {\cyra }\IeC {\cyrzh }\IeC {\cyre }\IeC {\cyrn }\IeC {\cyri }\IeC {\cyrya } \IeC {\cyrd }\IeC {\cyrl }\IeC {\cyrya } \IeC {\cyrs }\IeC {\cyri }\IeC {\cyrl }\IeC {\cyrery } \IeC {\cyri } \IeC {\cyrk }\IeC {\cyrr }\IeC {\cyru }\IeC {\cyrt }\IeC {\cyrya }\IeC {\cyrshch }\IeC {\cyre }\IeC {\cyrg }\IeC {\cyro } \IeC {\cyrm }\IeC {\cyro }\IeC {\cyrm }\IeC {\cyre }\IeC {\cyrn }\IeC {\cyrt }\IeC {\cyra } \IeC {\cyrv } \IeC {\cyrt }\IeC {\cyre }\IeC {\cyrr }\IeC {\cyrm }\IeC {\cyri }\IeC {\cyrn }\IeC {\cyra }\IeC {\cyrh } \IeC {\cyrp }\IeC {\cyro }\IeC {\cyrt }\IeC {\cyre }\IeC {\cyrn }\IeC {\cyrc }\IeC {\cyri }\IeC {\cyra }\IeC {\cyrl }\IeC {\cyra }}{4}}
\newlabel{eq29}{{29}{4}}
\newlabel{eq30}{{30}{4}}
\newlabel{eq31}{{31}{4}}
\newlabel{eq32}{{32}{4}}
\newlabel{eq33}{{33}{4}}
\newlabel{eq34}{{34}{4}}
\newlabel{eq35}{{35}{4}}
\newlabel{eq36}{{36}{4}}
\newlabel{eq37}{{37}{4}}
\newlabel{eq38}{{38}{5}}
\newlabel{eq39}{{39}{5}}
\newlabel{eq40}{{40}{5}}
\newlabel{eq41}{{41}{5}}
\newlabel{eq42}{{42}{5}}
\newlabel{eq43}{{43}{5}}
\newlabel{eq44}{{44}{5}}
\newlabel{eq45}{{45}{5}}
\newlabel{eq46}{{46}{5}}
\newlabel{eq47}{{47}{5}}
\newlabel{eq48}{{48}{5}}
\@writefile{toc}{\contentsline {section}{\numberline {2}\IeC {\CYRU }\IeC {\cyrr }\IeC {\cyra }\IeC {\cyrv }\IeC {\cyrn }\IeC {\cyre }\IeC {\cyrn }\IeC {\cyri }\IeC {\cyrya } \IeC {\cyrd }\IeC {\cyrl }\IeC {\cyrya } \IeC {\cyrd }\IeC {\cyri }\IeC {\cyrn }\IeC {\cyra }\IeC {\cyrm }\IeC {\cyri }\IeC {\cyrk }\IeC {\cyri } \IeC {\cyrch }\IeC {\cyra }\IeC {\cyrs }\IeC {\cyrt }\IeC {\cyri }\IeC {\cyrc }\IeC {\cyrery }}{6}}
\newlabel{eq49}{{49}{6}}
\newlabel{eq50}{{50}{6}}
\newlabel{eq51}{{51}{6}}
\newlabel{eq52}{{52}{6}}
\newlabel{eq53}{{53}{6}}
\newlabel{eq54}{{54}{6}}
\newlabel{eq55}{{55}{6}}
\@writefile{toc}{\contentsline {section}{\numberline {3}\IeC {\CYRG }\IeC {\cyrr }\IeC {\cyra }\IeC {\cyrn }\IeC {\cyri }\IeC {\cyrch }\IeC {\cyrn }\IeC {\cyrery }\IeC {\cyre } \IeC {\cyru }\IeC {\cyrs }\IeC {\cyrl }\IeC {\cyro }\IeC {\cyrv }\IeC {\cyri }\IeC {\cyrya } \IeC {\cyri } \IeC {\cyrg }\IeC {\cyrr }\IeC {\cyra }\IeC {\cyrn }\IeC {\cyri }\IeC {\cyrch }\IeC {\cyrn }\IeC {\cyrery }\IeC {\cyre } \IeC {\cyri }\IeC {\cyrn }\IeC {\cyrt }\IeC {\cyre }\IeC {\cyrg }\IeC {\cyrr }\IeC {\cyra }\IeC {\cyrl }\IeC {\cyrsftsn }\IeC {\cyrn }\IeC {\cyrery }\IeC {\cyre } \IeC {\cyru }\IeC {\cyrr }\IeC {\cyra }\IeC {\cyrv }\IeC {\cyrn }\IeC {\cyre }\IeC {\cyrn }\IeC {\cyri }\IeC {\cyrya }}{6}}
\newlabel{eq56}{{56}{6}}
\newlabel{eq57}{{57}{6}}
\newlabel{eq58}{{58}{6}}
\newlabel{eq59}{{59}{6}}
\newlabel{eq60}{{60}{7}}
\newlabel{eq61}{{61}{7}}
\newlabel{eq62}{{62}{7}}
\newlabel{eq63}{{63}{7}}
\newlabel{eq64}{{64}{7}}
\newlabel{eq65}{{65}{7}}
\newlabel{eq66}{{66}{7}}
\newlabel{eq67}{{67}{7}}
\newlabel{p21}{{68}{8}}
\@writefile{toc}{\contentsline {section}{\numberline {4}\IeC {\CYRI }\IeC {\cyrn }\IeC {\cyrt }\IeC {\cyre }\IeC {\cyrg }\IeC {\cyrr }\IeC {\cyri }\IeC {\cyrr }\IeC {\cyro }\IeC {\cyrv }\IeC {\cyra }\IeC {\cyrn }\IeC {\cyri }\IeC {\cyre } \IeC {\cyrp }\IeC {\cyro } \IeC {\cyrv }\IeC {\cyrr }\IeC {\cyre }\IeC {\cyrm }\IeC {\cyre }\IeC {\cyrn }\IeC {\cyri }}{8}}
\newlabel{tm1}{{69}{8}}
\bibcite{Gumerov}{1}
\@writefile{lof}{\contentsline {figure}{\numberline {1}{\ignorespaces \IeC {\CYRD }\IeC {\cyri }\IeC {\cyrn }\IeC {\cyra }\IeC {\cyrm }\IeC {\cyri }\IeC {\cyrk }\IeC {\cyra } \IeC {\cyrr }\IeC {\cyra }\IeC {\cyrd }\IeC {\cyri }\IeC {\cyru }\IeC {\cyrs }\IeC {\cyra } \IeC {\cyrp }\IeC {\cyru }\IeC {\cyrz }\IeC {\cyrery }\IeC {\cyrr }\IeC {\cyrsftsn }\IeC {\cyrk }\IeC {\cyra } \IeC {\cyrp }\IeC {\cyrr }\IeC {\cyri } $d = ia_0, i = 4..10$}}{9}}
\newlabel{r1}{{1}{9}}
\@writefile{lof}{\contentsline {figure}{\numberline {2}{\ignorespaces \IeC {\CYRD }\IeC {\cyri }\IeC {\cyrn }\IeC {\cyra }\IeC {\cyrm }\IeC {\cyri }\IeC {\cyrk }\IeC {\cyra } \IeC {\cyrc }\IeC {\cyre }\IeC {\cyrn }\IeC {\cyrt }\IeC {\cyrr }\IeC {\cyra } \IeC {\cyrp }\IeC {\cyru }\IeC {\cyrz }\IeC {\cyrery }\IeC {\cyrr }\IeC {\cyrsftsn }\IeC {\cyrk }\IeC {\cyra } \IeC {\cyrp }\IeC {\cyrr }\IeC {\cyri } $d = ia_0, i = 4..10$}}{10}}
\newlabel{r2}{{2}{10}}
\@writefile{lof}{\contentsline {figure}{\numberline {3}{\ignorespaces \IeC {\CYRD }\IeC {\cyri }\IeC {\cyrn }\IeC {\cyra }\IeC {\cyrm }\IeC {\cyri }\IeC {\cyrk }\IeC {\cyra } \IeC {\cyrc }\IeC {\cyre }\IeC {\cyrn }\IeC {\cyrt }\IeC {\cyrr }\IeC {\cyra } \IeC {\cyrch }\IeC {\cyra }\IeC {\cyrs }\IeC {\cyrt }\IeC {\cyri }\IeC {\cyrc }\IeC {\cyrery } \IeC {\cyrp }\IeC {\cyrr }\IeC {\cyri } $d = ia_0, i = 4..10$}}{10}}
\newlabel{r3}{{3}{10}}
